<?xml version='1.0' encoding='ASCII'?>
<svg xmlns="http://www.w3.org/2000/svg" xmlns:xlink="http://www.w3.org/1999/xlink" width="100" height="120" viewBox="0 0 100 120">
                        <defs>
                        </defs>
                        <rect x="0" y="20" width="100" height="100" stroke="black" fill="white"/><path d="M0.0 20.0 L25.0 20.0 L25.0 45.0 L0.0 45.0" stroke="lightgray" fill="white"/><path d="M0.0 45.0 L25.0 45.0 L25.0 70.0 L0.0 70.0" stroke="lightgray" fill="white"/><path d="M0.0 70.0 L25.0 70.0 L25.0 95.0 L0.0 95.0" stroke="lightgray" fill="lightgrey"/><path d="M0.0 95.0 L25.0 95.0 L25.0 120.0 L0.0 120.0" stroke="lightgray" fill="lightgrey"/><path d="M25.0 20.0 L50.0 20.0 L50.0 45.0 L25.0 45.0" stroke="lightgray" fill="white"/><path d="M25.0 45.0 L50.0 45.0 L50.0 70.0 L25.0 70.0" stroke="lightgray" fill="lightgrey"/><path d="M25.0 70.0 L50.0 70.0 L50.0 95.0 L25.0 95.0" stroke="lightgray" fill="lightgrey"/><path d="M25.0 95.0 L50.0 95.0 L50.0 120.0 L25.0 120.0" stroke="lightgray" fill="lightgrey"/><path d="M50.0 20.0 L75.0 20.0 L75.0 45.0 L50.0 45.0" stroke="lightgray" fill="lightgrey"/><path d="M50.0 45.0 L75.0 45.0 L75.0 70.0 L50.0 70.0" stroke="lightgray" fill="lightgrey"/><path d="M50.0 70.0 L75.0 70.0 L75.0 95.0 L50.0 95.0" stroke="lightgray" fill="lightgrey"/><path d="M50.0 95.0 L75.0 95.0 L75.0 120.0 L50.0 120.0" stroke="lightgray" fill="lightgrey"/><path d="M75.0 20.0 L100.0 20.0 L100.0 45.0 L75.0 45.0" stroke="lightgray" fill="white"/><path d="M75.0 45.0 L100.0 45.0 L100.0 70.0 L75.0 70.0" stroke="lightgray" fill="lightgrey"/><path d="M75.0 70.0 L100.0 70.0 L100.0 95.0 L75.0 95.0" stroke="lightgray" fill="lightgrey"/><path d="M75.0 95.0 L100.0 95.0 L100.0 120.0 L75.0 120.0" stroke="lightgray" fill="lightgrey"/><path d="M0.0 20.0 L100.0 20.0 L100.0 120.0 L0.0 120.0 L0.0 20.0" stroke="black" fill="none"/><rect x="0" y="0" width="50" height="20" stroke="black" fill="white"/><rect x="0" y="0" width="20" height="20" stroke="black" fill="white"/><text font-size="20" text-anchor="middle" dy="-.2em" x="35" y="20" fill="black">2</text><text font-size="20" text-anchor="middle" dy="-.2em" x="10" y="20" fill="black">S</text><rect x="50" y="0" width="50" height="20" stroke="black" fill="white"/><text font-size="20" text-anchor="middle" dy="-.2em" x="85" y="20" fill="black">2</text><path d="M55.0 16.0 L58.0 16.0 L58.0 13.0 L58.0 10.0 L55.0 10.0 L55.0 7.0 L55.0 4.0 L58.0 4.0 L58.0 7.0 L61.0 7.0 L61.0 4.0 L64.0 4.0 L64.0 7.0 L67.0 7.0 L67.0 4.0 L70.0 4.0 L70.0 7.0 L70.0 10.0 L67.0 10.0 L67.0 13.0 L67.0 16.0 L70.0 16.0" stroke="black" fill="none"/><path d="M53.57142857142857 115.83333333333334 L57.14285714285714 115.83333333333334 L57.14285714285714 111.66666666666667 L57.14285714285714 107.50000000000001 L53.57142857142857 107.50000000000001 L53.57142857142857 103.33333333333334 L53.57142857142857 99.16666666666669 L57.14285714285714 99.16666666666669 L57.14285714285714 103.33333333333334 L60.71428571428571 103.33333333333334 L60.71428571428571 99.16666666666669 L64.28571428571428 99.16666666666669 L64.28571428571428 103.33333333333334 L67.85714285714285 103.33333333333334 L67.85714285714285 99.16666666666669 L71.42857142857142 99.16666666666669 L71.42857142857142 103.33333333333334 L71.42857142857142 107.50000000000001 L67.85714285714285 107.50000000000001 L67.85714285714285 111.66666666666667 L67.85714285714285 115.83333333333334 L71.42857142857142 115.83333333333334" stroke="red" fill="none"/><path d="M25.0 45.0 L25.0 70.0" stroke="black" fill="none"/><path d="M50.0 20.0 L50.0 45.0" stroke="black" fill="none"/><path d="M75.0 20.0 L75.0 45.0" stroke="black" fill="none"/><path d="M0.0 70.0 L25.0 70.0" stroke="black" fill="none"/><path d="M25.0 45.0 L50.0 45.0" stroke="black" fill="none"/><path d="M75.0 45.0 L100.0 45.0" stroke="black" fill="none"/></svg>
