<?xml version='1.0' encoding='ASCII'?>
<svg xmlns="http://www.w3.org/2000/svg" xmlns:xlink="http://www.w3.org/1999/xlink" width="100" height="120" viewBox="0 0 100 120">
                        <defs>
                        </defs>
                        <rect x="0" y="20" width="100" height="100" stroke="black" fill="white"/><path d="M0.0 20.0 L12.5 20.0 L12.5 32.5 L0.0 32.5" stroke="lightgray" fill="lightgrey"/><path d="M0.0 32.5 L12.5 32.5 L12.5 45.0 L0.0 45.0" stroke="lightgray" fill="lightgrey"/><path d="M0.0 45.0 L12.5 45.0 L12.5 57.5 L0.0 57.5" stroke="lightgray" fill="lightgrey"/><path d="M0.0 57.5 L12.5 57.5 L12.5 70.0 L0.0 70.0" stroke="lightgray" fill="lightgrey"/><path d="M0.0 70.0 L12.5 70.0 L12.5 82.5 L0.0 82.5" stroke="lightgray" fill="lightgrey"/><path d="M0.0 82.5 L12.5 82.5 L12.5 95.0 L0.0 95.0" stroke="lightgray" fill="lightgrey"/><path d="M0.0 95.0 L12.5 95.0 L12.5 107.5 L0.0 107.5" stroke="lightgray" fill="lightgrey"/><path d="M0.0 107.5 L12.5 107.5 L12.5 120.0 L0.0 120.0" stroke="lightgray" fill="lightgrey"/><path d="M12.5 20.0 L25.0 20.0 L25.0 32.5 L12.5 32.5" stroke="lightgray" fill="lightgrey"/><path d="M12.5 32.5 L25.0 32.5 L25.0 45.0 L12.5 45.0" stroke="lightgray" fill="lightgrey"/><path d="M12.5 45.0 L25.0 45.0 L25.0 57.5 L12.5 57.5" stroke="lightgray" fill="lightgrey"/><path d="M12.5 57.5 L25.0 57.5 L25.0 70.0 L12.5 70.0" stroke="lightgray" fill="lightgrey"/><path d="M12.5 70.0 L25.0 70.0 L25.0 82.5 L12.5 82.5" stroke="lightgray" fill="lightgrey"/><path d="M12.5 82.5 L25.0 82.5 L25.0 95.0 L12.5 95.0" stroke="lightgray" fill="lightgrey"/><path d="M12.5 95.0 L25.0 95.0 L25.0 107.5 L12.5 107.5" stroke="lightgray" fill="lightgrey"/><path d="M12.5 107.5 L25.0 107.5 L25.0 120.0 L12.5 120.0" stroke="lightgray" fill="lightgrey"/><path d="M25.0 20.0 L37.5 20.0 L37.5 32.5 L25.0 32.5" stroke="lightgray" fill="lightgrey"/><path d="M25.0 32.5 L37.5 32.5 L37.5 45.0 L25.0 45.0" stroke="lightgray" fill="lightgrey"/><path d="M25.0 45.0 L37.5 45.0 L37.5 57.5 L25.0 57.5" stroke="lightgray" fill="lightgrey"/><path d="M25.0 57.5 L37.5 57.5 L37.5 70.0 L25.0 70.0" stroke="lightgray" fill="lightgrey"/><path d="M25.0 70.0 L37.5 70.0 L37.5 82.5 L25.0 82.5" stroke="lightgray" fill="lightgrey"/><path d="M25.0 82.5 L37.5 82.5 L37.5 95.0 L25.0 95.0" stroke="lightgray" fill="lightgrey"/><path d="M25.0 95.0 L37.5 95.0 L37.5 107.5 L25.0 107.5" stroke="lightgray" fill="lightgrey"/><path d="M25.0 107.5 L37.5 107.5 L37.5 120.0 L25.0 120.0" stroke="lightgray" fill="lightgrey"/><path d="M37.5 20.0 L50.0 20.0 L50.0 32.5 L37.5 32.5" stroke="lightgray" fill="lightgrey"/><path d="M37.5 32.5 L50.0 32.5 L50.0 45.0 L37.5 45.0" stroke="lightgray" fill="lightgrey"/><path d="M37.5 45.0 L50.0 45.0 L50.0 57.5 L37.5 57.5" stroke="lightgray" fill="lightgrey"/><path d="M37.5 57.5 L50.0 57.5 L50.0 70.0 L37.5 70.0" stroke="lightgray" fill="lightgrey"/><path d="M37.5 70.0 L50.0 70.0 L50.0 82.5 L37.5 82.5" stroke="lightgray" fill="lightgrey"/><path d="M37.5 82.5 L50.0 82.5 L50.0 95.0 L37.5 95.0" stroke="lightgray" fill="lightgrey"/><path d="M37.5 95.0 L50.0 95.0 L50.0 107.5 L37.5 107.5" stroke="lightgray" fill="lightgrey"/><path d="M37.5 107.5 L50.0 107.5 L50.0 120.0 L37.5 120.0" stroke="lightgray" fill="lightgrey"/><path d="M50.0 20.0 L62.5 20.0 L62.5 32.5 L50.0 32.5" stroke="lightgray" fill="lightgrey"/><path d="M50.0 32.5 L62.5 32.5 L62.5 45.0 L50.0 45.0" stroke="lightgray" fill="lightgrey"/><path d="M50.0 45.0 L62.5 45.0 L62.5 57.5 L50.0 57.5" stroke="lightgray" fill="lightgrey"/><path d="M50.0 57.5 L62.5 57.5 L62.5 70.0 L50.0 70.0" stroke="lightgray" fill="lightgrey"/><path d="M50.0 70.0 L62.5 70.0 L62.5 82.5 L50.0 82.5" stroke="lightgray" fill="lightgrey"/><path d="M50.0 82.5 L62.5 82.5 L62.5 95.0 L50.0 95.0" stroke="lightgray" fill="lightgrey"/><path d="M50.0 95.0 L62.5 95.0 L62.5 107.5 L50.0 107.5" stroke="lightgray" fill="lightgrey"/><path d="M50.0 107.5 L62.5 107.5 L62.5 120.0 L50.0 120.0" stroke="lightgray" fill="lightgrey"/><path d="M62.5 20.0 L75.0 20.0 L75.0 32.5 L62.5 32.5" stroke="lightgray" fill="lightgrey"/><path d="M62.5 32.5 L75.0 32.5 L75.0 45.0 L62.5 45.0" stroke="lightgray" fill="lightgrey"/><path d="M62.5 45.0 L75.0 45.0 L75.0 57.5 L62.5 57.5" stroke="lightgray" fill="lightgrey"/><path d="M62.5 57.5 L75.0 57.5 L75.0 70.0 L62.5 70.0" stroke="lightgray" fill="lightgrey"/><path d="M62.5 70.0 L75.0 70.0 L75.0 82.5 L62.5 82.5" stroke="lightgray" fill="lightgrey"/><path d="M62.5 82.5 L75.0 82.5 L75.0 95.0 L62.5 95.0" stroke="lightgray" fill="lightgrey"/><path d="M62.5 95.0 L75.0 95.0 L75.0 107.5 L62.5 107.5" stroke="lightgray" fill="lightgrey"/><path d="M62.5 107.5 L75.0 107.5 L75.0 120.0 L62.5 120.0" stroke="lightgray" fill="lightgrey"/><path d="M75.0 20.0 L87.5 20.0 L87.5 32.5 L75.0 32.5" stroke="lightgray" fill="lightgrey"/><path d="M75.0 32.5 L87.5 32.5 L87.5 45.0 L75.0 45.0" stroke="lightgray" fill="lightgrey"/><path d="M75.0 45.0 L87.5 45.0 L87.5 57.5 L75.0 57.5" stroke="lightgray" fill="lightgrey"/><path d="M75.0 57.5 L87.5 57.5 L87.5 70.0 L75.0 70.0" stroke="lightgray" fill="lightgrey"/><path d="M75.0 70.0 L87.5 70.0 L87.5 82.5 L75.0 82.5" stroke="lightgray" fill="lightgrey"/><path d="M75.0 82.5 L87.5 82.5 L87.5 95.0 L75.0 95.0" stroke="lightgray" fill="lightgrey"/><path d="M75.0 95.0 L87.5 95.0 L87.5 107.5 L75.0 107.5" stroke="lightgray" fill="lightgrey"/><path d="M75.0 107.5 L87.5 107.5 L87.5 120.0 L75.0 120.0" stroke="lightgray" fill="lightgreen"/><path d="M87.5 20.0 L100.0 20.0 L100.0 32.5 L87.5 32.5" stroke="lightgray" fill="lightgrey"/><path d="M87.5 32.5 L100.0 32.5 L100.0 45.0 L87.5 45.0" stroke="lightgray" fill="lightgrey"/><path d="M87.5 45.0 L100.0 45.0 L100.0 57.5 L87.5 57.5" stroke="lightgray" fill="lightgrey"/><path d="M87.5 57.5 L100.0 57.5 L100.0 70.0 L87.5 70.0" stroke="lightgray" fill="lightgrey"/><path d="M87.5 70.0 L100.0 70.0 L100.0 82.5 L87.5 82.5" stroke="lightgray" fill="white"/><path d="M87.5 82.5 L100.0 82.5 L100.0 95.0 L87.5 95.0" stroke="lightgray" fill="lightgrey"/><path d="M87.5 95.0 L100.0 95.0 L100.0 107.5 L87.5 107.5" stroke="lightgray" fill="white"/><path d="M87.5 107.5 L100.0 107.5 L100.0 120.0 L87.5 120.0" stroke="lightgray" fill="white"/><path d="M0.0 20.0 L100.0 20.0 L100.0 120.0 L0.0 120.0 L0.0 20.0" stroke="black" fill="none"/><text font-size="12.5" text-anchor="middle" dy="-.2em" x="6.25" y="32.5" fill="grey"></text><text font-size="12.5" text-anchor="middle" dy="-.2em" x="6.25" y="45.0" fill="grey"></text><text font-size="12.5" text-anchor="middle" dy="-.2em" x="6.25" y="57.5" fill="grey"></text><text font-size="12.5" text-anchor="middle" dy="-.2em" x="6.25" y="70.0" fill="grey"></text><text font-size="12.5" text-anchor="middle" dy="-.2em" x="6.25" y="82.5" fill="grey"></text><text font-size="12.5" text-anchor="middle" dy="-.2em" x="6.25" y="95.0" fill="grey"></text><text font-size="12.5" text-anchor="middle" dy="-.2em" x="6.25" y="107.5" fill="grey"></text><text font-size="12.5" text-anchor="middle" dy="-.2em" x="6.25" y="120.0" fill="grey"></text><text font-size="12.5" text-anchor="middle" dy="-.2em" x="18.75" y="32.5" fill="grey"></text><text font-size="12.5" text-anchor="middle" dy="-.2em" x="18.75" y="45.0" fill="grey"></text><text font-size="12.5" text-anchor="middle" dy="-.2em" x="18.75" y="57.5" fill="grey"></text><text font-size="12.5" text-anchor="middle" dy="-.2em" x="18.75" y="70.0" fill="grey"></text><text font-size="12.5" text-anchor="middle" dy="-.2em" x="18.75" y="82.5" fill="grey"></text><text font-size="12.5" text-anchor="middle" dy="-.2em" x="18.75" y="95.0" fill="grey"></text><text font-size="12.5" text-anchor="middle" dy="-.2em" x="18.75" y="107.5" fill="grey"></text><text font-size="12.5" text-anchor="middle" dy="-.2em" x="18.75" y="120.0" fill="grey"></text><text font-size="12.5" text-anchor="middle" dy="-.2em" x="31.25" y="32.5" fill="grey"></text><text font-size="12.5" text-anchor="middle" dy="-.2em" x="31.25" y="45.0" fill="grey"></text><text font-size="12.5" text-anchor="middle" dy="-.2em" x="31.25" y="57.5" fill="grey"></text><text font-size="12.5" text-anchor="middle" dy="-.2em" x="31.25" y="70.0" fill="grey"></text><text font-size="12.5" text-anchor="middle" dy="-.2em" x="31.25" y="82.5" fill="grey"></text><text font-size="12.5" text-anchor="middle" dy="-.2em" x="31.25" y="95.0" fill="grey"></text><text font-size="12.5" text-anchor="middle" dy="-.2em" x="31.25" y="107.5" fill="grey"></text><text font-size="12.5" text-anchor="middle" dy="-.2em" x="31.25" y="120.0" fill="grey"></text><text font-size="12.5" text-anchor="middle" dy="-.2em" x="43.75" y="32.5" fill="grey"></text><text font-size="12.5" text-anchor="middle" dy="-.2em" x="43.75" y="45.0" fill="grey"></text><text font-size="12.5" text-anchor="middle" dy="-.2em" x="43.75" y="57.5" fill="grey"></text><text font-size="12.5" text-anchor="middle" dy="-.2em" x="43.75" y="70.0" fill="grey"></text><text font-size="12.5" text-anchor="middle" dy="-.2em" x="43.75" y="82.5" fill="grey"></text><text font-size="12.5" text-anchor="middle" dy="-.2em" x="43.75" y="95.0" fill="grey"></text><text font-size="12.5" text-anchor="middle" dy="-.2em" x="43.75" y="107.5" fill="grey"></text><text font-size="12.5" text-anchor="middle" dy="-.2em" x="43.75" y="120.0" fill="grey"></text><text font-size="12.5" text-anchor="middle" dy="-.2em" x="56.25" y="32.5" fill="grey"></text><text font-size="12.5" text-anchor="middle" dy="-.2em" x="56.25" y="45.0" fill="grey"></text><text font-size="12.5" text-anchor="middle" dy="-.2em" x="56.25" y="57.5" fill="grey"></text><text font-size="12.5" text-anchor="middle" dy="-.2em" x="56.25" y="70.0" fill="grey"></text><text font-size="12.5" text-anchor="middle" dy="-.2em" x="56.25" y="82.5" fill="grey"></text><text font-size="12.5" text-anchor="middle" dy="-.2em" x="56.25" y="95.0" fill="grey"></text><text font-size="12.5" text-anchor="middle" dy="-.2em" x="56.25" y="107.5" fill="grey"></text><text font-size="12.5" text-anchor="middle" dy="-.2em" x="56.25" y="120.0" fill="grey"></text><text font-size="12.5" text-anchor="middle" dy="-.2em" x="68.75" y="32.5" fill="grey"></text><text font-size="12.5" text-anchor="middle" dy="-.2em" x="68.75" y="45.0" fill="grey"></text><text font-size="12.5" text-anchor="middle" dy="-.2em" x="68.75" y="57.5" fill="grey"></text><text font-size="12.5" text-anchor="middle" dy="-.2em" x="68.75" y="70.0" fill="grey"></text><text font-size="12.5" text-anchor="middle" dy="-.2em" x="68.75" y="82.5" fill="grey"></text><text font-size="12.5" text-anchor="middle" dy="-.2em" x="68.75" y="95.0" fill="grey"></text><text font-size="12.5" text-anchor="middle" dy="-.2em" x="68.75" y="107.5" fill="grey"></text><text font-size="12.5" text-anchor="middle" dy="-.2em" x="68.75" y="120.0" fill="grey"></text><text font-size="12.5" text-anchor="middle" dy="-.2em" x="81.25" y="32.5" fill="grey"></text><text font-size="12.5" text-anchor="middle" dy="-.2em" x="81.25" y="45.0" fill="grey"></text><text font-size="12.5" text-anchor="middle" dy="-.2em" x="81.25" y="57.5" fill="grey"></text><text font-size="12.5" text-anchor="middle" dy="-.2em" x="81.25" y="70.0" fill="grey"></text><text font-size="12.5" text-anchor="middle" dy="-.2em" x="81.25" y="82.5" fill="grey"></text><text font-size="12.5" text-anchor="middle" dy="-.2em" x="81.25" y="95.0" fill="grey"></text><text font-size="12.5" text-anchor="middle" dy="-.2em" x="81.25" y="107.5" fill="grey"></text><text font-size="12.5" text-anchor="middle" dy="-.2em" x="81.25" y="120.0" fill="grey">1</text><text font-size="12.5" text-anchor="middle" dy="-.2em" x="93.75" y="32.5" fill="grey"></text><text font-size="12.5" text-anchor="middle" dy="-.2em" x="93.75" y="45.0" fill="grey"></text><text font-size="12.5" text-anchor="middle" dy="-.2em" x="93.75" y="57.5" fill="grey"></text><text font-size="12.5" text-anchor="middle" dy="-.2em" x="93.75" y="70.0" fill="grey"></text><text font-size="12.5" text-anchor="middle" dy="-.2em" x="93.75" y="82.5" fill="grey">2</text><text font-size="12.5" text-anchor="middle" dy="-.2em" x="93.75" y="95.0" fill="grey"></text><text font-size="12.5" text-anchor="middle" dy="-.2em" x="93.75" y="107.5" fill="grey">2</text><text font-size="12.5" text-anchor="middle" dy="-.2em" x="93.75" y="120.0" fill="grey">2</text><rect x="0" y="0" width="50" height="20" stroke="black" fill="white"/><rect x="0" y="0" width="20" height="20" stroke="black" fill="white"/><text font-size="20" text-anchor="middle" dy="-.2em" x="35" y="20" fill="black">2</text><text font-size="20" text-anchor="middle" dy="-.2em" x="10" y="20" fill="black">S</text><rect x="50" y="0" width="50" height="20" stroke="black" fill="white"/><text font-size="20" text-anchor="middle" dy="-.2em" x="85" y="20" fill="black">2</text><path d="M55.0 16.0 L58.0 16.0 L58.0 13.0 L58.0 10.0 L55.0 10.0 L55.0 7.0 L55.0 4.0 L58.0 4.0 L58.0 7.0 L61.0 7.0 L61.0 4.0 L64.0 4.0 L64.0 7.0 L67.0 7.0 L67.0 4.0 L70.0 4.0 L70.0 7.0 L70.0 10.0 L67.0 10.0 L67.0 13.0 L67.0 16.0 L70.0 16.0" stroke="black" fill="none"/><path d="M1.7857142857142856 42.91666666666667 L3.571428571428571 42.91666666666667 L3.571428571428571 40.833333333333336 L3.571428571428571 38.75 L1.7857142857142856 38.75 L1.7857142857142856 36.666666666666664 L1.7857142857142856 34.58333333333333 L3.571428571428571 34.58333333333333 L3.571428571428571 36.666666666666664 L5.357142857142857 36.666666666666664 L5.357142857142857 34.58333333333333 L7.142857142857142 34.58333333333333 L7.142857142857142 36.666666666666664 L8.928571428571427 36.666666666666664 L8.928571428571427 34.58333333333333 L10.714285714285712 34.58333333333333 L10.714285714285712 36.666666666666664 L10.714285714285712 38.75 L8.928571428571427 38.75 L8.928571428571427 40.833333333333336 L8.928571428571427 42.91666666666667 L10.714285714285712 42.91666666666667" stroke="red" fill="none"/><path d="M1.7857142857142856 92.91666666666666 L3.571428571428571 92.91666666666666 L3.571428571428571 90.83333333333333 L3.571428571428571 88.74999999999999 L1.7857142857142856 88.74999999999999 L1.7857142857142856 86.66666666666666 L1.7857142857142856 84.58333333333331 L3.571428571428571 84.58333333333331 L3.571428571428571 86.66666666666666 L5.357142857142857 86.66666666666666 L5.357142857142857 84.58333333333331 L7.142857142857142 84.58333333333331 L7.142857142857142 86.66666666666666 L8.928571428571427 86.66666666666666 L8.928571428571427 84.58333333333331 L10.714285714285712 84.58333333333331 L10.714285714285712 86.66666666666666 L10.714285714285712 88.74999999999999 L8.928571428571427 88.74999999999999 L8.928571428571427 90.83333333333333 L8.928571428571427 92.91666666666666 L10.714285714285712 92.91666666666666" stroke="black" fill="none"/><path d="M26.785714285714285 67.91666666666667 L28.57142857142857 67.91666666666667 L28.57142857142857 65.83333333333334 L28.57142857142857 63.75000000000001 L26.785714285714285 63.75000000000001 L26.785714285714285 61.66666666666667 L26.785714285714285 59.58333333333334 L28.57142857142857 59.58333333333334 L28.57142857142857 61.66666666666667 L30.357142857142854 61.66666666666667 L30.357142857142854 59.58333333333334 L32.14285714285714 59.58333333333334 L32.14285714285714 61.66666666666667 L33.92857142857142 61.66666666666667 L33.92857142857142 59.58333333333334 L35.71428571428571 59.58333333333334 L35.71428571428571 61.66666666666667 L35.71428571428571 63.75000000000001 L33.92857142857142 63.75000000000001 L33.92857142857142 65.83333333333334 L33.92857142857142 67.91666666666667 L35.71428571428571 67.91666666666667" stroke="black" fill="none"/><path d="M26.785714285714285 117.91666666666666 L28.57142857142857 117.91666666666666 L28.57142857142857 115.83333333333333 L28.57142857142857 113.74999999999999 L26.785714285714285 113.74999999999999 L26.785714285714285 111.66666666666666 L26.785714285714285 109.58333333333331 L28.57142857142857 109.58333333333331 L28.57142857142857 111.66666666666666 L30.357142857142854 111.66666666666666 L30.357142857142854 109.58333333333331 L32.14285714285714 109.58333333333331 L32.14285714285714 111.66666666666666 L33.92857142857142 111.66666666666666 L33.92857142857142 109.58333333333331 L35.71428571428571 109.58333333333331 L35.71428571428571 111.66666666666666 L35.71428571428571 113.74999999999999 L33.92857142857142 113.74999999999999 L33.92857142857142 115.83333333333333 L33.92857142857142 117.91666666666666 L35.71428571428571 117.91666666666666" stroke="black" fill="none"/><path d="M39.285714285714285 30.416666666666668 L41.07142857142857 30.416666666666668 L41.07142857142857 28.333333333333336 L41.07142857142857 26.25 L39.285714285714285 26.25 L39.285714285714285 24.166666666666668 L39.285714285714285 22.083333333333336 L41.07142857142857 22.083333333333336 L41.07142857142857 24.166666666666668 L42.857142857142854 24.166666666666668 L42.857142857142854 22.083333333333336 L44.64285714285714 22.083333333333336 L44.64285714285714 24.166666666666668 L46.42857142857142 24.166666666666668 L46.42857142857142 22.083333333333336 L48.21428571428571 22.083333333333336 L48.21428571428571 24.166666666666668 L48.21428571428571 26.25 L46.42857142857142 26.25 L46.42857142857142 28.333333333333336 L46.42857142857142 30.416666666666668 L48.21428571428571 30.416666666666668" stroke="black" fill="none"/><path d="M51.78571428571429 92.91666666666666 L53.571428571428584 92.91666666666666 L53.571428571428584 90.83333333333333 L53.571428571428584 88.74999999999999 L51.78571428571429 88.74999999999999 L51.78571428571429 86.66666666666666 L51.78571428571429 84.58333333333331 L53.571428571428584 84.58333333333331 L53.571428571428584 86.66666666666666 L55.35714285714287 86.66666666666666 L55.35714285714287 84.58333333333331 L57.14285714285716 84.58333333333331 L57.14285714285716 86.66666666666666 L58.92857142857145 86.66666666666666 L58.92857142857145 84.58333333333331 L60.714285714285744 84.58333333333331 L60.714285714285744 86.66666666666666 L60.714285714285744 88.74999999999999 L58.92857142857145 88.74999999999999 L58.92857142857145 90.83333333333333 L58.92857142857145 92.91666666666666 L60.714285714285744 92.91666666666666" stroke="black" fill="none"/><path d="M64.28571428571429 55.41666666666667 L66.07142857142858 55.41666666666667 L66.07142857142858 53.333333333333336 L66.07142857142858 51.25000000000001 L64.28571428571429 51.25000000000001 L64.28571428571429 49.16666666666667 L64.28571428571429 47.08333333333334 L66.07142857142858 47.08333333333334 L66.07142857142858 49.16666666666667 L67.85714285714288 49.16666666666667 L67.85714285714288 47.08333333333334 L69.64285714285717 47.08333333333334 L69.64285714285717 49.16666666666667 L71.42857142857146 49.16666666666667 L71.42857142857146 47.08333333333334 L73.21428571428574 47.08333333333334 L73.21428571428574 49.16666666666667 L73.21428571428574 51.25000000000001 L71.42857142857146 51.25000000000001 L71.42857142857146 53.333333333333336 L71.42857142857146 55.41666666666667 L73.21428571428574 55.41666666666667" stroke="black" fill="none"/><path d="M89.28571428571429 30.416666666666668 L91.07142857142858 30.416666666666668 L91.07142857142858 28.333333333333336 L91.07142857142858 26.25 L89.28571428571429 26.25 L89.28571428571429 24.166666666666668 L89.28571428571429 22.083333333333336 L91.07142857142858 22.083333333333336 L91.07142857142858 24.166666666666668 L92.85714285714288 24.166666666666668 L92.85714285714288 22.083333333333336 L94.64285714285717 22.083333333333336 L94.64285714285717 24.166666666666668 L96.42857142857146 24.166666666666668 L96.42857142857146 22.083333333333336 L98.21428571428574 22.083333333333336 L98.21428571428574 24.166666666666668 L98.21428571428574 26.25 L96.42857142857146 26.25 L96.42857142857146 28.333333333333336 L96.42857142857146 30.416666666666668 L98.21428571428574 30.416666666666668" stroke="black" fill="none"/><path d="M75.0 107.5 L75.0 120.0" stroke="black" fill="none"/><path d="M87.5 70.0 L87.5 82.5" stroke="black" fill="none"/><path d="M87.5 95.0 L87.5 107.5" stroke="black" fill="none"/><path d="M87.5 107.5 L87.5 120.0" stroke="black" fill="none"/><path d="M75.0 107.5 L87.5 107.5" stroke="black" fill="none"/><path d="M87.5 70.0 L100.0 70.0" stroke="black" fill="none"/><path d="M87.5 82.5 L100.0 82.5" stroke="black" fill="none"/><path d="M87.5 95.0 L100.0 95.0" stroke="black" fill="none"/></svg>
