<?xml version='1.0' encoding='ASCII'?>
<svg xmlns="http://www.w3.org/2000/svg" xmlns:xlink="http://www.w3.org/1999/xlink" width="100" height="120" viewBox="0 0 100 120">
                        <defs>
                        </defs>
                        <rect x="0" y="20" width="100" height="100" stroke="black" fill="white"/><path d="M0.0 20.0 L16.666666666666668 20.0 L16.666666666666668 36.66666666666667 L0.0 36.66666666666667" stroke="lightgray" fill="white"/><path d="M0.0 36.66666666666667 L16.666666666666668 36.66666666666667 L16.666666666666668 53.333333333333336 L0.0 53.333333333333336" stroke="lightgray" fill="orange"/><path d="M0.0 53.333333333333336 L16.666666666666668 53.333333333333336 L16.666666666666668 70.0 L0.0 70.0" stroke="lightgray" fill="lightgrey"/><path d="M0.0 70.0 L16.666666666666668 70.0 L16.666666666666668 86.66666666666667 L0.0 86.66666666666667" stroke="lightgray" fill="lightgrey"/><path d="M0.0 86.66666666666667 L16.666666666666668 86.66666666666667 L16.666666666666668 103.33333333333333 L0.0 103.33333333333333" stroke="lightgray" fill="lightgrey"/><path d="M0.0 103.33333333333333 L16.666666666666668 103.33333333333333 L16.666666666666668 120.0 L0.0 120.0" stroke="lightgray" fill="lightgrey"/><path d="M16.666666666666668 20.0 L33.333333333333336 20.0 L33.333333333333336 36.66666666666667 L16.666666666666668 36.66666666666667" stroke="lightgray" fill="orange"/><path d="M16.666666666666668 36.66666666666667 L33.333333333333336 36.66666666666667 L33.333333333333336 53.333333333333336 L16.666666666666668 53.333333333333336" stroke="lightgray" fill="white"/><path d="M16.666666666666668 53.333333333333336 L33.333333333333336 53.333333333333336 L33.333333333333336 70.0 L16.666666666666668 70.0" stroke="lightgray" fill="lightgrey"/><path d="M16.666666666666668 70.0 L33.333333333333336 70.0 L33.333333333333336 86.66666666666667 L16.666666666666668 86.66666666666667" stroke="lightgray" fill="lightgrey"/><path d="M16.666666666666668 86.66666666666667 L33.333333333333336 86.66666666666667 L33.333333333333336 103.33333333333333 L16.666666666666668 103.33333333333333" stroke="lightgray" fill="lightgrey"/><path d="M16.666666666666668 103.33333333333333 L33.333333333333336 103.33333333333333 L33.333333333333336 120.0 L16.666666666666668 120.0" stroke="lightgray" fill="lightgrey"/><path d="M33.333333333333336 20.0 L50.0 20.0 L50.0 36.66666666666667 L33.333333333333336 36.66666666666667" stroke="lightgray" fill="white"/><path d="M33.333333333333336 36.66666666666667 L50.0 36.66666666666667 L50.0 53.333333333333336 L33.333333333333336 53.333333333333336" stroke="lightgray" fill="lightgrey"/><path d="M33.333333333333336 53.333333333333336 L50.0 53.333333333333336 L50.0 70.0 L33.333333333333336 70.0" stroke="lightgray" fill="lightgrey"/><path d="M33.333333333333336 70.0 L50.0 70.0 L50.0 86.66666666666667 L33.333333333333336 86.66666666666667" stroke="lightgray" fill="lightgrey"/><path d="M33.333333333333336 86.66666666666667 L50.0 86.66666666666667 L50.0 103.33333333333333 L33.333333333333336 103.33333333333333" stroke="lightgray" fill="lightgrey"/><path d="M33.333333333333336 103.33333333333333 L50.0 103.33333333333333 L50.0 120.0 L33.333333333333336 120.0" stroke="lightgray" fill="lightgrey"/><path d="M50.0 20.0 L66.66666666666667 20.0 L66.66666666666667 36.66666666666667 L50.0 36.66666666666667" stroke="lightgray" fill="white"/><path d="M50.0 36.66666666666667 L66.66666666666667 36.66666666666667 L66.66666666666667 53.333333333333336 L50.0 53.333333333333336" stroke="lightgray" fill="lightgrey"/><path d="M50.0 53.333333333333336 L66.66666666666667 53.333333333333336 L66.66666666666667 70.0 L50.0 70.0" stroke="lightgray" fill="lightgrey"/><path d="M50.0 70.0 L66.66666666666667 70.0 L66.66666666666667 86.66666666666667 L50.0 86.66666666666667" stroke="lightgray" fill="lightgrey"/><path d="M50.0 86.66666666666667 L66.66666666666667 86.66666666666667 L66.66666666666667 103.33333333333333 L50.0 103.33333333333333" stroke="lightgray" fill="lightgrey"/><path d="M50.0 103.33333333333333 L66.66666666666667 103.33333333333333 L66.66666666666667 120.0 L50.0 120.0" stroke="lightgray" fill="lightgrey"/><path d="M66.66666666666667 20.0 L83.33333333333333 20.0 L83.33333333333333 36.66666666666667 L66.66666666666667 36.66666666666667" stroke="lightgray" fill="orange"/><path d="M66.66666666666667 36.66666666666667 L83.33333333333333 36.66666666666667 L83.33333333333333 53.333333333333336 L66.66666666666667 53.333333333333336" stroke="lightgray" fill="lightgrey"/><path d="M66.66666666666667 53.333333333333336 L83.33333333333333 53.333333333333336 L83.33333333333333 70.0 L66.66666666666667 70.0" stroke="lightgray" fill="lightgrey"/><path d="M66.66666666666667 70.0 L83.33333333333333 70.0 L83.33333333333333 86.66666666666667 L66.66666666666667 86.66666666666667" stroke="lightgray" fill="lightgrey"/><path d="M66.66666666666667 86.66666666666667 L83.33333333333333 86.66666666666667 L83.33333333333333 103.33333333333333 L66.66666666666667 103.33333333333333" stroke="lightgray" fill="lightgrey"/><path d="M66.66666666666667 103.33333333333333 L83.33333333333333 103.33333333333333 L83.33333333333333 120.0 L66.66666666666667 120.0" stroke="lightgray" fill="lightgrey"/><path d="M83.33333333333333 20.0 L100.0 20.0 L100.0 36.66666666666667 L83.33333333333333 36.66666666666667" stroke="lightgray" fill="lightgreen"/><path d="M83.33333333333333 36.66666666666667 L100.0 36.66666666666667 L100.0 53.333333333333336 L83.33333333333333 53.333333333333336" stroke="lightgray" fill="lightgrey"/><path d="M83.33333333333333 53.333333333333336 L100.0 53.333333333333336 L100.0 70.0 L83.33333333333333 70.0" stroke="lightgray" fill="lightgrey"/><path d="M83.33333333333333 70.0 L100.0 70.0 L100.0 86.66666666666667 L83.33333333333333 86.66666666666667" stroke="lightgray" fill="lightgrey"/><path d="M83.33333333333333 86.66666666666667 L100.0 86.66666666666667 L100.0 103.33333333333333 L83.33333333333333 103.33333333333333" stroke="lightgray" fill="lightgrey"/><path d="M83.33333333333333 103.33333333333333 L100.0 103.33333333333333 L100.0 120.0 L83.33333333333333 120.0" stroke="lightgray" fill="lightgrey"/><path d="M0.0 20.0 L100.0 20.0 L100.0 120.0 L0.0 120.0 L0.0 20.0" stroke="black" fill="none"/><text font-size="16.666666666666668" text-anchor="middle" dy="-.2em" x="8.333333333333334" y="36.66666666666667" fill="grey">1</text><text font-size="16.666666666666668" text-anchor="middle" dy="-.2em" x="8.333333333333334" y="53.333333333333336" fill="grey">X</text><text font-size="16.666666666666668" text-anchor="middle" dy="-.2em" x="8.333333333333334" y="70.0" fill="grey"></text><text font-size="16.666666666666668" text-anchor="middle" dy="-.2em" x="8.333333333333334" y="86.66666666666667" fill="grey"></text><text font-size="16.666666666666668" text-anchor="middle" dy="-.2em" x="8.333333333333334" y="103.33333333333333" fill="grey"></text><text font-size="16.666666666666668" text-anchor="middle" dy="-.2em" x="8.333333333333334" y="120.0" fill="grey"></text><text font-size="16.666666666666668" text-anchor="middle" dy="-.2em" x="25.0" y="36.66666666666667" fill="grey">X</text><text font-size="16.666666666666668" text-anchor="middle" dy="-.2em" x="25.0" y="53.333333333333336" fill="grey">1</text><text font-size="16.666666666666668" text-anchor="middle" dy="-.2em" x="25.0" y="70.0" fill="grey"></text><text font-size="16.666666666666668" text-anchor="middle" dy="-.2em" x="25.0" y="86.66666666666667" fill="grey"></text><text font-size="16.666666666666668" text-anchor="middle" dy="-.2em" x="25.0" y="103.33333333333333" fill="grey"></text><text font-size="16.666666666666668" text-anchor="middle" dy="-.2em" x="25.0" y="120.0" fill="grey"></text><text font-size="16.666666666666668" text-anchor="middle" dy="-.2em" x="41.666666666666664" y="36.66666666666667" fill="grey">1</text><text font-size="16.666666666666668" text-anchor="middle" dy="-.2em" x="41.666666666666664" y="53.333333333333336" fill="grey"></text><text font-size="16.666666666666668" text-anchor="middle" dy="-.2em" x="41.666666666666664" y="70.0" fill="grey"></text><text font-size="16.666666666666668" text-anchor="middle" dy="-.2em" x="41.666666666666664" y="86.66666666666667" fill="grey"></text><text font-size="16.666666666666668" text-anchor="middle" dy="-.2em" x="41.666666666666664" y="103.33333333333333" fill="grey"></text><text font-size="16.666666666666668" text-anchor="middle" dy="-.2em" x="41.666666666666664" y="120.0" fill="grey"></text><text font-size="16.666666666666668" text-anchor="middle" dy="-.2em" x="58.333333333333336" y="36.66666666666667" fill="grey">1</text><text font-size="16.666666666666668" text-anchor="middle" dy="-.2em" x="58.333333333333336" y="53.333333333333336" fill="grey"></text><text font-size="16.666666666666668" text-anchor="middle" dy="-.2em" x="58.333333333333336" y="70.0" fill="grey"></text><text font-size="16.666666666666668" text-anchor="middle" dy="-.2em" x="58.333333333333336" y="86.66666666666667" fill="grey"></text><text font-size="16.666666666666668" text-anchor="middle" dy="-.2em" x="58.333333333333336" y="103.33333333333333" fill="grey"></text><text font-size="16.666666666666668" text-anchor="middle" dy="-.2em" x="58.333333333333336" y="120.0" fill="grey"></text><text font-size="16.666666666666668" text-anchor="middle" dy="-.2em" x="75.0" y="36.66666666666667" fill="grey">X</text><text font-size="16.666666666666668" text-anchor="middle" dy="-.2em" x="75.0" y="53.333333333333336" fill="grey"></text><text font-size="16.666666666666668" text-anchor="middle" dy="-.2em" x="75.0" y="70.0" fill="grey"></text><text font-size="16.666666666666668" text-anchor="middle" dy="-.2em" x="75.0" y="86.66666666666667" fill="grey"></text><text font-size="16.666666666666668" text-anchor="middle" dy="-.2em" x="75.0" y="103.33333333333333" fill="grey"></text><text font-size="16.666666666666668" text-anchor="middle" dy="-.2em" x="75.0" y="120.0" fill="grey"></text><text font-size="16.666666666666668" text-anchor="middle" dy="-.2em" x="91.66666666666667" y="36.66666666666667" fill="grey">2</text><text font-size="16.666666666666668" text-anchor="middle" dy="-.2em" x="91.66666666666667" y="53.333333333333336" fill="grey"></text><text font-size="16.666666666666668" text-anchor="middle" dy="-.2em" x="91.66666666666667" y="70.0" fill="grey"></text><text font-size="16.666666666666668" text-anchor="middle" dy="-.2em" x="91.66666666666667" y="86.66666666666667" fill="grey"></text><text font-size="16.666666666666668" text-anchor="middle" dy="-.2em" x="91.66666666666667" y="103.33333333333333" fill="grey"></text><text font-size="16.666666666666668" text-anchor="middle" dy="-.2em" x="91.66666666666667" y="120.0" fill="grey"></text><rect x="0" y="0" width="50" height="20" stroke="black" fill="white"/><rect x="0" y="0" width="20" height="20" stroke="black" fill="white"/><text font-size="20" text-anchor="middle" dy="-.2em" x="35" y="20" fill="black">2</text><text font-size="20" text-anchor="middle" dy="-.2em" x="10" y="20" fill="black">S</text><rect x="50" y="0" width="50" height="20" stroke="black" fill="white"/><text font-size="20" text-anchor="middle" dy="-.2em" x="85" y="20" fill="black">2</text><path d="M55.0 16.0 L58.0 16.0 L58.0 13.0 L58.0 10.0 L55.0 10.0 L55.0 7.0 L55.0 4.0 L58.0 4.0 L58.0 7.0 L61.0 7.0 L61.0 4.0 L64.0 4.0 L64.0 7.0 L67.0 7.0 L67.0 4.0 L70.0 4.0 L70.0 7.0 L70.0 10.0 L67.0 10.0 L67.0 13.0 L67.0 16.0 L70.0 16.0" stroke="black" fill="none"/><path d="M2.380952380952381 117.22222222222221 L4.761904761904762 117.22222222222221 L4.761904761904762 114.44444444444444 L4.761904761904762 111.66666666666664 L2.380952380952381 111.66666666666664 L2.380952380952381 108.88888888888887 L2.380952380952381 106.11111111111109 L4.761904761904762 106.11111111111109 L4.761904761904762 108.88888888888887 L7.142857142857142 108.88888888888887 L7.142857142857142 106.11111111111109 L9.523809523809524 106.11111111111109 L9.523809523809524 108.88888888888887 L11.904761904761903 108.88888888888887 L11.904761904761903 106.11111111111109 L14.285714285714283 106.11111111111109 L14.285714285714283 108.88888888888887 L14.285714285714283 111.66666666666664 L11.904761904761903 111.66666666666664 L11.904761904761903 114.44444444444444 L11.904761904761903 117.22222222222221 L14.285714285714283 117.22222222222221" stroke="black" fill="none"/><path d="M69.04761904761905 100.55555555555556 L71.42857142857144 100.55555555555556 L71.42857142857144 97.77777777777777 L71.42857142857144 94.99999999999999 L69.04761904761905 94.99999999999999 L69.04761904761905 92.2222222222222 L69.04761904761905 89.44444444444441 L71.42857142857144 89.44444444444441 L71.42857142857144 92.2222222222222 L73.80952380952382 92.2222222222222 L73.80952380952382 89.44444444444441 L76.19047619047622 89.44444444444441 L76.19047619047622 92.2222222222222 L78.5714285714286 92.2222222222222 L78.5714285714286 89.44444444444441 L80.95238095238099 89.44444444444441 L80.95238095238099 92.2222222222222 L80.95238095238099 94.99999999999999 L78.5714285714286 94.99999999999999 L78.5714285714286 97.77777777777777 L78.5714285714286 100.55555555555556 L80.95238095238099 100.55555555555556" stroke="red" fill="none"/><path d="M16.666666666666668 20.0 L16.666666666666668 36.66666666666667" stroke="black" fill="none"/><path d="M16.666666666666668 36.66666666666667 L16.666666666666668 53.333333333333336" stroke="black" fill="none"/><path d="M33.333333333333336 20.0 L33.333333333333336 36.66666666666667" stroke="black" fill="none"/><path d="M33.333333333333336 36.66666666666667 L33.333333333333336 53.333333333333336" stroke="black" fill="none"/><path d="M66.66666666666667 20.0 L66.66666666666667 36.66666666666667" stroke="black" fill="none"/><path d="M83.33333333333333 20.0 L83.33333333333333 36.66666666666667" stroke="black" fill="none"/><path d="M0.0 36.66666666666667 L16.666666666666668 36.66666666666667" stroke="black" fill="none"/><path d="M0.0 53.333333333333336 L16.666666666666668 53.333333333333336" stroke="black" fill="none"/><path d="M16.666666666666668 36.66666666666667 L33.333333333333336 36.66666666666667" stroke="black" fill="none"/><path d="M16.666666666666668 53.333333333333336 L33.333333333333336 53.333333333333336" stroke="black" fill="none"/><path d="M33.333333333333336 36.66666666666667 L50.0 36.66666666666667" stroke="black" fill="none"/><path d="M50.0 36.66666666666667 L66.66666666666667 36.66666666666667" stroke="black" fill="none"/><path d="M66.66666666666667 36.66666666666667 L83.33333333333333 36.66666666666667" stroke="black" fill="none"/><path d="M83.33333333333333 36.66666666666667 L100.0 36.66666666666667" stroke="black" fill="none"/></svg>
