<?xml version='1.0' encoding='ASCII'?>
<svg xmlns="http://www.w3.org/2000/svg" xmlns:xlink="http://www.w3.org/1999/xlink" width="100" height="120" viewBox="0 0 100 120">
                        <defs>
                        </defs>
                        <rect x="0" y="20" width="100" height="100" stroke="black" fill="white"/><path d="M0.0 20.0 L20.0 20.0 L20.0 40.0 L0.0 40.0" stroke="lightgray" fill="orange"/><path d="M0.0 40.0 L20.0 40.0 L20.0 60.0 L0.0 60.0" stroke="lightgray" fill="orange"/><path d="M0.0 60.0 L20.0 60.0 L20.0 80.0 L0.0 80.0" stroke="lightgray" fill="orange"/><path d="M0.0 80.0 L20.0 80.0 L20.0 100.0 L0.0 100.0" stroke="lightgray" fill="orange"/><path d="M0.0 100.0 L20.0 100.0 L20.0 120.0 L0.0 120.0" stroke="lightgray" fill="orange"/><path d="M20.0 20.0 L40.0 20.0 L40.0 40.0 L20.0 40.0" stroke="lightgray" fill="orange"/><path d="M20.0 40.0 L40.0 40.0 L40.0 60.0 L20.0 60.0" stroke="lightgray" fill="orange"/><path d="M20.0 60.0 L40.0 60.0 L40.0 80.0 L20.0 80.0" stroke="lightgray" fill="lightgrey"/><path d="M20.0 80.0 L40.0 80.0 L40.0 100.0 L20.0 100.0" stroke="lightgray" fill="orange"/><path d="M20.0 100.0 L40.0 100.0 L40.0 120.0 L20.0 120.0" stroke="lightgray" fill="orange"/><path d="M40.0 20.0 L60.0 20.0 L60.0 40.0 L40.0 40.0" stroke="lightgray" fill="orange"/><path d="M40.0 40.0 L60.0 40.0 L60.0 60.0 L40.0 60.0" stroke="lightgray" fill="lightgrey"/><path d="M40.0 60.0 L60.0 60.0 L60.0 80.0 L40.0 80.0" stroke="lightgray" fill="lightgrey"/><path d="M40.0 80.0 L60.0 80.0 L60.0 100.0 L40.0 100.0" stroke="lightgray" fill="lightgrey"/><path d="M40.0 100.0 L60.0 100.0 L60.0 120.0 L40.0 120.0" stroke="lightgray" fill="orange"/><path d="M60.0 20.0 L80.0 20.0 L80.0 40.0 L60.0 40.0" stroke="lightgray" fill="orange"/><path d="M60.0 40.0 L80.0 40.0 L80.0 60.0 L60.0 60.0" stroke="lightgray" fill="orange"/><path d="M60.0 60.0 L80.0 60.0 L80.0 80.0 L60.0 80.0" stroke="lightgray" fill="lightgrey"/><path d="M60.0 80.0 L80.0 80.0 L80.0 100.0 L60.0 100.0" stroke="lightgray" fill="orange"/><path d="M60.0 100.0 L80.0 100.0 L80.0 120.0 L60.0 120.0" stroke="lightgray" fill="orange"/><path d="M80.0 20.0 L100.0 20.0 L100.0 40.0 L80.0 40.0" stroke="lightgray" fill="orange"/><path d="M80.0 40.0 L100.0 40.0 L100.0 60.0 L80.0 60.0" stroke="lightgray" fill="orange"/><path d="M80.0 60.0 L100.0 60.0 L100.0 80.0 L80.0 80.0" stroke="lightgray" fill="orange"/><path d="M80.0 80.0 L100.0 80.0 L100.0 100.0 L80.0 100.0" stroke="lightgray" fill="orange"/><path d="M80.0 100.0 L100.0 100.0 L100.0 120.0 L80.0 120.0" stroke="lightgray" fill="orange"/><path d="M0.0 20.0 L100.0 20.0 L100.0 120.0 L0.0 120.0 L0.0 20.0" stroke="black" fill="none"/><text font-size="20.0" text-anchor="middle" dy="-.2em" x="10.0" y="40.0" fill="grey">X</text><text font-size="20.0" text-anchor="middle" dy="-.2em" x="10.0" y="60.0" fill="grey">X</text><text font-size="20.0" text-anchor="middle" dy="-.2em" x="10.0" y="80.0" fill="grey">X</text><text font-size="20.0" text-anchor="middle" dy="-.2em" x="10.0" y="100.0" fill="grey">X</text><text font-size="20.0" text-anchor="middle" dy="-.2em" x="10.0" y="120.0" fill="grey">X</text><text font-size="20.0" text-anchor="middle" dy="-.2em" x="30.0" y="40.0" fill="grey">X</text><text font-size="20.0" text-anchor="middle" dy="-.2em" x="30.0" y="60.0" fill="grey">X</text><text font-size="20.0" text-anchor="middle" dy="-.2em" x="30.0" y="80.0" fill="grey"></text><text font-size="20.0" text-anchor="middle" dy="-.2em" x="30.0" y="100.0" fill="grey">X</text><text font-size="20.0" text-anchor="middle" dy="-.2em" x="30.0" y="120.0" fill="grey">X</text><text font-size="20.0" text-anchor="middle" dy="-.2em" x="50.0" y="40.0" fill="grey">X</text><text font-size="20.0" text-anchor="middle" dy="-.2em" x="50.0" y="60.0" fill="grey"></text><text font-size="20.0" text-anchor="middle" dy="-.2em" x="50.0" y="80.0" fill="grey"></text><text font-size="20.0" text-anchor="middle" dy="-.2em" x="50.0" y="100.0" fill="grey"></text><text font-size="20.0" text-anchor="middle" dy="-.2em" x="50.0" y="120.0" fill="grey">X</text><text font-size="20.0" text-anchor="middle" dy="-.2em" x="70.0" y="40.0" fill="grey">X</text><text font-size="20.0" text-anchor="middle" dy="-.2em" x="70.0" y="60.0" fill="grey">X</text><text font-size="20.0" text-anchor="middle" dy="-.2em" x="70.0" y="80.0" fill="grey"></text><text font-size="20.0" text-anchor="middle" dy="-.2em" x="70.0" y="100.0" fill="grey">X</text><text font-size="20.0" text-anchor="middle" dy="-.2em" x="70.0" y="120.0" fill="grey">X</text><text font-size="20.0" text-anchor="middle" dy="-.2em" x="90.0" y="40.0" fill="grey">X</text><text font-size="20.0" text-anchor="middle" dy="-.2em" x="90.0" y="60.0" fill="grey">X</text><text font-size="20.0" text-anchor="middle" dy="-.2em" x="90.0" y="80.0" fill="grey">X</text><text font-size="20.0" text-anchor="middle" dy="-.2em" x="90.0" y="100.0" fill="grey">X</text><text font-size="20.0" text-anchor="middle" dy="-.2em" x="90.0" y="120.0" fill="grey">X</text><rect x="0" y="0" width="50" height="20" stroke="black" fill="white"/><rect x="0" y="0" width="20" height="20" stroke="black" fill="white"/><text font-size="20" text-anchor="middle" dy="-.2em" x="35" y="20" fill="black">0</text><rect x="50" y="0" width="50" height="20" stroke="black" fill="white"/><text font-size="20" text-anchor="middle" dy="-.2em" x="85" y="20" fill="black">0</text><path d="M55.0 16.0 L58.0 16.0 L58.0 13.0 L58.0 10.0 L55.0 10.0 L55.0 7.0 L55.0 4.0 L58.0 4.0 L58.0 7.0 L61.0 7.0 L61.0 4.0 L64.0 4.0 L64.0 7.0 L67.0 7.0 L67.0 4.0 L70.0 4.0 L70.0 7.0 L70.0 10.0 L67.0 10.0 L67.0 13.0 L67.0 16.0 L70.0 16.0" stroke="black" fill="none"/><path d="M42.857142857142854 76.66666666666667 L45.71428571428571 76.66666666666667 L45.71428571428571 73.33333333333334 L45.71428571428571 70.00000000000001 L42.857142857142854 70.00000000000001 L42.857142857142854 66.66666666666669 L42.857142857142854 63.33333333333335 L45.71428571428571 63.33333333333335 L45.71428571428571 66.66666666666669 L48.57142857142857 66.66666666666669 L48.57142857142857 63.33333333333335 L51.42857142857142 63.33333333333335 L51.42857142857142 66.66666666666669 L54.28571428571428 66.66666666666669 L54.28571428571428 63.33333333333335 L57.14285714285713 63.33333333333335 L57.14285714285713 66.66666666666669 L57.14285714285713 70.00000000000001 L54.28571428571428 70.00000000000001 L54.28571428571428 73.33333333333334 L54.28571428571428 76.66666666666667 L57.14285714285713 76.66666666666667" stroke="red" fill="none"/><path d="M20.0 60.0 L20.0 80.0" stroke="black" fill="none"/><path d="M40.0 40.0 L40.0 60.0" stroke="black" fill="none"/><path d="M40.0 80.0 L40.0 100.0" stroke="black" fill="none"/><path d="M60.0 40.0 L60.0 60.0" stroke="black" fill="none"/><path d="M60.0 80.0 L60.0 100.0" stroke="black" fill="none"/><path d="M80.0 60.0 L80.0 80.0" stroke="black" fill="none"/><path d="M20.0 60.0 L40.0 60.0" stroke="black" fill="none"/><path d="M20.0 80.0 L40.0 80.0" stroke="black" fill="none"/><path d="M40.0 40.0 L60.0 40.0" stroke="black" fill="none"/><path d="M40.0 100.0 L60.0 100.0" stroke="black" fill="none"/><path d="M60.0 60.0 L80.0 60.0" stroke="black" fill="none"/><path d="M60.0 80.0 L80.0 80.0" stroke="black" fill="none"/></svg>
