<?xml version='1.0' encoding='ASCII'?>
<svg xmlns="http://www.w3.org/2000/svg" xmlns:xlink="http://www.w3.org/1999/xlink" width="100" height="120" viewBox="0 0 100 120">
                        <defs>
                        </defs>
                        <rect x="0" y="20" width="100" height="100" stroke="black" fill="white"/><path d="M0.0 20.0 L33.333333333333336 20.0 L33.333333333333336 53.333333333333336 L0.0 53.333333333333336" stroke="lightgray" fill="lightgrey"/><path d="M0.0 53.333333333333336 L33.333333333333336 53.333333333333336 L33.333333333333336 86.66666666666667 L0.0 86.66666666666667" stroke="lightgray" fill="lightgrey"/><path d="M0.0 86.66666666666667 L33.333333333333336 86.66666666666667 L33.333333333333336 120.0 L0.0 120.0" stroke="lightgray" fill="lightgrey"/><path d="M33.333333333333336 20.0 L66.66666666666667 20.0 L66.66666666666667 53.333333333333336 L33.333333333333336 53.333333333333336" stroke="lightgray" fill="lightgrey"/><path d="M33.333333333333336 53.333333333333336 L66.66666666666667 53.333333333333336 L66.66666666666667 86.66666666666667 L33.333333333333336 86.66666666666667" stroke="lightgray" fill="lightgrey"/><path d="M33.333333333333336 86.66666666666667 L66.66666666666667 86.66666666666667 L66.66666666666667 120.0 L33.333333333333336 120.0" stroke="lightgray" fill="lightgrey"/><path d="M66.66666666666667 20.0 L100.0 20.0 L100.0 53.333333333333336 L66.66666666666667 53.333333333333336" stroke="lightgray" fill="lightgrey"/><path d="M66.66666666666667 53.333333333333336 L100.0 53.333333333333336 L100.0 86.66666666666667 L66.66666666666667 86.66666666666667" stroke="lightgray" fill="lightgrey"/><path d="M66.66666666666667 86.66666666666667 L100.0 86.66666666666667 L100.0 120.0 L66.66666666666667 120.0" stroke="lightgray" fill="lightgrey"/><path d="M0.0 20.0 L100.0 20.0 L100.0 120.0 L0.0 120.0 L0.0 20.0" stroke="black" fill="none"/><text font-size="33.333333333333336" text-anchor="middle" dy="-.2em" x="16.666666666666668" y="53.333333333333336" fill="grey"></text><text font-size="33.333333333333336" text-anchor="middle" dy="-.2em" x="16.666666666666668" y="86.66666666666667" fill="grey"></text><text font-size="33.333333333333336" text-anchor="middle" dy="-.2em" x="16.666666666666668" y="120.0" fill="grey"></text><text font-size="33.333333333333336" text-anchor="middle" dy="-.2em" x="50.0" y="53.333333333333336" fill="grey"></text><text font-size="33.333333333333336" text-anchor="middle" dy="-.2em" x="50.0" y="86.66666666666667" fill="grey"></text><text font-size="33.333333333333336" text-anchor="middle" dy="-.2em" x="50.0" y="120.0" fill="grey"></text><text font-size="33.333333333333336" text-anchor="middle" dy="-.2em" x="83.33333333333333" y="53.333333333333336" fill="grey"></text><text font-size="33.333333333333336" text-anchor="middle" dy="-.2em" x="83.33333333333333" y="86.66666666666667" fill="grey"></text><text font-size="33.333333333333336" text-anchor="middle" dy="-.2em" x="83.33333333333333" y="120.0" fill="grey"></text><rect x="0" y="0" width="50" height="20" stroke="black" fill="white"/><rect x="0" y="0" width="20" height="20" stroke="black" fill="white"/><text font-size="20" text-anchor="middle" dy="-.2em" x="35" y="20" fill="black">0</text><rect x="50" y="0" width="50" height="20" stroke="black" fill="white"/><text font-size="20" text-anchor="middle" dy="-.2em" x="85" y="20" fill="black">0</text><path d="M55.0 16.0 L58.0 16.0 L58.0 13.0 L58.0 10.0 L55.0 10.0 L55.0 7.0 L55.0 4.0 L58.0 4.0 L58.0 7.0 L61.0 7.0 L61.0 4.0 L64.0 4.0 L64.0 7.0 L67.0 7.0 L67.0 4.0 L70.0 4.0 L70.0 7.0 L70.0 10.0 L67.0 10.0 L67.0 13.0 L67.0 16.0 L70.0 16.0" stroke="black" fill="none"/><path d="M38.095238095238095 81.11111111111111 L42.857142857142854 81.11111111111111 L42.857142857142854 75.55555555555557 L42.857142857142854 70.0 L38.095238095238095 70.0 L38.095238095238095 64.44444444444443 L38.095238095238095 58.888888888888886 L42.857142857142854 58.888888888888886 L42.857142857142854 64.44444444444443 L47.61904761904761 64.44444444444443 L47.61904761904761 58.888888888888886 L52.38095238095237 58.888888888888886 L52.38095238095237 64.44444444444443 L57.14285714285713 64.44444444444443 L57.14285714285713 58.888888888888886 L61.90476190476189 58.888888888888886 L61.90476190476189 64.44444444444443 L61.90476190476189 70.0 L57.14285714285713 70.0 L57.14285714285713 75.55555555555557 L57.14285714285713 81.11111111111111 L61.90476190476189 81.11111111111111" stroke="red" fill="none"/></svg>
