<?xml version='1.0' encoding='ASCII'?>
<svg xmlns="http://www.w3.org/2000/svg" xmlns:xlink="http://www.w3.org/1999/xlink" width="100" height="120" viewBox="0 0 100 120">
                        <defs>
                        </defs>
                        <rect x="0" y="20" width="100" height="100" stroke="black" fill="white"/><path d="M0.0 20.0 L9.090909090909092 20.0 L9.090909090909092 29.090909090909093 L0.0 29.090909090909093" stroke="lightgray" fill="white"/><path d="M0.0 29.090909090909093 L9.090909090909092 29.090909090909093 L9.090909090909092 38.18181818181819 L0.0 38.18181818181819" stroke="lightgray" fill="white"/><path d="M0.0 38.18181818181819 L9.090909090909092 38.18181818181819 L9.090909090909092 47.27272727272727 L0.0 47.27272727272727" stroke="lightgray" fill="white"/><path d="M0.0 47.27272727272727 L9.090909090909092 47.27272727272727 L9.090909090909092 56.36363636363637 L0.0 56.36363636363637" stroke="lightgray" fill="white"/><path d="M0.0 56.36363636363637 L9.090909090909092 56.36363636363637 L9.090909090909092 65.45454545454545 L0.0 65.45454545454545" stroke="lightgray" fill="white"/><path d="M0.0 65.45454545454545 L9.090909090909092 65.45454545454545 L9.090909090909092 74.54545454545455 L0.0 74.54545454545455" stroke="lightgray" fill="lightgrey"/><path d="M0.0 74.54545454545455 L9.090909090909092 74.54545454545455 L9.090909090909092 83.63636363636363 L0.0 83.63636363636363" stroke="lightgray" fill="white"/><path d="M0.0 83.63636363636363 L9.090909090909092 83.63636363636363 L9.090909090909092 92.72727272727273 L0.0 92.72727272727273" stroke="lightgray" fill="white"/><path d="M0.0 92.72727272727273 L9.090909090909092 92.72727272727273 L9.090909090909092 101.81818181818181 L0.0 101.81818181818181" stroke="lightgray" fill="white"/><path d="M0.0 101.81818181818181 L9.090909090909092 101.81818181818181 L9.090909090909092 110.9090909090909 L0.0 110.9090909090909" stroke="lightgray" fill="white"/><path d="M0.0 110.9090909090909 L9.090909090909092 110.9090909090909 L9.090909090909092 120.0 L0.0 120.0" stroke="lightgray" fill="white"/><path d="M9.090909090909092 20.0 L18.181818181818183 20.0 L18.181818181818183 29.090909090909093 L9.090909090909092 29.090909090909093" stroke="lightgray" fill="white"/><path d="M9.090909090909092 29.090909090909093 L18.181818181818183 29.090909090909093 L18.181818181818183 38.18181818181819 L9.090909090909092 38.18181818181819" stroke="lightgray" fill="white"/><path d="M9.090909090909092 38.18181818181819 L18.181818181818183 38.18181818181819 L18.181818181818183 47.27272727272727 L9.090909090909092 47.27272727272727" stroke="lightgray" fill="white"/><path d="M9.090909090909092 47.27272727272727 L18.181818181818183 47.27272727272727 L18.181818181818183 56.36363636363637 L9.090909090909092 56.36363636363637" stroke="lightgray" fill="white"/><path d="M9.090909090909092 56.36363636363637 L18.181818181818183 56.36363636363637 L18.181818181818183 65.45454545454545 L9.090909090909092 65.45454545454545" stroke="lightgray" fill="lightgrey"/><path d="M9.090909090909092 65.45454545454545 L18.181818181818183 65.45454545454545 L18.181818181818183 74.54545454545455 L9.090909090909092 74.54545454545455" stroke="lightgray" fill="lightgrey"/><path d="M9.090909090909092 74.54545454545455 L18.181818181818183 74.54545454545455 L18.181818181818183 83.63636363636363 L9.090909090909092 83.63636363636363" stroke="lightgray" fill="lightgrey"/><path d="M9.090909090909092 83.63636363636363 L18.181818181818183 83.63636363636363 L18.181818181818183 92.72727272727273 L9.090909090909092 92.72727272727273" stroke="lightgray" fill="white"/><path d="M9.090909090909092 92.72727272727273 L18.181818181818183 92.72727272727273 L18.181818181818183 101.81818181818181 L9.090909090909092 101.81818181818181" stroke="lightgray" fill="white"/><path d="M9.090909090909092 101.81818181818181 L18.181818181818183 101.81818181818181 L18.181818181818183 110.9090909090909 L9.090909090909092 110.9090909090909" stroke="lightgray" fill="white"/><path d="M9.090909090909092 110.9090909090909 L18.181818181818183 110.9090909090909 L18.181818181818183 120.0 L9.090909090909092 120.0" stroke="lightgray" fill="white"/><path d="M18.181818181818183 20.0 L27.272727272727273 20.0 L27.272727272727273 29.090909090909093 L18.181818181818183 29.090909090909093" stroke="lightgray" fill="white"/><path d="M18.181818181818183 29.090909090909093 L27.272727272727273 29.090909090909093 L27.272727272727273 38.18181818181819 L18.181818181818183 38.18181818181819" stroke="lightgray" fill="white"/><path d="M18.181818181818183 38.18181818181819 L27.272727272727273 38.18181818181819 L27.272727272727273 47.27272727272727 L18.181818181818183 47.27272727272727" stroke="lightgray" fill="white"/><path d="M18.181818181818183 47.27272727272727 L27.272727272727273 47.27272727272727 L27.272727272727273 56.36363636363637 L18.181818181818183 56.36363636363637" stroke="lightgray" fill="lightgrey"/><path d="M18.181818181818183 56.36363636363637 L27.272727272727273 56.36363636363637 L27.272727272727273 65.45454545454545 L18.181818181818183 65.45454545454545" stroke="lightgray" fill="lightgrey"/><path d="M18.181818181818183 65.45454545454545 L27.272727272727273 65.45454545454545 L27.272727272727273 74.54545454545455 L18.181818181818183 74.54545454545455" stroke="lightgray" fill="lightgrey"/><path d="M18.181818181818183 74.54545454545455 L27.272727272727273 74.54545454545455 L27.272727272727273 83.63636363636363 L18.181818181818183 83.63636363636363" stroke="lightgray" fill="lightgrey"/><path d="M18.181818181818183 83.63636363636363 L27.272727272727273 83.63636363636363 L27.272727272727273 92.72727272727273 L18.181818181818183 92.72727272727273" stroke="lightgray" fill="lightgrey"/><path d="M18.181818181818183 92.72727272727273 L27.272727272727273 92.72727272727273 L27.272727272727273 101.81818181818181 L18.181818181818183 101.81818181818181" stroke="lightgray" fill="white"/><path d="M18.181818181818183 101.81818181818181 L27.272727272727273 101.81818181818181 L27.272727272727273 110.9090909090909 L18.181818181818183 110.9090909090909" stroke="lightgray" fill="white"/><path d="M18.181818181818183 110.9090909090909 L27.272727272727273 110.9090909090909 L27.272727272727273 120.0 L18.181818181818183 120.0" stroke="lightgray" fill="white"/><path d="M27.272727272727273 20.0 L36.36363636363637 20.0 L36.36363636363637 29.090909090909093 L27.272727272727273 29.090909090909093" stroke="lightgray" fill="white"/><path d="M27.272727272727273 29.090909090909093 L36.36363636363637 29.090909090909093 L36.36363636363637 38.18181818181819 L27.272727272727273 38.18181818181819" stroke="lightgray" fill="white"/><path d="M27.272727272727273 38.18181818181819 L36.36363636363637 38.18181818181819 L36.36363636363637 47.27272727272727 L27.272727272727273 47.27272727272727" stroke="lightgray" fill="lightgrey"/><path d="M27.272727272727273 47.27272727272727 L36.36363636363637 47.27272727272727 L36.36363636363637 56.36363636363637 L27.272727272727273 56.36363636363637" stroke="lightgray" fill="lightgrey"/><path d="M27.272727272727273 56.36363636363637 L36.36363636363637 56.36363636363637 L36.36363636363637 65.45454545454545 L27.272727272727273 65.45454545454545" stroke="lightgray" fill="lightgrey"/><path d="M27.272727272727273 65.45454545454545 L36.36363636363637 65.45454545454545 L36.36363636363637 74.54545454545455 L27.272727272727273 74.54545454545455" stroke="lightgray" fill="lightgrey"/><path d="M27.272727272727273 74.54545454545455 L36.36363636363637 74.54545454545455 L36.36363636363637 83.63636363636363 L27.272727272727273 83.63636363636363" stroke="lightgray" fill="lightgrey"/><path d="M27.272727272727273 83.63636363636363 L36.36363636363637 83.63636363636363 L36.36363636363637 92.72727272727273 L27.272727272727273 92.72727272727273" stroke="lightgray" fill="lightgrey"/><path d="M27.272727272727273 92.72727272727273 L36.36363636363637 92.72727272727273 L36.36363636363637 101.81818181818181 L27.272727272727273 101.81818181818181" stroke="lightgray" fill="lightgrey"/><path d="M27.272727272727273 101.81818181818181 L36.36363636363637 101.81818181818181 L36.36363636363637 110.9090909090909 L27.272727272727273 110.9090909090909" stroke="lightgray" fill="white"/><path d="M27.272727272727273 110.9090909090909 L36.36363636363637 110.9090909090909 L36.36363636363637 120.0 L27.272727272727273 120.0" stroke="lightgray" fill="white"/><path d="M36.36363636363637 20.0 L45.45454545454545 20.0 L45.45454545454545 29.090909090909093 L36.36363636363637 29.090909090909093" stroke="lightgray" fill="white"/><path d="M36.36363636363637 29.090909090909093 L45.45454545454545 29.090909090909093 L45.45454545454545 38.18181818181819 L36.36363636363637 38.18181818181819" stroke="lightgray" fill="white"/><path d="M36.36363636363637 38.18181818181819 L45.45454545454545 38.18181818181819 L45.45454545454545 47.27272727272727 L36.36363636363637 47.27272727272727" stroke="lightgray" fill="orange"/><path d="M36.36363636363637 47.27272727272727 L45.45454545454545 47.27272727272727 L45.45454545454545 56.36363636363637 L36.36363636363637 56.36363636363637" stroke="lightgray" fill="lightgrey"/><path d="M36.36363636363637 56.36363636363637 L45.45454545454545 56.36363636363637 L45.45454545454545 65.45454545454545 L36.36363636363637 65.45454545454545" stroke="lightgray" fill="lightgrey"/><path d="M36.36363636363637 65.45454545454545 L45.45454545454545 65.45454545454545 L45.45454545454545 74.54545454545455 L36.36363636363637 74.54545454545455" stroke="lightgray" fill="lightgrey"/><path d="M36.36363636363637 74.54545454545455 L45.45454545454545 74.54545454545455 L45.45454545454545 83.63636363636363 L36.36363636363637 83.63636363636363" stroke="lightgray" fill="lightgrey"/><path d="M36.36363636363637 83.63636363636363 L45.45454545454545 83.63636363636363 L45.45454545454545 92.72727272727273 L36.36363636363637 92.72727272727273" stroke="lightgray" fill="lightgrey"/><path d="M36.36363636363637 92.72727272727273 L45.45454545454545 92.72727272727273 L45.45454545454545 101.81818181818181 L36.36363636363637 101.81818181818181" stroke="lightgray" fill="orange"/><path d="M36.36363636363637 101.81818181818181 L45.45454545454545 101.81818181818181 L45.45454545454545 110.9090909090909 L36.36363636363637 110.9090909090909" stroke="lightgray" fill="white"/><path d="M36.36363636363637 110.9090909090909 L45.45454545454545 110.9090909090909 L45.45454545454545 120.0 L36.36363636363637 120.0" stroke="lightgray" fill="white"/><path d="M45.45454545454545 20.0 L54.54545454545455 20.0 L54.54545454545455 29.090909090909093 L45.45454545454545 29.090909090909093" stroke="lightgray" fill="white"/><path d="M45.45454545454545 29.090909090909093 L54.54545454545455 29.090909090909093 L54.54545454545455 38.18181818181819 L45.45454545454545 38.18181818181819" stroke="lightgray" fill="white"/><path d="M45.45454545454545 38.18181818181819 L54.54545454545455 38.18181818181819 L54.54545454545455 47.27272727272727 L45.45454545454545 47.27272727272727" stroke="lightgray" fill="white"/><path d="M45.45454545454545 47.27272727272727 L54.54545454545455 47.27272727272727 L54.54545454545455 56.36363636363637 L45.45454545454545 56.36363636363637" stroke="lightgray" fill="white"/><path d="M45.45454545454545 56.36363636363637 L54.54545454545455 56.36363636363637 L54.54545454545455 65.45454545454545 L45.45454545454545 65.45454545454545" stroke="lightgray" fill="lightgrey"/><path d="M45.45454545454545 65.45454545454545 L54.54545454545455 65.45454545454545 L54.54545454545455 74.54545454545455 L45.45454545454545 74.54545454545455" stroke="lightgray" fill="lightgrey"/><path d="M45.45454545454545 74.54545454545455 L54.54545454545455 74.54545454545455 L54.54545454545455 83.63636363636363 L45.45454545454545 83.63636363636363" stroke="lightgray" fill="lightgrey"/><path d="M45.45454545454545 83.63636363636363 L54.54545454545455 83.63636363636363 L54.54545454545455 92.72727272727273 L45.45454545454545 92.72727272727273" stroke="lightgray" fill="white"/><path d="M45.45454545454545 92.72727272727273 L54.54545454545455 92.72727272727273 L54.54545454545455 101.81818181818181 L45.45454545454545 101.81818181818181" stroke="lightgray" fill="white"/><path d="M45.45454545454545 101.81818181818181 L54.54545454545455 101.81818181818181 L54.54545454545455 110.9090909090909 L45.45454545454545 110.9090909090909" stroke="lightgray" fill="white"/><path d="M45.45454545454545 110.9090909090909 L54.54545454545455 110.9090909090909 L54.54545454545455 120.0 L45.45454545454545 120.0" stroke="lightgray" fill="white"/><path d="M54.54545454545455 20.0 L63.63636363636363 20.0 L63.63636363636363 29.090909090909093 L54.54545454545455 29.090909090909093" stroke="lightgray" fill="white"/><path d="M54.54545454545455 29.090909090909093 L63.63636363636363 29.090909090909093 L63.63636363636363 38.18181818181819 L54.54545454545455 38.18181818181819" stroke="lightgray" fill="white"/><path d="M54.54545454545455 38.18181818181819 L63.63636363636363 38.18181818181819 L63.63636363636363 47.27272727272727 L54.54545454545455 47.27272727272727" stroke="lightgray" fill="orange"/><path d="M54.54545454545455 47.27272727272727 L63.63636363636363 47.27272727272727 L63.63636363636363 56.36363636363637 L54.54545454545455 56.36363636363637" stroke="lightgray" fill="white"/><path d="M54.54545454545455 56.36363636363637 L63.63636363636363 56.36363636363637 L63.63636363636363 65.45454545454545 L54.54545454545455 65.45454545454545" stroke="lightgray" fill="orange"/><path d="M54.54545454545455 65.45454545454545 L63.63636363636363 65.45454545454545 L63.63636363636363 74.54545454545455 L54.54545454545455 74.54545454545455" stroke="lightgray" fill="lightgrey"/><path d="M54.54545454545455 74.54545454545455 L63.63636363636363 74.54545454545455 L63.63636363636363 83.63636363636363 L54.54545454545455 83.63636363636363" stroke="lightgray" fill="orange"/><path d="M54.54545454545455 83.63636363636363 L63.63636363636363 83.63636363636363 L63.63636363636363 92.72727272727273 L54.54545454545455 92.72727272727273" stroke="lightgray" fill="white"/><path d="M54.54545454545455 92.72727272727273 L63.63636363636363 92.72727272727273 L63.63636363636363 101.81818181818181 L54.54545454545455 101.81818181818181" stroke="lightgray" fill="orange"/><path d="M54.54545454545455 101.81818181818181 L63.63636363636363 101.81818181818181 L63.63636363636363 110.9090909090909 L54.54545454545455 110.9090909090909" stroke="lightgray" fill="lightgrey"/><path d="M54.54545454545455 110.9090909090909 L63.63636363636363 110.9090909090909 L63.63636363636363 120.0 L54.54545454545455 120.0" stroke="lightgray" fill="white"/><path d="M63.63636363636363 20.0 L72.72727272727273 20.0 L72.72727272727273 29.090909090909093 L63.63636363636363 29.090909090909093" stroke="lightgray" fill="lightgrey"/><path d="M63.63636363636363 29.090909090909093 L72.72727272727273 29.090909090909093 L72.72727272727273 38.18181818181819 L63.63636363636363 38.18181818181819" stroke="lightgray" fill="white"/><path d="M63.63636363636363 38.18181818181819 L72.72727272727273 38.18181818181819 L72.72727272727273 47.27272727272727 L63.63636363636363 47.27272727272727" stroke="lightgray" fill="white"/><path d="M63.63636363636363 47.27272727272727 L72.72727272727273 47.27272727272727 L72.72727272727273 56.36363636363637 L63.63636363636363 56.36363636363637" stroke="lightgray" fill="white"/><path d="M63.63636363636363 56.36363636363637 L72.72727272727273 56.36363636363637 L72.72727272727273 65.45454545454545 L63.63636363636363 65.45454545454545" stroke="lightgray" fill="white"/><path d="M63.63636363636363 65.45454545454545 L72.72727272727273 65.45454545454545 L72.72727272727273 74.54545454545455 L63.63636363636363 74.54545454545455" stroke="lightgray" fill="white"/><path d="M63.63636363636363 74.54545454545455 L72.72727272727273 74.54545454545455 L72.72727272727273 83.63636363636363 L63.63636363636363 83.63636363636363" stroke="lightgray" fill="white"/><path d="M63.63636363636363 83.63636363636363 L72.72727272727273 83.63636363636363 L72.72727272727273 92.72727272727273 L63.63636363636363 92.72727272727273" stroke="lightgray" fill="white"/><path d="M63.63636363636363 92.72727272727273 L72.72727272727273 92.72727272727273 L72.72727272727273 101.81818181818181 L63.63636363636363 101.81818181818181" stroke="lightgray" fill="lightgrey"/><path d="M63.63636363636363 101.81818181818181 L72.72727272727273 101.81818181818181 L72.72727272727273 110.9090909090909 L63.63636363636363 110.9090909090909" stroke="lightgray" fill="lightgrey"/><path d="M63.63636363636363 110.9090909090909 L72.72727272727273 110.9090909090909 L72.72727272727273 120.0 L63.63636363636363 120.0" stroke="lightgray" fill="lightgrey"/><path d="M72.72727272727273 20.0 L81.81818181818181 20.0 L81.81818181818181 29.090909090909093 L72.72727272727273 29.090909090909093" stroke="lightgray" fill="lightgrey"/><path d="M72.72727272727273 29.090909090909093 L81.81818181818181 29.090909090909093 L81.81818181818181 38.18181818181819 L72.72727272727273 38.18181818181819" stroke="lightgray" fill="lightgrey"/><path d="M72.72727272727273 38.18181818181819 L81.81818181818181 38.18181818181819 L81.81818181818181 47.27272727272727 L72.72727272727273 47.27272727272727" stroke="lightgray" fill="white"/><path d="M72.72727272727273 47.27272727272727 L81.81818181818181 47.27272727272727 L81.81818181818181 56.36363636363637 L72.72727272727273 56.36363636363637" stroke="lightgray" fill="white"/><path d="M72.72727272727273 56.36363636363637 L81.81818181818181 56.36363636363637 L81.81818181818181 65.45454545454545 L72.72727272727273 65.45454545454545" stroke="lightgray" fill="orange"/><path d="M72.72727272727273 65.45454545454545 L81.81818181818181 65.45454545454545 L81.81818181818181 74.54545454545455 L72.72727272727273 74.54545454545455" stroke="lightgray" fill="white"/><path d="M72.72727272727273 74.54545454545455 L81.81818181818181 74.54545454545455 L81.81818181818181 83.63636363636363 L72.72727272727273 83.63636363636363" stroke="lightgray" fill="orange"/><path d="M72.72727272727273 83.63636363636363 L81.81818181818181 83.63636363636363 L81.81818181818181 92.72727272727273 L72.72727272727273 92.72727272727273" stroke="lightgray" fill="lightgrey"/><path d="M72.72727272727273 92.72727272727273 L81.81818181818181 92.72727272727273 L81.81818181818181 101.81818181818181 L72.72727272727273 101.81818181818181" stroke="lightgray" fill="lightgrey"/><path d="M72.72727272727273 101.81818181818181 L81.81818181818181 101.81818181818181 L81.81818181818181 110.9090909090909 L72.72727272727273 110.9090909090909" stroke="lightgray" fill="lightgrey"/><path d="M72.72727272727273 110.9090909090909 L81.81818181818181 110.9090909090909 L81.81818181818181 120.0 L72.72727272727273 120.0" stroke="lightgray" fill="lightgrey"/><path d="M81.81818181818181 20.0 L90.9090909090909 20.0 L90.9090909090909 29.090909090909093 L81.81818181818181 29.090909090909093" stroke="lightgray" fill="lightgrey"/><path d="M81.81818181818181 29.090909090909093 L90.9090909090909 29.090909090909093 L90.9090909090909 38.18181818181819 L81.81818181818181 38.18181818181819" stroke="lightgray" fill="lightgrey"/><path d="M81.81818181818181 38.18181818181819 L90.9090909090909 38.18181818181819 L90.9090909090909 47.27272727272727 L81.81818181818181 47.27272727272727" stroke="lightgray" fill="lightgrey"/><path d="M81.81818181818181 47.27272727272727 L90.9090909090909 47.27272727272727 L90.9090909090909 56.36363636363637 L81.81818181818181 56.36363636363637" stroke="lightgray" fill="white"/><path d="M81.81818181818181 56.36363636363637 L90.9090909090909 56.36363636363637 L90.9090909090909 65.45454545454545 L81.81818181818181 65.45454545454545" stroke="lightgray" fill="white"/><path d="M81.81818181818181 65.45454545454545 L90.9090909090909 65.45454545454545 L90.9090909090909 74.54545454545455 L81.81818181818181 74.54545454545455" stroke="lightgray" fill="white"/><path d="M81.81818181818181 74.54545454545455 L90.9090909090909 74.54545454545455 L90.9090909090909 83.63636363636363 L81.81818181818181 83.63636363636363" stroke="lightgray" fill="lightgrey"/><path d="M81.81818181818181 83.63636363636363 L90.9090909090909 83.63636363636363 L90.9090909090909 92.72727272727273 L81.81818181818181 92.72727272727273" stroke="lightgray" fill="lightgrey"/><path d="M81.81818181818181 92.72727272727273 L90.9090909090909 92.72727272727273 L90.9090909090909 101.81818181818181 L81.81818181818181 101.81818181818181" stroke="lightgray" fill="lightgrey"/><path d="M81.81818181818181 101.81818181818181 L90.9090909090909 101.81818181818181 L90.9090909090909 110.9090909090909 L81.81818181818181 110.9090909090909" stroke="lightgray" fill="lightgrey"/><path d="M81.81818181818181 110.9090909090909 L90.9090909090909 110.9090909090909 L90.9090909090909 120.0 L81.81818181818181 120.0" stroke="lightgray" fill="lightgrey"/><path d="M90.9090909090909 20.0 L100.0 20.0 L100.0 29.090909090909093 L90.9090909090909 29.090909090909093" stroke="lightgray" fill="lightgrey"/><path d="M90.9090909090909 29.090909090909093 L100.0 29.090909090909093 L100.0 38.18181818181819 L90.9090909090909 38.18181818181819" stroke="lightgray" fill="lightgrey"/><path d="M90.9090909090909 38.18181818181819 L100.0 38.18181818181819 L100.0 47.27272727272727 L90.9090909090909 47.27272727272727" stroke="lightgray" fill="lightgrey"/><path d="M90.9090909090909 47.27272727272727 L100.0 47.27272727272727 L100.0 56.36363636363637 L90.9090909090909 56.36363636363637" stroke="lightgray" fill="lightgrey"/><path d="M90.9090909090909 56.36363636363637 L100.0 56.36363636363637 L100.0 65.45454545454545 L90.9090909090909 65.45454545454545" stroke="lightgray" fill="white"/><path d="M90.9090909090909 65.45454545454545 L100.0 65.45454545454545 L100.0 74.54545454545455 L90.9090909090909 74.54545454545455" stroke="lightgray" fill="white"/><path d="M90.9090909090909 74.54545454545455 L100.0 74.54545454545455 L100.0 83.63636363636363 L90.9090909090909 83.63636363636363" stroke="lightgray" fill="white"/><path d="M90.9090909090909 83.63636363636363 L100.0 83.63636363636363 L100.0 92.72727272727273 L90.9090909090909 92.72727272727273" stroke="lightgray" fill="lightgrey"/><path d="M90.9090909090909 92.72727272727273 L100.0 92.72727272727273 L100.0 101.81818181818181 L90.9090909090909 101.81818181818181" stroke="lightgray" fill="lightgrey"/><path d="M90.9090909090909 101.81818181818181 L100.0 101.81818181818181 L100.0 110.9090909090909 L90.9090909090909 110.9090909090909" stroke="lightgray" fill="lightgrey"/><path d="M90.9090909090909 110.9090909090909 L100.0 110.9090909090909 L100.0 120.0 L90.9090909090909 120.0" stroke="lightgray" fill="lightgrey"/><path d="M0.0 20.0 L100.0 20.0 L100.0 120.0 L0.0 120.0 L0.0 20.0" stroke="black" fill="none"/><text font-size="9.090909090909092" text-anchor="middle" dy="-.2em" x="4.545454545454546" y="29.090909090909093" fill="grey">1</text><text font-size="9.090909090909092" text-anchor="middle" dy="-.2em" x="4.545454545454546" y="38.18181818181819" fill="grey">2</text><text font-size="9.090909090909092" text-anchor="middle" dy="-.2em" x="4.545454545454546" y="47.27272727272727" fill="grey">2</text><text font-size="9.090909090909092" text-anchor="middle" dy="-.2em" x="4.545454545454546" y="56.36363636363637" fill="grey">2</text><text font-size="9.090909090909092" text-anchor="middle" dy="-.2em" x="4.545454545454546" y="65.45454545454545" fill="grey">2</text><text font-size="9.090909090909092" text-anchor="middle" dy="-.2em" x="4.545454545454546" y="74.54545454545455" fill="grey"></text><text font-size="9.090909090909092" text-anchor="middle" dy="-.2em" x="4.545454545454546" y="83.63636363636363" fill="grey">3</text><text font-size="9.090909090909092" text-anchor="middle" dy="-.2em" x="4.545454545454546" y="92.72727272727273" fill="grey">3</text><text font-size="9.090909090909092" text-anchor="middle" dy="-.2em" x="4.545454545454546" y="101.81818181818181" fill="grey">3</text><text font-size="9.090909090909092" text-anchor="middle" dy="-.2em" x="4.545454545454546" y="110.9090909090909" fill="grey">3</text><text font-size="9.090909090909092" text-anchor="middle" dy="-.2em" x="4.545454545454546" y="120.0" fill="grey">4</text><text font-size="9.090909090909092" text-anchor="middle" dy="-.2em" x="13.636363636363637" y="29.090909090909093" fill="grey">5</text><text font-size="9.090909090909092" text-anchor="middle" dy="-.2em" x="13.636363636363637" y="38.18181818181819" fill="grey">5</text><text font-size="9.090909090909092" text-anchor="middle" dy="-.2em" x="13.636363636363637" y="47.27272727272727" fill="grey">2</text><text font-size="9.090909090909092" text-anchor="middle" dy="-.2em" x="13.636363636363637" y="56.36363636363637" fill="grey">2</text><text font-size="9.090909090909092" text-anchor="middle" dy="-.2em" x="13.636363636363637" y="65.45454545454545" fill="grey"></text><text font-size="9.090909090909092" text-anchor="middle" dy="-.2em" x="13.636363636363637" y="74.54545454545455" fill="grey"></text><text font-size="9.090909090909092" text-anchor="middle" dy="-.2em" x="13.636363636363637" y="83.63636363636363" fill="grey"></text><text font-size="9.090909090909092" text-anchor="middle" dy="-.2em" x="13.636363636363637" y="92.72727272727273" fill="grey">3</text><text font-size="9.090909090909092" text-anchor="middle" dy="-.2em" x="13.636363636363637" y="101.81818181818181" fill="grey">3</text><text font-size="9.090909090909092" text-anchor="middle" dy="-.2em" x="13.636363636363637" y="110.9090909090909" fill="grey">6</text><text font-size="9.090909090909092" text-anchor="middle" dy="-.2em" x="13.636363636363637" y="120.0" fill="grey">6</text><text font-size="9.090909090909092" text-anchor="middle" dy="-.2em" x="22.727272727272727" y="29.090909090909093" fill="grey">5</text><text font-size="9.090909090909092" text-anchor="middle" dy="-.2em" x="22.727272727272727" y="38.18181818181819" fill="grey">5</text><text font-size="9.090909090909092" text-anchor="middle" dy="-.2em" x="22.727272727272727" y="47.27272727272727" fill="grey">5</text><text font-size="9.090909090909092" text-anchor="middle" dy="-.2em" x="22.727272727272727" y="56.36363636363637" fill="grey"></text><text font-size="9.090909090909092" text-anchor="middle" dy="-.2em" x="22.727272727272727" y="65.45454545454545" fill="grey"></text><text font-size="9.090909090909092" text-anchor="middle" dy="-.2em" x="22.727272727272727" y="74.54545454545455" fill="grey"></text><text font-size="9.090909090909092" text-anchor="middle" dy="-.2em" x="22.727272727272727" y="83.63636363636363" fill="grey"></text><text font-size="9.090909090909092" text-anchor="middle" dy="-.2em" x="22.727272727272727" y="92.72727272727273" fill="grey"></text><text font-size="9.090909090909092" text-anchor="middle" dy="-.2em" x="22.727272727272727" y="101.81818181818181" fill="grey">6</text><text font-size="9.090909090909092" text-anchor="middle" dy="-.2em" x="22.727272727272727" y="110.9090909090909" fill="grey">6</text><text font-size="9.090909090909092" text-anchor="middle" dy="-.2em" x="22.727272727272727" y="120.0" fill="grey">6</text><text font-size="9.090909090909092" text-anchor="middle" dy="-.2em" x="31.818181818181817" y="29.090909090909093" fill="grey">5</text><text font-size="9.090909090909092" text-anchor="middle" dy="-.2em" x="31.818181818181817" y="38.18181818181819" fill="grey">5</text><text font-size="9.090909090909092" text-anchor="middle" dy="-.2em" x="31.818181818181817" y="47.27272727272727" fill="grey"></text><text font-size="9.090909090909092" text-anchor="middle" dy="-.2em" x="31.818181818181817" y="56.36363636363637" fill="grey"></text><text font-size="9.090909090909092" text-anchor="middle" dy="-.2em" x="31.818181818181817" y="65.45454545454545" fill="grey"></text><text font-size="9.090909090909092" text-anchor="middle" dy="-.2em" x="31.818181818181817" y="74.54545454545455" fill="grey"></text><text font-size="9.090909090909092" text-anchor="middle" dy="-.2em" x="31.818181818181817" y="83.63636363636363" fill="grey"></text><text font-size="9.090909090909092" text-anchor="middle" dy="-.2em" x="31.818181818181817" y="92.72727272727273" fill="grey"></text><text font-size="9.090909090909092" text-anchor="middle" dy="-.2em" x="31.818181818181817" y="101.81818181818181" fill="grey"></text><text font-size="9.090909090909092" text-anchor="middle" dy="-.2em" x="31.818181818181817" y="110.9090909090909" fill="grey">6</text><text font-size="9.090909090909092" text-anchor="middle" dy="-.2em" x="31.818181818181817" y="120.0" fill="grey">6</text><text font-size="9.090909090909092" text-anchor="middle" dy="-.2em" x="40.90909090909091" y="29.090909090909093" fill="grey">7</text><text font-size="9.090909090909092" text-anchor="middle" dy="-.2em" x="40.90909090909091" y="38.18181818181819" fill="grey">8</text><text font-size="9.090909090909092" text-anchor="middle" dy="-.2em" x="40.90909090909091" y="47.27272727272727" fill="grey">X</text><text font-size="9.090909090909092" text-anchor="middle" dy="-.2em" x="40.90909090909091" y="56.36363636363637" fill="grey"></text><text font-size="9.090909090909092" text-anchor="middle" dy="-.2em" x="40.90909090909091" y="65.45454545454545" fill="grey"></text><text font-size="9.090909090909092" text-anchor="middle" dy="-.2em" x="40.90909090909091" y="74.54545454545455" fill="grey"></text><text font-size="9.090909090909092" text-anchor="middle" dy="-.2em" x="40.90909090909091" y="83.63636363636363" fill="grey"></text><text font-size="9.090909090909092" text-anchor="middle" dy="-.2em" x="40.90909090909091" y="92.72727272727273" fill="grey"></text><text font-size="9.090909090909092" text-anchor="middle" dy="-.2em" x="40.90909090909091" y="101.81818181818181" fill="grey">X</text><text font-size="9.090909090909092" text-anchor="middle" dy="-.2em" x="40.90909090909091" y="110.9090909090909" fill="grey">9</text><text font-size="9.090909090909092" text-anchor="middle" dy="-.2em" x="40.90909090909091" y="120.0" fill="grey">9</text><text font-size="9.090909090909092" text-anchor="middle" dy="-.2em" x="50.0" y="29.090909090909093" fill="grey">8</text><text font-size="9.090909090909092" text-anchor="middle" dy="-.2em" x="50.0" y="38.18181818181819" fill="grey">8</text><text font-size="9.090909090909092" text-anchor="middle" dy="-.2em" x="50.0" y="47.27272727272727" fill="grey">8</text><text font-size="9.090909090909092" text-anchor="middle" dy="-.2em" x="50.0" y="56.36363636363637" fill="grey">10</text><text font-size="9.090909090909092" text-anchor="middle" dy="-.2em" x="50.0" y="65.45454545454545" fill="grey"></text><text font-size="9.090909090909092" text-anchor="middle" dy="-.2em" x="50.0" y="74.54545454545455" fill="grey"></text><text font-size="9.090909090909092" text-anchor="middle" dy="-.2em" x="50.0" y="83.63636363636363" fill="grey"></text><text font-size="9.090909090909092" text-anchor="middle" dy="-.2em" x="50.0" y="92.72727272727273" fill="grey">11</text><text font-size="9.090909090909092" text-anchor="middle" dy="-.2em" x="50.0" y="101.81818181818181" fill="grey">9</text><text font-size="9.090909090909092" text-anchor="middle" dy="-.2em" x="50.0" y="110.9090909090909" fill="grey">9</text><text font-size="9.090909090909092" text-anchor="middle" dy="-.2em" x="50.0" y="120.0" fill="grey">9</text><text font-size="9.090909090909092" text-anchor="middle" dy="-.2em" x="59.09090909090909" y="29.090909090909093" fill="grey">8</text><text font-size="9.090909090909092" text-anchor="middle" dy="-.2em" x="59.09090909090909" y="38.18181818181819" fill="grey">8</text><text font-size="9.090909090909092" text-anchor="middle" dy="-.2em" x="59.09090909090909" y="47.27272727272727" fill="grey">X</text><text font-size="9.090909090909092" text-anchor="middle" dy="-.2em" x="59.09090909090909" y="56.36363636363637" fill="grey">12</text><text font-size="9.090909090909092" text-anchor="middle" dy="-.2em" x="59.09090909090909" y="65.45454545454545" fill="grey">X</text><text font-size="9.090909090909092" text-anchor="middle" dy="-.2em" x="59.09090909090909" y="74.54545454545455" fill="grey"></text><text font-size="9.090909090909092" text-anchor="middle" dy="-.2em" x="59.09090909090909" y="83.63636363636363" fill="grey">X</text><text font-size="9.090909090909092" text-anchor="middle" dy="-.2em" x="59.09090909090909" y="92.72727272727273" fill="grey">11</text><text font-size="9.090909090909092" text-anchor="middle" dy="-.2em" x="59.09090909090909" y="101.81818181818181" fill="grey">X</text><text font-size="9.090909090909092" text-anchor="middle" dy="-.2em" x="59.09090909090909" y="110.9090909090909" fill="grey"></text><text font-size="9.090909090909092" text-anchor="middle" dy="-.2em" x="59.09090909090909" y="120.0" fill="grey">9</text><text font-size="9.090909090909092" text-anchor="middle" dy="-.2em" x="68.18181818181819" y="29.090909090909093" fill="grey"></text><text font-size="9.090909090909092" text-anchor="middle" dy="-.2em" x="68.18181818181819" y="38.18181818181819" fill="grey">8</text><text font-size="9.090909090909092" text-anchor="middle" dy="-.2em" x="68.18181818181819" y="47.27272727272727" fill="grey">12</text><text font-size="9.090909090909092" text-anchor="middle" dy="-.2em" x="68.18181818181819" y="56.36363636363637" fill="grey">12</text><text font-size="9.090909090909092" text-anchor="middle" dy="-.2em" x="68.18181818181819" y="65.45454545454545" fill="grey">12</text><text font-size="9.090909090909092" text-anchor="middle" dy="-.2em" x="68.18181818181819" y="74.54545454545455" fill="grey">13</text><text font-size="9.090909090909092" text-anchor="middle" dy="-.2em" x="68.18181818181819" y="83.63636363636363" fill="grey">11</text><text font-size="9.090909090909092" text-anchor="middle" dy="-.2em" x="68.18181818181819" y="92.72727272727273" fill="grey">11</text><text font-size="9.090909090909092" text-anchor="middle" dy="-.2em" x="68.18181818181819" y="101.81818181818181" fill="grey"></text><text font-size="9.090909090909092" text-anchor="middle" dy="-.2em" x="68.18181818181819" y="110.9090909090909" fill="grey"></text><text font-size="9.090909090909092" text-anchor="middle" dy="-.2em" x="68.18181818181819" y="120.0" fill="grey"></text><text font-size="9.090909090909092" text-anchor="middle" dy="-.2em" x="77.27272727272727" y="29.090909090909093" fill="grey"></text><text font-size="9.090909090909092" text-anchor="middle" dy="-.2em" x="77.27272727272727" y="38.18181818181819" fill="grey"></text><text font-size="9.090909090909092" text-anchor="middle" dy="-.2em" x="77.27272727272727" y="47.27272727272727" fill="grey">12</text><text font-size="9.090909090909092" text-anchor="middle" dy="-.2em" x="77.27272727272727" y="56.36363636363637" fill="grey">12</text><text font-size="9.090909090909092" text-anchor="middle" dy="-.2em" x="77.27272727272727" y="65.45454545454545" fill="grey">X</text><text font-size="9.090909090909092" text-anchor="middle" dy="-.2em" x="77.27272727272727" y="74.54545454545455" fill="grey">14</text><text font-size="9.090909090909092" text-anchor="middle" dy="-.2em" x="77.27272727272727" y="83.63636363636363" fill="grey">X</text><text font-size="9.090909090909092" text-anchor="middle" dy="-.2em" x="77.27272727272727" y="92.72727272727273" fill="grey"></text><text font-size="9.090909090909092" text-anchor="middle" dy="-.2em" x="77.27272727272727" y="101.81818181818181" fill="grey"></text><text font-size="9.090909090909092" text-anchor="middle" dy="-.2em" x="77.27272727272727" y="110.9090909090909" fill="grey"></text><text font-size="9.090909090909092" text-anchor="middle" dy="-.2em" x="77.27272727272727" y="120.0" fill="grey"></text><text font-size="9.090909090909092" text-anchor="middle" dy="-.2em" x="86.36363636363636" y="29.090909090909093" fill="grey"></text><text font-size="9.090909090909092" text-anchor="middle" dy="-.2em" x="86.36363636363636" y="38.18181818181819" fill="grey"></text><text font-size="9.090909090909092" text-anchor="middle" dy="-.2em" x="86.36363636363636" y="47.27272727272727" fill="grey"></text><text font-size="9.090909090909092" text-anchor="middle" dy="-.2em" x="86.36363636363636" y="56.36363636363637" fill="grey">12</text><text font-size="9.090909090909092" text-anchor="middle" dy="-.2em" x="86.36363636363636" y="65.45454545454545" fill="grey">14</text><text font-size="9.090909090909092" text-anchor="middle" dy="-.2em" x="86.36363636363636" y="74.54545454545455" fill="grey">14</text><text font-size="9.090909090909092" text-anchor="middle" dy="-.2em" x="86.36363636363636" y="83.63636363636363" fill="grey"></text><text font-size="9.090909090909092" text-anchor="middle" dy="-.2em" x="86.36363636363636" y="92.72727272727273" fill="grey"></text><text font-size="9.090909090909092" text-anchor="middle" dy="-.2em" x="86.36363636363636" y="101.81818181818181" fill="grey"></text><text font-size="9.090909090909092" text-anchor="middle" dy="-.2em" x="86.36363636363636" y="110.9090909090909" fill="grey"></text><text font-size="9.090909090909092" text-anchor="middle" dy="-.2em" x="86.36363636363636" y="120.0" fill="grey"></text><text font-size="9.090909090909092" text-anchor="middle" dy="-.2em" x="95.45454545454545" y="29.090909090909093" fill="grey"></text><text font-size="9.090909090909092" text-anchor="middle" dy="-.2em" x="95.45454545454545" y="38.18181818181819" fill="grey"></text><text font-size="9.090909090909092" text-anchor="middle" dy="-.2em" x="95.45454545454545" y="47.27272727272727" fill="grey"></text><text font-size="9.090909090909092" text-anchor="middle" dy="-.2em" x="95.45454545454545" y="56.36363636363637" fill="grey"></text><text font-size="9.090909090909092" text-anchor="middle" dy="-.2em" x="95.45454545454545" y="65.45454545454545" fill="grey">14</text><text font-size="9.090909090909092" text-anchor="middle" dy="-.2em" x="95.45454545454545" y="74.54545454545455" fill="grey">14</text><text font-size="9.090909090909092" text-anchor="middle" dy="-.2em" x="95.45454545454545" y="83.63636363636363" fill="grey">14</text><text font-size="9.090909090909092" text-anchor="middle" dy="-.2em" x="95.45454545454545" y="92.72727272727273" fill="grey"></text><text font-size="9.090909090909092" text-anchor="middle" dy="-.2em" x="95.45454545454545" y="101.81818181818181" fill="grey"></text><text font-size="9.090909090909092" text-anchor="middle" dy="-.2em" x="95.45454545454545" y="110.9090909090909" fill="grey"></text><text font-size="9.090909090909092" text-anchor="middle" dy="-.2em" x="95.45454545454545" y="120.0" fill="grey"></text><rect x="0" y="0" width="50" height="20" stroke="black" fill="white"/><rect x="0" y="0" width="20" height="20" stroke="black" fill="white"/><text font-size="20" text-anchor="middle" dy="-.2em" x="35" y="20" fill="black">14</text><text font-size="20" text-anchor="middle" dy="-.2em" x="10" y="20" fill="black">D</text><rect x="50" y="0" width="50" height="20" stroke="black" fill="white"/><text font-size="20" text-anchor="middle" dy="-.2em" x="85" y="20" fill="black">15</text><path d="M55.0 16.0 L58.0 16.0 L58.0 13.0 L58.0 10.0 L55.0 10.0 L55.0 7.0 L55.0 4.0 L58.0 4.0 L58.0 7.0 L61.0 7.0 L61.0 4.0 L64.0 4.0 L64.0 7.0 L67.0 7.0 L67.0 4.0 L70.0 4.0 L70.0 7.0 L70.0 10.0 L67.0 10.0 L67.0 13.0 L67.0 16.0 L70.0 16.0" stroke="black" fill="none"/><path d="M28.57142857142857 73.03030303030303 L29.87012987012987 73.03030303030303 L29.87012987012987 71.5151515151515 L29.87012987012987 70.0 L28.57142857142857 70.0 L28.57142857142857 68.48484848484847 L28.57142857142857 66.96969696969695 L29.87012987012987 66.96969696969695 L29.87012987012987 68.48484848484847 L31.168831168831165 68.48484848484847 L31.168831168831165 66.96969696969695 L32.467532467532465 66.96969696969695 L32.467532467532465 68.48484848484847 L33.76623376623376 68.48484848484847 L33.76623376623376 66.96969696969695 L35.064935064935064 66.96969696969695 L35.064935064935064 68.48484848484847 L35.064935064935064 70.0 L33.76623376623376 70.0 L33.76623376623376 71.5151515151515 L33.76623376623376 73.03030303030303 L35.064935064935064 73.03030303030303" stroke="black" fill="none"/><path d="M83.11688311688312 109.39393939393939 L84.4155844155844 109.39393939393939 L84.4155844155844 107.87878787878789 L84.4155844155844 106.36363636363639 L83.11688311688312 106.36363636363639 L83.11688311688312 104.84848484848487 L83.11688311688312 103.33333333333336 L84.4155844155844 103.33333333333336 L84.4155844155844 104.84848484848487 L85.7142857142857 104.84848484848487 L85.7142857142857 103.33333333333336 L87.01298701298698 103.33333333333336 L87.01298701298698 104.84848484848487 L88.31168831168829 104.84848484848487 L88.31168831168829 103.33333333333336 L89.61038961038959 103.33333333333336 L89.61038961038959 104.84848484848487 L89.61038961038959 106.36363636363639 L88.31168831168829 106.36363636363639 L88.31168831168829 107.87878787878789 L88.31168831168829 109.39393939393939 L89.61038961038959 109.39393939393939" stroke="red" fill="none"/><path d="M92.2077922077922 27.575757575757578 L93.5064935064935 27.575757575757578 L93.5064935064935 26.060606060606062 L93.5064935064935 24.545454545454547 L92.2077922077922 24.545454545454547 L92.2077922077922 23.03030303030303 L92.2077922077922 21.515151515151516 L93.5064935064935 21.515151515151516 L93.5064935064935 23.03030303030303 L94.80519480519479 23.03030303030303 L94.80519480519479 21.515151515151516 L96.10389610389608 21.515151515151516 L96.10389610389608 23.03030303030303 L97.40259740259738 23.03030303030303 L97.40259740259738 21.515151515151516 L98.70129870129867 21.515151515151516 L98.70129870129867 23.03030303030303 L98.70129870129867 24.545454545454547 L97.40259740259738 24.545454545454547 L97.40259740259738 26.060606060606062 L97.40259740259738 27.575757575757578 L98.70129870129867 27.575757575757578" stroke="black" fill="none"/><path d="M9.090909090909092 20.0 L9.090909090909092 29.090909090909093" stroke="black" fill="none"/><path d="M9.090909090909092 29.090909090909093 L9.090909090909092 38.18181818181819" stroke="black" fill="none"/><path d="M9.090909090909092 56.36363636363637 L9.090909090909092 65.45454545454545" stroke="black" fill="none"/><path d="M9.090909090909092 74.54545454545455 L9.090909090909092 83.63636363636363" stroke="black" fill="none"/><path d="M9.090909090909092 101.81818181818181 L9.090909090909092 110.9090909090909" stroke="black" fill="none"/><path d="M9.090909090909092 110.9090909090909 L9.090909090909092 120.0" stroke="black" fill="none"/><path d="M18.181818181818183 38.18181818181819 L18.181818181818183 47.27272727272727" stroke="black" fill="none"/><path d="M18.181818181818183 47.27272727272727 L18.181818181818183 56.36363636363637" stroke="black" fill="none"/><path d="M18.181818181818183 83.63636363636363 L18.181818181818183 92.72727272727273" stroke="black" fill="none"/><path d="M18.181818181818183 92.72727272727273 L18.181818181818183 101.81818181818181" stroke="black" fill="none"/><path d="M27.272727272727273 38.18181818181819 L27.272727272727273 47.27272727272727" stroke="black" fill="none"/><path d="M27.272727272727273 92.72727272727273 L27.272727272727273 101.81818181818181" stroke="black" fill="none"/><path d="M36.36363636363637 20.0 L36.36363636363637 29.090909090909093" stroke="black" fill="none"/><path d="M36.36363636363637 29.090909090909093 L36.36363636363637 38.18181818181819" stroke="black" fill="none"/><path d="M36.36363636363637 38.18181818181819 L36.36363636363637 47.27272727272727" stroke="black" fill="none"/><path d="M36.36363636363637 92.72727272727273 L36.36363636363637 101.81818181818181" stroke="black" fill="none"/><path d="M36.36363636363637 101.81818181818181 L36.36363636363637 110.9090909090909" stroke="black" fill="none"/><path d="M36.36363636363637 110.9090909090909 L36.36363636363637 120.0" stroke="black" fill="none"/><path d="M45.45454545454545 20.0 L45.45454545454545 29.090909090909093" stroke="black" fill="none"/><path d="M45.45454545454545 38.18181818181819 L45.45454545454545 47.27272727272727" stroke="black" fill="none"/><path d="M45.45454545454545 47.27272727272727 L45.45454545454545 56.36363636363637" stroke="black" fill="none"/><path d="M45.45454545454545 83.63636363636363 L45.45454545454545 92.72727272727273" stroke="black" fill="none"/><path d="M45.45454545454545 92.72727272727273 L45.45454545454545 101.81818181818181" stroke="black" fill="none"/><path d="M54.54545454545455 38.18181818181819 L54.54545454545455 47.27272727272727" stroke="black" fill="none"/><path d="M54.54545454545455 47.27272727272727 L54.54545454545455 56.36363636363637" stroke="black" fill="none"/><path d="M54.54545454545455 56.36363636363637 L54.54545454545455 65.45454545454545" stroke="black" fill="none"/><path d="M54.54545454545455 74.54545454545455 L54.54545454545455 83.63636363636363" stroke="black" fill="none"/><path d="M54.54545454545455 92.72727272727273 L54.54545454545455 101.81818181818181" stroke="black" fill="none"/><path d="M54.54545454545455 101.81818181818181 L54.54545454545455 110.9090909090909" stroke="black" fill="none"/><path d="M63.63636363636363 20.0 L63.63636363636363 29.090909090909093" stroke="black" fill="none"/><path d="M63.63636363636363 38.18181818181819 L63.63636363636363 47.27272727272727" stroke="black" fill="none"/><path d="M63.63636363636363 56.36363636363637 L63.63636363636363 65.45454545454545" stroke="black" fill="none"/><path d="M63.63636363636363 65.45454545454545 L63.63636363636363 74.54545454545455" stroke="black" fill="none"/><path d="M63.63636363636363 74.54545454545455 L63.63636363636363 83.63636363636363" stroke="black" fill="none"/><path d="M63.63636363636363 92.72727272727273 L63.63636363636363 101.81818181818181" stroke="black" fill="none"/><path d="M63.63636363636363 110.9090909090909 L63.63636363636363 120.0" stroke="black" fill="none"/><path d="M72.72727272727273 29.090909090909093 L72.72727272727273 38.18181818181819" stroke="black" fill="none"/><path d="M72.72727272727273 56.36363636363637 L72.72727272727273 65.45454545454545" stroke="black" fill="none"/><path d="M72.72727272727273 65.45454545454545 L72.72727272727273 74.54545454545455" stroke="black" fill="none"/><path d="M72.72727272727273 74.54545454545455 L72.72727272727273 83.63636363636363" stroke="black" fill="none"/><path d="M72.72727272727273 83.63636363636363 L72.72727272727273 92.72727272727273" stroke="black" fill="none"/><path d="M81.81818181818181 38.18181818181819 L81.81818181818181 47.27272727272727" stroke="black" fill="none"/><path d="M81.81818181818181 56.36363636363637 L81.81818181818181 65.45454545454545" stroke="black" fill="none"/><path d="M81.81818181818181 74.54545454545455 L81.81818181818181 83.63636363636363" stroke="black" fill="none"/><path d="M90.9090909090909 47.27272727272727 L90.9090909090909 56.36363636363637" stroke="black" fill="none"/><path d="M90.9090909090909 74.54545454545455 L90.9090909090909 83.63636363636363" stroke="black" fill="none"/><path d="M0.0 29.090909090909093 L9.090909090909092 29.090909090909093" stroke="black" fill="none"/><path d="M0.0 65.45454545454545 L9.090909090909092 65.45454545454545" stroke="black" fill="none"/><path d="M0.0 74.54545454545455 L9.090909090909092 74.54545454545455" stroke="black" fill="none"/><path d="M0.0 110.9090909090909 L9.090909090909092 110.9090909090909" stroke="black" fill="none"/><path d="M9.090909090909092 38.18181818181819 L18.181818181818183 38.18181818181819" stroke="black" fill="none"/><path d="M9.090909090909092 56.36363636363637 L18.181818181818183 56.36363636363637" stroke="black" fill="none"/><path d="M9.090909090909092 83.63636363636363 L18.181818181818183 83.63636363636363" stroke="black" fill="none"/><path d="M9.090909090909092 101.81818181818181 L18.181818181818183 101.81818181818181" stroke="black" fill="none"/><path d="M18.181818181818183 47.27272727272727 L27.272727272727273 47.27272727272727" stroke="black" fill="none"/><path d="M18.181818181818183 92.72727272727273 L27.272727272727273 92.72727272727273" stroke="black" fill="none"/><path d="M27.272727272727273 38.18181818181819 L36.36363636363637 38.18181818181819" stroke="black" fill="none"/><path d="M27.272727272727273 101.81818181818181 L36.36363636363637 101.81818181818181" stroke="black" fill="none"/><path d="M36.36363636363637 29.090909090909093 L45.45454545454545 29.090909090909093" stroke="black" fill="none"/><path d="M36.36363636363637 38.18181818181819 L45.45454545454545 38.18181818181819" stroke="black" fill="none"/><path d="M36.36363636363637 47.27272727272727 L45.45454545454545 47.27272727272727" stroke="black" fill="none"/><path d="M36.36363636363637 92.72727272727273 L45.45454545454545 92.72727272727273" stroke="black" fill="none"/><path d="M36.36363636363637 101.81818181818181 L45.45454545454545 101.81818181818181" stroke="black" fill="none"/><path d="M45.45454545454545 47.27272727272727 L54.54545454545455 47.27272727272727" stroke="black" fill="none"/><path d="M45.45454545454545 56.36363636363637 L54.54545454545455 56.36363636363637" stroke="black" fill="none"/><path d="M45.45454545454545 83.63636363636363 L54.54545454545455 83.63636363636363" stroke="black" fill="none"/><path d="M45.45454545454545 92.72727272727273 L54.54545454545455 92.72727272727273" stroke="black" fill="none"/><path d="M54.54545454545455 38.18181818181819 L63.63636363636363 38.18181818181819" stroke="black" fill="none"/><path d="M54.54545454545455 47.27272727272727 L63.63636363636363 47.27272727272727" stroke="black" fill="none"/><path d="M54.54545454545455 56.36363636363637 L63.63636363636363 56.36363636363637" stroke="black" fill="none"/><path d="M54.54545454545455 65.45454545454545 L63.63636363636363 65.45454545454545" stroke="black" fill="none"/><path d="M54.54545454545455 74.54545454545455 L63.63636363636363 74.54545454545455" stroke="black" fill="none"/><path d="M54.54545454545455 83.63636363636363 L63.63636363636363 83.63636363636363" stroke="black" fill="none"/><path d="M54.54545454545455 92.72727272727273 L63.63636363636363 92.72727272727273" stroke="black" fill="none"/><path d="M54.54545454545455 101.81818181818181 L63.63636363636363 101.81818181818181" stroke="black" fill="none"/><path d="M54.54545454545455 110.9090909090909 L63.63636363636363 110.9090909090909" stroke="black" fill="none"/><path d="M63.63636363636363 29.090909090909093 L72.72727272727273 29.090909090909093" stroke="black" fill="none"/><path d="M63.63636363636363 38.18181818181819 L72.72727272727273 38.18181818181819" stroke="black" fill="none"/><path d="M63.63636363636363 65.45454545454545 L72.72727272727273 65.45454545454545" stroke="black" fill="none"/><path d="M63.63636363636363 74.54545454545455 L72.72727272727273 74.54545454545455" stroke="black" fill="none"/><path d="M63.63636363636363 92.72727272727273 L72.72727272727273 92.72727272727273" stroke="black" fill="none"/><path d="M72.72727272727273 38.18181818181819 L81.81818181818181 38.18181818181819" stroke="black" fill="none"/><path d="M72.72727272727273 56.36363636363637 L81.81818181818181 56.36363636363637" stroke="black" fill="none"/><path d="M72.72727272727273 65.45454545454545 L81.81818181818181 65.45454545454545" stroke="black" fill="none"/><path d="M72.72727272727273 74.54545454545455 L81.81818181818181 74.54545454545455" stroke="black" fill="none"/><path d="M72.72727272727273 83.63636363636363 L81.81818181818181 83.63636363636363" stroke="black" fill="none"/><path d="M81.81818181818181 47.27272727272727 L90.9090909090909 47.27272727272727" stroke="black" fill="none"/><path d="M81.81818181818181 56.36363636363637 L90.9090909090909 56.36363636363637" stroke="black" fill="none"/><path d="M81.81818181818181 74.54545454545455 L90.9090909090909 74.54545454545455" stroke="black" fill="none"/><path d="M90.9090909090909 56.36363636363637 L100.0 56.36363636363637" stroke="black" fill="none"/><path d="M90.9090909090909 83.63636363636363 L100.0 83.63636363636363" stroke="black" fill="none"/></svg>
