<?xml version='1.0' encoding='ASCII'?>
<svg xmlns="http://www.w3.org/2000/svg" xmlns:xlink="http://www.w3.org/1999/xlink" width="100" height="120" viewBox="0 0 100 120">
                        <defs>
                        </defs>
                        <rect x="0" y="20" width="100" height="100" stroke="black" fill="white"/><path d="M0.0 20.0 L9.090909090909092 20.0 L9.090909090909092 29.090909090909093 L0.0 29.090909090909093" stroke="lightgray" fill="white"/><path d="M0.0 29.090909090909093 L9.090909090909092 29.090909090909093 L9.090909090909092 38.18181818181819 L0.0 38.18181818181819" stroke="lightgray" fill="lightgrey"/><path d="M0.0 38.18181818181819 L9.090909090909092 38.18181818181819 L9.090909090909092 47.27272727272727 L0.0 47.27272727272727" stroke="lightgray" fill="lightgrey"/><path d="M0.0 47.27272727272727 L9.090909090909092 47.27272727272727 L9.090909090909092 56.36363636363637 L0.0 56.36363636363637" stroke="lightgray" fill="lightgrey"/><path d="M0.0 56.36363636363637 L9.090909090909092 56.36363636363637 L9.090909090909092 65.45454545454545 L0.0 65.45454545454545" stroke="lightgray" fill="lightgrey"/><path d="M0.0 65.45454545454545 L9.090909090909092 65.45454545454545 L9.090909090909092 74.54545454545455 L0.0 74.54545454545455" stroke="lightgray" fill="lightgrey"/><path d="M0.0 74.54545454545455 L9.090909090909092 74.54545454545455 L9.090909090909092 83.63636363636363 L0.0 83.63636363636363" stroke="lightgray" fill="lightgrey"/><path d="M0.0 83.63636363636363 L9.090909090909092 83.63636363636363 L9.090909090909092 92.72727272727273 L0.0 92.72727272727273" stroke="lightgray" fill="lightgrey"/><path d="M0.0 92.72727272727273 L9.090909090909092 92.72727272727273 L9.090909090909092 101.81818181818181 L0.0 101.81818181818181" stroke="lightgray" fill="orange"/><path d="M0.0 101.81818181818181 L9.090909090909092 101.81818181818181 L9.090909090909092 110.9090909090909 L0.0 110.9090909090909" stroke="lightgray" fill="white"/><path d="M0.0 110.9090909090909 L9.090909090909092 110.9090909090909 L9.090909090909092 120.0 L0.0 120.0" stroke="lightgray" fill="white"/><path d="M9.090909090909092 20.0 L18.181818181818183 20.0 L18.181818181818183 29.090909090909093 L9.090909090909092 29.090909090909093" stroke="lightgray" fill="white"/><path d="M9.090909090909092 29.090909090909093 L18.181818181818183 29.090909090909093 L18.181818181818183 38.18181818181819 L9.090909090909092 38.18181818181819" stroke="lightgray" fill="white"/><path d="M9.090909090909092 38.18181818181819 L18.181818181818183 38.18181818181819 L18.181818181818183 47.27272727272727 L9.090909090909092 47.27272727272727" stroke="lightgray" fill="lightgrey"/><path d="M9.090909090909092 47.27272727272727 L18.181818181818183 47.27272727272727 L18.181818181818183 56.36363636363637 L9.090909090909092 56.36363636363637" stroke="lightgray" fill="lightgrey"/><path d="M9.090909090909092 56.36363636363637 L18.181818181818183 56.36363636363637 L18.181818181818183 65.45454545454545 L9.090909090909092 65.45454545454545" stroke="lightgray" fill="lightgrey"/><path d="M9.090909090909092 65.45454545454545 L18.181818181818183 65.45454545454545 L18.181818181818183 74.54545454545455 L9.090909090909092 74.54545454545455" stroke="lightgray" fill="lightgrey"/><path d="M9.090909090909092 74.54545454545455 L18.181818181818183 74.54545454545455 L18.181818181818183 83.63636363636363 L9.090909090909092 83.63636363636363" stroke="lightgray" fill="lightgrey"/><path d="M9.090909090909092 83.63636363636363 L18.181818181818183 83.63636363636363 L18.181818181818183 92.72727272727273 L9.090909090909092 92.72727272727273" stroke="lightgray" fill="white"/><path d="M9.090909090909092 92.72727272727273 L18.181818181818183 92.72727272727273 L18.181818181818183 101.81818181818181 L9.090909090909092 101.81818181818181" stroke="lightgray" fill="orange"/><path d="M9.090909090909092 101.81818181818181 L18.181818181818183 101.81818181818181 L18.181818181818183 110.9090909090909 L9.090909090909092 110.9090909090909" stroke="lightgray" fill="orange"/><path d="M9.090909090909092 110.9090909090909 L18.181818181818183 110.9090909090909 L18.181818181818183 120.0 L9.090909090909092 120.0" stroke="lightgray" fill="white"/><path d="M18.181818181818183 20.0 L27.272727272727273 20.0 L27.272727272727273 29.090909090909093 L18.181818181818183 29.090909090909093" stroke="lightgray" fill="white"/><path d="M18.181818181818183 29.090909090909093 L27.272727272727273 29.090909090909093 L27.272727272727273 38.18181818181819 L18.181818181818183 38.18181818181819" stroke="lightgray" fill="white"/><path d="M18.181818181818183 38.18181818181819 L27.272727272727273 38.18181818181819 L27.272727272727273 47.27272727272727 L18.181818181818183 47.27272727272727" stroke="lightgray" fill="white"/><path d="M18.181818181818183 47.27272727272727 L27.272727272727273 47.27272727272727 L27.272727272727273 56.36363636363637 L18.181818181818183 56.36363636363637" stroke="lightgray" fill="lightgrey"/><path d="M18.181818181818183 56.36363636363637 L27.272727272727273 56.36363636363637 L27.272727272727273 65.45454545454545 L18.181818181818183 65.45454545454545" stroke="lightgray" fill="lightgrey"/><path d="M18.181818181818183 65.45454545454545 L27.272727272727273 65.45454545454545 L27.272727272727273 74.54545454545455 L18.181818181818183 74.54545454545455" stroke="lightgray" fill="lightgrey"/><path d="M18.181818181818183 74.54545454545455 L27.272727272727273 74.54545454545455 L27.272727272727273 83.63636363636363 L18.181818181818183 83.63636363636363" stroke="lightgray" fill="lightgreen"/><path d="M18.181818181818183 83.63636363636363 L27.272727272727273 83.63636363636363 L27.272727272727273 92.72727272727273 L18.181818181818183 92.72727272727273" stroke="lightgray" fill="lightgrey"/><path d="M18.181818181818183 92.72727272727273 L27.272727272727273 92.72727272727273 L27.272727272727273 101.81818181818181 L18.181818181818183 101.81818181818181" stroke="lightgray" fill="white"/><path d="M18.181818181818183 101.81818181818181 L27.272727272727273 101.81818181818181 L27.272727272727273 110.9090909090909 L18.181818181818183 110.9090909090909" stroke="lightgray" fill="orange"/><path d="M18.181818181818183 110.9090909090909 L27.272727272727273 110.9090909090909 L27.272727272727273 120.0 L18.181818181818183 120.0" stroke="lightgray" fill="white"/><path d="M27.272727272727273 20.0 L36.36363636363637 20.0 L36.36363636363637 29.090909090909093 L27.272727272727273 29.090909090909093" stroke="lightgray" fill="white"/><path d="M27.272727272727273 29.090909090909093 L36.36363636363637 29.090909090909093 L36.36363636363637 38.18181818181819 L27.272727272727273 38.18181818181819" stroke="lightgray" fill="orange"/><path d="M27.272727272727273 38.18181818181819 L36.36363636363637 38.18181818181819 L36.36363636363637 47.27272727272727 L27.272727272727273 47.27272727272727" stroke="lightgray" fill="white"/><path d="M27.272727272727273 47.27272727272727 L36.36363636363637 47.27272727272727 L36.36363636363637 56.36363636363637 L27.272727272727273 56.36363636363637" stroke="lightgray" fill="white"/><path d="M27.272727272727273 56.36363636363637 L36.36363636363637 56.36363636363637 L36.36363636363637 65.45454545454545 L27.272727272727273 65.45454545454545" stroke="lightgray" fill="lightgrey"/><path d="M27.272727272727273 65.45454545454545 L36.36363636363637 65.45454545454545 L36.36363636363637 74.54545454545455 L27.272727272727273 74.54545454545455" stroke="lightgray" fill="orange"/><path d="M27.272727272727273 74.54545454545455 L36.36363636363637 74.54545454545455 L36.36363636363637 83.63636363636363 L27.272727272727273 83.63636363636363" stroke="lightgray" fill="lightgrey"/><path d="M27.272727272727273 83.63636363636363 L36.36363636363637 83.63636363636363 L36.36363636363637 92.72727272727273 L27.272727272727273 92.72727272727273" stroke="lightgray" fill="lightgrey"/><path d="M27.272727272727273 92.72727272727273 L36.36363636363637 92.72727272727273 L36.36363636363637 101.81818181818181 L27.272727272727273 101.81818181818181" stroke="lightgray" fill="lightgrey"/><path d="M27.272727272727273 101.81818181818181 L36.36363636363637 101.81818181818181 L36.36363636363637 110.9090909090909 L27.272727272727273 110.9090909090909" stroke="lightgray" fill="white"/><path d="M27.272727272727273 110.9090909090909 L36.36363636363637 110.9090909090909 L36.36363636363637 120.0 L27.272727272727273 120.0" stroke="lightgray" fill="orange"/><path d="M36.36363636363637 20.0 L45.45454545454545 20.0 L45.45454545454545 29.090909090909093 L36.36363636363637 29.090909090909093" stroke="lightgray" fill="white"/><path d="M36.36363636363637 29.090909090909093 L45.45454545454545 29.090909090909093 L45.45454545454545 38.18181818181819 L36.36363636363637 38.18181818181819" stroke="lightgray" fill="white"/><path d="M36.36363636363637 38.18181818181819 L45.45454545454545 38.18181818181819 L45.45454545454545 47.27272727272727 L36.36363636363637 47.27272727272727" stroke="lightgray" fill="white"/><path d="M36.36363636363637 47.27272727272727 L45.45454545454545 47.27272727272727 L45.45454545454545 56.36363636363637 L36.36363636363637 56.36363636363637" stroke="lightgray" fill="lightgrey"/><path d="M36.36363636363637 56.36363636363637 L45.45454545454545 56.36363636363637 L45.45454545454545 65.45454545454545 L36.36363636363637 65.45454545454545" stroke="lightgray" fill="lightgrey"/><path d="M36.36363636363637 65.45454545454545 L45.45454545454545 65.45454545454545 L45.45454545454545 74.54545454545455 L36.36363636363637 74.54545454545455" stroke="lightgray" fill="lightgrey"/><path d="M36.36363636363637 74.54545454545455 L45.45454545454545 74.54545454545455 L45.45454545454545 83.63636363636363 L36.36363636363637 83.63636363636363" stroke="lightgray" fill="lightgrey"/><path d="M36.36363636363637 83.63636363636363 L45.45454545454545 83.63636363636363 L45.45454545454545 92.72727272727273 L36.36363636363637 92.72727272727273" stroke="lightgray" fill="lightgrey"/><path d="M36.36363636363637 92.72727272727273 L45.45454545454545 92.72727272727273 L45.45454545454545 101.81818181818181 L36.36363636363637 101.81818181818181" stroke="lightgray" fill="lightgrey"/><path d="M36.36363636363637 101.81818181818181 L45.45454545454545 101.81818181818181 L45.45454545454545 110.9090909090909 L36.36363636363637 110.9090909090909" stroke="lightgray" fill="lightgrey"/><path d="M36.36363636363637 110.9090909090909 L45.45454545454545 110.9090909090909 L45.45454545454545 120.0 L36.36363636363637 120.0" stroke="lightgray" fill="white"/><path d="M45.45454545454545 20.0 L54.54545454545455 20.0 L54.54545454545455 29.090909090909093 L45.45454545454545 29.090909090909093" stroke="lightgray" fill="white"/><path d="M45.45454545454545 29.090909090909093 L54.54545454545455 29.090909090909093 L54.54545454545455 38.18181818181819 L45.45454545454545 38.18181818181819" stroke="lightgray" fill="orange"/><path d="M45.45454545454545 38.18181818181819 L54.54545454545455 38.18181818181819 L54.54545454545455 47.27272727272727 L45.45454545454545 47.27272727272727" stroke="lightgray" fill="lightgrey"/><path d="M45.45454545454545 47.27272727272727 L54.54545454545455 47.27272727272727 L54.54545454545455 56.36363636363637 L45.45454545454545 56.36363636363637" stroke="lightgray" fill="lightgrey"/><path d="M45.45454545454545 56.36363636363637 L54.54545454545455 56.36363636363637 L54.54545454545455 65.45454545454545 L45.45454545454545 65.45454545454545" stroke="lightgray" fill="lightgrey"/><path d="M45.45454545454545 65.45454545454545 L54.54545454545455 65.45454545454545 L54.54545454545455 74.54545454545455 L45.45454545454545 74.54545454545455" stroke="lightgray" fill="lightgrey"/><path d="M45.45454545454545 74.54545454545455 L54.54545454545455 74.54545454545455 L54.54545454545455 83.63636363636363 L45.45454545454545 83.63636363636363" stroke="lightgray" fill="lightgrey"/><path d="M45.45454545454545 83.63636363636363 L54.54545454545455 83.63636363636363 L54.54545454545455 92.72727272727273 L45.45454545454545 92.72727272727273" stroke="lightgray" fill="lightgrey"/><path d="M45.45454545454545 92.72727272727273 L54.54545454545455 92.72727272727273 L54.54545454545455 101.81818181818181 L45.45454545454545 101.81818181818181" stroke="lightgray" fill="lightgrey"/><path d="M45.45454545454545 101.81818181818181 L54.54545454545455 101.81818181818181 L54.54545454545455 110.9090909090909 L45.45454545454545 110.9090909090909" stroke="lightgray" fill="lightgrey"/><path d="M45.45454545454545 110.9090909090909 L54.54545454545455 110.9090909090909 L54.54545454545455 120.0 L45.45454545454545 120.0" stroke="lightgray" fill="lightgrey"/><path d="M54.54545454545455 20.0 L63.63636363636363 20.0 L63.63636363636363 29.090909090909093 L54.54545454545455 29.090909090909093" stroke="lightgray" fill="white"/><path d="M54.54545454545455 29.090909090909093 L63.63636363636363 29.090909090909093 L63.63636363636363 38.18181818181819 L54.54545454545455 38.18181818181819" stroke="lightgray" fill="lightgrey"/><path d="M54.54545454545455 38.18181818181819 L63.63636363636363 38.18181818181819 L63.63636363636363 47.27272727272727 L54.54545454545455 47.27272727272727" stroke="lightgray" fill="lightgrey"/><path d="M54.54545454545455 47.27272727272727 L63.63636363636363 47.27272727272727 L63.63636363636363 56.36363636363637 L54.54545454545455 56.36363636363637" stroke="lightgray" fill="lightgrey"/><path d="M54.54545454545455 56.36363636363637 L63.63636363636363 56.36363636363637 L63.63636363636363 65.45454545454545 L54.54545454545455 65.45454545454545" stroke="lightgray" fill="lightgrey"/><path d="M54.54545454545455 65.45454545454545 L63.63636363636363 65.45454545454545 L63.63636363636363 74.54545454545455 L54.54545454545455 74.54545454545455" stroke="lightgray" fill="lightgrey"/><path d="M54.54545454545455 74.54545454545455 L63.63636363636363 74.54545454545455 L63.63636363636363 83.63636363636363 L54.54545454545455 83.63636363636363" stroke="lightgray" fill="lightgrey"/><path d="M54.54545454545455 83.63636363636363 L63.63636363636363 83.63636363636363 L63.63636363636363 92.72727272727273 L54.54545454545455 92.72727272727273" stroke="lightgray" fill="lightgrey"/><path d="M54.54545454545455 92.72727272727273 L63.63636363636363 92.72727272727273 L63.63636363636363 101.81818181818181 L54.54545454545455 101.81818181818181" stroke="lightgray" fill="lightgrey"/><path d="M54.54545454545455 101.81818181818181 L63.63636363636363 101.81818181818181 L63.63636363636363 110.9090909090909 L54.54545454545455 110.9090909090909" stroke="lightgray" fill="lightgrey"/><path d="M54.54545454545455 110.9090909090909 L63.63636363636363 110.9090909090909 L63.63636363636363 120.0 L54.54545454545455 120.0" stroke="lightgray" fill="white"/><path d="M63.63636363636363 20.0 L72.72727272727273 20.0 L72.72727272727273 29.090909090909093 L63.63636363636363 29.090909090909093" stroke="lightgray" fill="white"/><path d="M63.63636363636363 29.090909090909093 L72.72727272727273 29.090909090909093 L72.72727272727273 38.18181818181819 L63.63636363636363 38.18181818181819" stroke="lightgray" fill="orange"/><path d="M63.63636363636363 38.18181818181819 L72.72727272727273 38.18181818181819 L72.72727272727273 47.27272727272727 L63.63636363636363 47.27272727272727" stroke="lightgray" fill="lightgrey"/><path d="M63.63636363636363 47.27272727272727 L72.72727272727273 47.27272727272727 L72.72727272727273 56.36363636363637 L63.63636363636363 56.36363636363637" stroke="lightgray" fill="lightgrey"/><path d="M63.63636363636363 56.36363636363637 L72.72727272727273 56.36363636363637 L72.72727272727273 65.45454545454545 L63.63636363636363 65.45454545454545" stroke="lightgray" fill="lightgrey"/><path d="M63.63636363636363 65.45454545454545 L72.72727272727273 65.45454545454545 L72.72727272727273 74.54545454545455 L63.63636363636363 74.54545454545455" stroke="lightgray" fill="lightgrey"/><path d="M63.63636363636363 74.54545454545455 L72.72727272727273 74.54545454545455 L72.72727272727273 83.63636363636363 L63.63636363636363 83.63636363636363" stroke="lightgray" fill="lightgrey"/><path d="M63.63636363636363 83.63636363636363 L72.72727272727273 83.63636363636363 L72.72727272727273 92.72727272727273 L63.63636363636363 92.72727272727273" stroke="lightgray" fill="lightgrey"/><path d="M63.63636363636363 92.72727272727273 L72.72727272727273 92.72727272727273 L72.72727272727273 101.81818181818181 L63.63636363636363 101.81818181818181" stroke="lightgray" fill="lightgrey"/><path d="M63.63636363636363 101.81818181818181 L72.72727272727273 101.81818181818181 L72.72727272727273 110.9090909090909 L63.63636363636363 110.9090909090909" stroke="lightgray" fill="white"/><path d="M63.63636363636363 110.9090909090909 L72.72727272727273 110.9090909090909 L72.72727272727273 120.0 L63.63636363636363 120.0" stroke="lightgray" fill="orange"/><path d="M72.72727272727273 20.0 L81.81818181818181 20.0 L81.81818181818181 29.090909090909093 L72.72727272727273 29.090909090909093" stroke="lightgray" fill="white"/><path d="M72.72727272727273 29.090909090909093 L81.81818181818181 29.090909090909093 L81.81818181818181 38.18181818181819 L72.72727272727273 38.18181818181819" stroke="lightgray" fill="white"/><path d="M72.72727272727273 38.18181818181819 L81.81818181818181 38.18181818181819 L81.81818181818181 47.27272727272727 L72.72727272727273 47.27272727272727" stroke="lightgray" fill="white"/><path d="M72.72727272727273 47.27272727272727 L81.81818181818181 47.27272727272727 L81.81818181818181 56.36363636363637 L72.72727272727273 56.36363636363637" stroke="lightgray" fill="lightgrey"/><path d="M72.72727272727273 56.36363636363637 L81.81818181818181 56.36363636363637 L81.81818181818181 65.45454545454545 L72.72727272727273 65.45454545454545" stroke="lightgray" fill="lightgrey"/><path d="M72.72727272727273 65.45454545454545 L81.81818181818181 65.45454545454545 L81.81818181818181 74.54545454545455 L72.72727272727273 74.54545454545455" stroke="lightgray" fill="lightgrey"/><path d="M72.72727272727273 74.54545454545455 L81.81818181818181 74.54545454545455 L81.81818181818181 83.63636363636363 L72.72727272727273 83.63636363636363" stroke="lightgray" fill="white"/><path d="M72.72727272727273 83.63636363636363 L81.81818181818181 83.63636363636363 L81.81818181818181 92.72727272727273 L72.72727272727273 92.72727272727273" stroke="lightgray" fill="lightgrey"/><path d="M72.72727272727273 92.72727272727273 L81.81818181818181 92.72727272727273 L81.81818181818181 101.81818181818181 L72.72727272727273 101.81818181818181" stroke="lightgray" fill="white"/><path d="M72.72727272727273 101.81818181818181 L81.81818181818181 101.81818181818181 L81.81818181818181 110.9090909090909 L72.72727272727273 110.9090909090909" stroke="lightgray" fill="white"/><path d="M72.72727272727273 110.9090909090909 L81.81818181818181 110.9090909090909 L81.81818181818181 120.0 L72.72727272727273 120.0" stroke="lightgray" fill="white"/><path d="M81.81818181818181 20.0 L90.9090909090909 20.0 L90.9090909090909 29.090909090909093 L81.81818181818181 29.090909090909093" stroke="lightgray" fill="white"/><path d="M81.81818181818181 29.090909090909093 L90.9090909090909 29.090909090909093 L90.9090909090909 38.18181818181819 L81.81818181818181 38.18181818181819" stroke="lightgray" fill="white"/><path d="M81.81818181818181 38.18181818181819 L90.9090909090909 38.18181818181819 L90.9090909090909 47.27272727272727 L81.81818181818181 47.27272727272727" stroke="lightgray" fill="white"/><path d="M81.81818181818181 47.27272727272727 L90.9090909090909 47.27272727272727 L90.9090909090909 56.36363636363637 L81.81818181818181 56.36363636363637" stroke="lightgray" fill="white"/><path d="M81.81818181818181 56.36363636363637 L90.9090909090909 56.36363636363637 L90.9090909090909 65.45454545454545 L81.81818181818181 65.45454545454545" stroke="lightgray" fill="lightgrey"/><path d="M81.81818181818181 65.45454545454545 L90.9090909090909 65.45454545454545 L90.9090909090909 74.54545454545455 L81.81818181818181 74.54545454545455" stroke="lightgray" fill="white"/><path d="M81.81818181818181 74.54545454545455 L90.9090909090909 74.54545454545455 L90.9090909090909 83.63636363636363 L81.81818181818181 83.63636363636363" stroke="lightgray" fill="white"/><path d="M81.81818181818181 83.63636363636363 L90.9090909090909 83.63636363636363 L90.9090909090909 92.72727272727273 L81.81818181818181 92.72727272727273" stroke="lightgray" fill="white"/><path d="M81.81818181818181 92.72727272727273 L90.9090909090909 92.72727272727273 L90.9090909090909 101.81818181818181 L81.81818181818181 101.81818181818181" stroke="lightgray" fill="white"/><path d="M81.81818181818181 101.81818181818181 L90.9090909090909 101.81818181818181 L90.9090909090909 110.9090909090909 L81.81818181818181 110.9090909090909" stroke="lightgray" fill="white"/><path d="M81.81818181818181 110.9090909090909 L90.9090909090909 110.9090909090909 L90.9090909090909 120.0 L81.81818181818181 120.0" stroke="lightgray" fill="white"/><path d="M90.9090909090909 20.0 L100.0 20.0 L100.0 29.090909090909093 L90.9090909090909 29.090909090909093" stroke="lightgray" fill="white"/><path d="M90.9090909090909 29.090909090909093 L100.0 29.090909090909093 L100.0 38.18181818181819 L90.9090909090909 38.18181818181819" stroke="lightgray" fill="white"/><path d="M90.9090909090909 38.18181818181819 L100.0 38.18181818181819 L100.0 47.27272727272727 L90.9090909090909 47.27272727272727" stroke="lightgray" fill="white"/><path d="M90.9090909090909 47.27272727272727 L100.0 47.27272727272727 L100.0 56.36363636363637 L90.9090909090909 56.36363636363637" stroke="lightgray" fill="white"/><path d="M90.9090909090909 56.36363636363637 L100.0 56.36363636363637 L100.0 65.45454545454545 L90.9090909090909 65.45454545454545" stroke="lightgray" fill="white"/><path d="M90.9090909090909 65.45454545454545 L100.0 65.45454545454545 L100.0 74.54545454545455 L90.9090909090909 74.54545454545455" stroke="lightgray" fill="white"/><path d="M90.9090909090909 74.54545454545455 L100.0 74.54545454545455 L100.0 83.63636363636363 L90.9090909090909 83.63636363636363" stroke="lightgray" fill="orange"/><path d="M90.9090909090909 83.63636363636363 L100.0 83.63636363636363 L100.0 92.72727272727273 L90.9090909090909 92.72727272727273" stroke="lightgray" fill="white"/><path d="M90.9090909090909 92.72727272727273 L100.0 92.72727272727273 L100.0 101.81818181818181 L90.9090909090909 101.81818181818181" stroke="lightgray" fill="white"/><path d="M90.9090909090909 101.81818181818181 L100.0 101.81818181818181 L100.0 110.9090909090909 L90.9090909090909 110.9090909090909" stroke="lightgray" fill="white"/><path d="M90.9090909090909 110.9090909090909 L100.0 110.9090909090909 L100.0 120.0 L90.9090909090909 120.0" stroke="lightgray" fill="white"/><path d="M0.0 20.0 L100.0 20.0 L100.0 120.0 L0.0 120.0 L0.0 20.0" stroke="black" fill="none"/><text font-size="9.090909090909092" text-anchor="middle" dy="-.2em" x="4.545454545454546" y="29.090909090909093" fill="grey"></text><text font-size="9.090909090909092" text-anchor="middle" dy="-.2em" x="4.545454545454546" y="38.18181818181819" fill="grey"></text><text font-size="9.090909090909092" text-anchor="middle" dy="-.2em" x="4.545454545454546" y="47.27272727272727" fill="grey"></text><text font-size="9.090909090909092" text-anchor="middle" dy="-.2em" x="4.545454545454546" y="56.36363636363637" fill="grey"></text><text font-size="9.090909090909092" text-anchor="middle" dy="-.2em" x="4.545454545454546" y="65.45454545454545" fill="grey"></text><text font-size="9.090909090909092" text-anchor="middle" dy="-.2em" x="4.545454545454546" y="74.54545454545455" fill="grey"></text><text font-size="9.090909090909092" text-anchor="middle" dy="-.2em" x="4.545454545454546" y="83.63636363636363" fill="grey"></text><text font-size="9.090909090909092" text-anchor="middle" dy="-.2em" x="4.545454545454546" y="92.72727272727273" fill="grey"></text><text font-size="9.090909090909092" text-anchor="middle" dy="-.2em" x="4.545454545454546" y="101.81818181818181" fill="grey">X</text><text font-size="9.090909090909092" text-anchor="middle" dy="-.2em" x="4.545454545454546" y="110.9090909090909" fill="grey"></text><text font-size="9.090909090909092" text-anchor="middle" dy="-.2em" x="4.545454545454546" y="120.0" fill="grey"></text><text font-size="9.090909090909092" text-anchor="middle" dy="-.2em" x="13.636363636363637" y="29.090909090909093" fill="grey"></text><text font-size="9.090909090909092" text-anchor="middle" dy="-.2em" x="13.636363636363637" y="38.18181818181819" fill="grey"></text><text font-size="9.090909090909092" text-anchor="middle" dy="-.2em" x="13.636363636363637" y="47.27272727272727" fill="grey"></text><text font-size="9.090909090909092" text-anchor="middle" dy="-.2em" x="13.636363636363637" y="56.36363636363637" fill="grey"></text><text font-size="9.090909090909092" text-anchor="middle" dy="-.2em" x="13.636363636363637" y="65.45454545454545" fill="grey"></text><text font-size="9.090909090909092" text-anchor="middle" dy="-.2em" x="13.636363636363637" y="74.54545454545455" fill="grey"></text><text font-size="9.090909090909092" text-anchor="middle" dy="-.2em" x="13.636363636363637" y="83.63636363636363" fill="grey"></text><text font-size="9.090909090909092" text-anchor="middle" dy="-.2em" x="13.636363636363637" y="92.72727272727273" fill="grey"></text><text font-size="9.090909090909092" text-anchor="middle" dy="-.2em" x="13.636363636363637" y="101.81818181818181" fill="grey">X</text><text font-size="9.090909090909092" text-anchor="middle" dy="-.2em" x="13.636363636363637" y="110.9090909090909" fill="grey">X</text><text font-size="9.090909090909092" text-anchor="middle" dy="-.2em" x="13.636363636363637" y="120.0" fill="grey"></text><text font-size="9.090909090909092" text-anchor="middle" dy="-.2em" x="22.727272727272727" y="29.090909090909093" fill="grey"></text><text font-size="9.090909090909092" text-anchor="middle" dy="-.2em" x="22.727272727272727" y="38.18181818181819" fill="grey"></text><text font-size="9.090909090909092" text-anchor="middle" dy="-.2em" x="22.727272727272727" y="47.27272727272727" fill="grey"></text><text font-size="9.090909090909092" text-anchor="middle" dy="-.2em" x="22.727272727272727" y="56.36363636363637" fill="grey"></text><text font-size="9.090909090909092" text-anchor="middle" dy="-.2em" x="22.727272727272727" y="65.45454545454545" fill="grey"></text><text font-size="9.090909090909092" text-anchor="middle" dy="-.2em" x="22.727272727272727" y="74.54545454545455" fill="grey"></text><text font-size="9.090909090909092" text-anchor="middle" dy="-.2em" x="22.727272727272727" y="83.63636363636363" fill="grey"></text><text font-size="9.090909090909092" text-anchor="middle" dy="-.2em" x="22.727272727272727" y="92.72727272727273" fill="grey"></text><text font-size="9.090909090909092" text-anchor="middle" dy="-.2em" x="22.727272727272727" y="101.81818181818181" fill="grey"></text><text font-size="9.090909090909092" text-anchor="middle" dy="-.2em" x="22.727272727272727" y="110.9090909090909" fill="grey">X</text><text font-size="9.090909090909092" text-anchor="middle" dy="-.2em" x="22.727272727272727" y="120.0" fill="grey"></text><text font-size="9.090909090909092" text-anchor="middle" dy="-.2em" x="31.818181818181817" y="29.090909090909093" fill="grey"></text><text font-size="9.090909090909092" text-anchor="middle" dy="-.2em" x="31.818181818181817" y="38.18181818181819" fill="grey">X</text><text font-size="9.090909090909092" text-anchor="middle" dy="-.2em" x="31.818181818181817" y="47.27272727272727" fill="grey"></text><text font-size="9.090909090909092" text-anchor="middle" dy="-.2em" x="31.818181818181817" y="56.36363636363637" fill="grey"></text><text font-size="9.090909090909092" text-anchor="middle" dy="-.2em" x="31.818181818181817" y="65.45454545454545" fill="grey"></text><text font-size="9.090909090909092" text-anchor="middle" dy="-.2em" x="31.818181818181817" y="74.54545454545455" fill="grey">X</text><text font-size="9.090909090909092" text-anchor="middle" dy="-.2em" x="31.818181818181817" y="83.63636363636363" fill="grey"></text><text font-size="9.090909090909092" text-anchor="middle" dy="-.2em" x="31.818181818181817" y="92.72727272727273" fill="grey"></text><text font-size="9.090909090909092" text-anchor="middle" dy="-.2em" x="31.818181818181817" y="101.81818181818181" fill="grey"></text><text font-size="9.090909090909092" text-anchor="middle" dy="-.2em" x="31.818181818181817" y="110.9090909090909" fill="grey"></text><text font-size="9.090909090909092" text-anchor="middle" dy="-.2em" x="31.818181818181817" y="120.0" fill="grey">X</text><text font-size="9.090909090909092" text-anchor="middle" dy="-.2em" x="40.90909090909091" y="29.090909090909093" fill="grey"></text><text font-size="9.090909090909092" text-anchor="middle" dy="-.2em" x="40.90909090909091" y="38.18181818181819" fill="grey"></text><text font-size="9.090909090909092" text-anchor="middle" dy="-.2em" x="40.90909090909091" y="47.27272727272727" fill="grey"></text><text font-size="9.090909090909092" text-anchor="middle" dy="-.2em" x="40.90909090909091" y="56.36363636363637" fill="grey"></text><text font-size="9.090909090909092" text-anchor="middle" dy="-.2em" x="40.90909090909091" y="65.45454545454545" fill="grey"></text><text font-size="9.090909090909092" text-anchor="middle" dy="-.2em" x="40.90909090909091" y="74.54545454545455" fill="grey"></text><text font-size="9.090909090909092" text-anchor="middle" dy="-.2em" x="40.90909090909091" y="83.63636363636363" fill="grey"></text><text font-size="9.090909090909092" text-anchor="middle" dy="-.2em" x="40.90909090909091" y="92.72727272727273" fill="grey"></text><text font-size="9.090909090909092" text-anchor="middle" dy="-.2em" x="40.90909090909091" y="101.81818181818181" fill="grey"></text><text font-size="9.090909090909092" text-anchor="middle" dy="-.2em" x="40.90909090909091" y="110.9090909090909" fill="grey"></text><text font-size="9.090909090909092" text-anchor="middle" dy="-.2em" x="40.90909090909091" y="120.0" fill="grey"></text><text font-size="9.090909090909092" text-anchor="middle" dy="-.2em" x="50.0" y="29.090909090909093" fill="grey"></text><text font-size="9.090909090909092" text-anchor="middle" dy="-.2em" x="50.0" y="38.18181818181819" fill="grey">X</text><text font-size="9.090909090909092" text-anchor="middle" dy="-.2em" x="50.0" y="47.27272727272727" fill="grey"></text><text font-size="9.090909090909092" text-anchor="middle" dy="-.2em" x="50.0" y="56.36363636363637" fill="grey"></text><text font-size="9.090909090909092" text-anchor="middle" dy="-.2em" x="50.0" y="65.45454545454545" fill="grey"></text><text font-size="9.090909090909092" text-anchor="middle" dy="-.2em" x="50.0" y="74.54545454545455" fill="grey"></text><text font-size="9.090909090909092" text-anchor="middle" dy="-.2em" x="50.0" y="83.63636363636363" fill="grey"></text><text font-size="9.090909090909092" text-anchor="middle" dy="-.2em" x="50.0" y="92.72727272727273" fill="grey"></text><text font-size="9.090909090909092" text-anchor="middle" dy="-.2em" x="50.0" y="101.81818181818181" fill="grey"></text><text font-size="9.090909090909092" text-anchor="middle" dy="-.2em" x="50.0" y="110.9090909090909" fill="grey"></text><text font-size="9.090909090909092" text-anchor="middle" dy="-.2em" x="50.0" y="120.0" fill="grey"></text><text font-size="9.090909090909092" text-anchor="middle" dy="-.2em" x="59.09090909090909" y="29.090909090909093" fill="grey"></text><text font-size="9.090909090909092" text-anchor="middle" dy="-.2em" x="59.09090909090909" y="38.18181818181819" fill="grey"></text><text font-size="9.090909090909092" text-anchor="middle" dy="-.2em" x="59.09090909090909" y="47.27272727272727" fill="grey"></text><text font-size="9.090909090909092" text-anchor="middle" dy="-.2em" x="59.09090909090909" y="56.36363636363637" fill="grey"></text><text font-size="9.090909090909092" text-anchor="middle" dy="-.2em" x="59.09090909090909" y="65.45454545454545" fill="grey"></text><text font-size="9.090909090909092" text-anchor="middle" dy="-.2em" x="59.09090909090909" y="74.54545454545455" fill="grey"></text><text font-size="9.090909090909092" text-anchor="middle" dy="-.2em" x="59.09090909090909" y="83.63636363636363" fill="grey"></text><text font-size="9.090909090909092" text-anchor="middle" dy="-.2em" x="59.09090909090909" y="92.72727272727273" fill="grey"></text><text font-size="9.090909090909092" text-anchor="middle" dy="-.2em" x="59.09090909090909" y="101.81818181818181" fill="grey"></text><text font-size="9.090909090909092" text-anchor="middle" dy="-.2em" x="59.09090909090909" y="110.9090909090909" fill="grey"></text><text font-size="9.090909090909092" text-anchor="middle" dy="-.2em" x="59.09090909090909" y="120.0" fill="grey"></text><text font-size="9.090909090909092" text-anchor="middle" dy="-.2em" x="68.18181818181819" y="29.090909090909093" fill="grey"></text><text font-size="9.090909090909092" text-anchor="middle" dy="-.2em" x="68.18181818181819" y="38.18181818181819" fill="grey">X</text><text font-size="9.090909090909092" text-anchor="middle" dy="-.2em" x="68.18181818181819" y="47.27272727272727" fill="grey"></text><text font-size="9.090909090909092" text-anchor="middle" dy="-.2em" x="68.18181818181819" y="56.36363636363637" fill="grey"></text><text font-size="9.090909090909092" text-anchor="middle" dy="-.2em" x="68.18181818181819" y="65.45454545454545" fill="grey"></text><text font-size="9.090909090909092" text-anchor="middle" dy="-.2em" x="68.18181818181819" y="74.54545454545455" fill="grey"></text><text font-size="9.090909090909092" text-anchor="middle" dy="-.2em" x="68.18181818181819" y="83.63636363636363" fill="grey"></text><text font-size="9.090909090909092" text-anchor="middle" dy="-.2em" x="68.18181818181819" y="92.72727272727273" fill="grey"></text><text font-size="9.090909090909092" text-anchor="middle" dy="-.2em" x="68.18181818181819" y="101.81818181818181" fill="grey"></text><text font-size="9.090909090909092" text-anchor="middle" dy="-.2em" x="68.18181818181819" y="110.9090909090909" fill="grey"></text><text font-size="9.090909090909092" text-anchor="middle" dy="-.2em" x="68.18181818181819" y="120.0" fill="grey">X</text><text font-size="9.090909090909092" text-anchor="middle" dy="-.2em" x="77.27272727272727" y="29.090909090909093" fill="grey"></text><text font-size="9.090909090909092" text-anchor="middle" dy="-.2em" x="77.27272727272727" y="38.18181818181819" fill="grey"></text><text font-size="9.090909090909092" text-anchor="middle" dy="-.2em" x="77.27272727272727" y="47.27272727272727" fill="grey"></text><text font-size="9.090909090909092" text-anchor="middle" dy="-.2em" x="77.27272727272727" y="56.36363636363637" fill="grey"></text><text font-size="9.090909090909092" text-anchor="middle" dy="-.2em" x="77.27272727272727" y="65.45454545454545" fill="grey"></text><text font-size="9.090909090909092" text-anchor="middle" dy="-.2em" x="77.27272727272727" y="74.54545454545455" fill="grey"></text><text font-size="9.090909090909092" text-anchor="middle" dy="-.2em" x="77.27272727272727" y="83.63636363636363" fill="grey"></text><text font-size="9.090909090909092" text-anchor="middle" dy="-.2em" x="77.27272727272727" y="92.72727272727273" fill="grey"></text><text font-size="9.090909090909092" text-anchor="middle" dy="-.2em" x="77.27272727272727" y="101.81818181818181" fill="grey"></text><text font-size="9.090909090909092" text-anchor="middle" dy="-.2em" x="77.27272727272727" y="110.9090909090909" fill="grey"></text><text font-size="9.090909090909092" text-anchor="middle" dy="-.2em" x="77.27272727272727" y="120.0" fill="grey"></text><text font-size="9.090909090909092" text-anchor="middle" dy="-.2em" x="86.36363636363636" y="29.090909090909093" fill="grey"></text><text font-size="9.090909090909092" text-anchor="middle" dy="-.2em" x="86.36363636363636" y="38.18181818181819" fill="grey"></text><text font-size="9.090909090909092" text-anchor="middle" dy="-.2em" x="86.36363636363636" y="47.27272727272727" fill="grey"></text><text font-size="9.090909090909092" text-anchor="middle" dy="-.2em" x="86.36363636363636" y="56.36363636363637" fill="grey"></text><text font-size="9.090909090909092" text-anchor="middle" dy="-.2em" x="86.36363636363636" y="65.45454545454545" fill="grey"></text><text font-size="9.090909090909092" text-anchor="middle" dy="-.2em" x="86.36363636363636" y="74.54545454545455" fill="grey"></text><text font-size="9.090909090909092" text-anchor="middle" dy="-.2em" x="86.36363636363636" y="83.63636363636363" fill="grey"></text><text font-size="9.090909090909092" text-anchor="middle" dy="-.2em" x="86.36363636363636" y="92.72727272727273" fill="grey"></text><text font-size="9.090909090909092" text-anchor="middle" dy="-.2em" x="86.36363636363636" y="101.81818181818181" fill="grey"></text><text font-size="9.090909090909092" text-anchor="middle" dy="-.2em" x="86.36363636363636" y="110.9090909090909" fill="grey"></text><text font-size="9.090909090909092" text-anchor="middle" dy="-.2em" x="86.36363636363636" y="120.0" fill="grey"></text><text font-size="9.090909090909092" text-anchor="middle" dy="-.2em" x="95.45454545454545" y="29.090909090909093" fill="grey"></text><text font-size="9.090909090909092" text-anchor="middle" dy="-.2em" x="95.45454545454545" y="38.18181818181819" fill="grey"></text><text font-size="9.090909090909092" text-anchor="middle" dy="-.2em" x="95.45454545454545" y="47.27272727272727" fill="grey"></text><text font-size="9.090909090909092" text-anchor="middle" dy="-.2em" x="95.45454545454545" y="56.36363636363637" fill="grey"></text><text font-size="9.090909090909092" text-anchor="middle" dy="-.2em" x="95.45454545454545" y="65.45454545454545" fill="grey"></text><text font-size="9.090909090909092" text-anchor="middle" dy="-.2em" x="95.45454545454545" y="74.54545454545455" fill="grey"></text><text font-size="9.090909090909092" text-anchor="middle" dy="-.2em" x="95.45454545454545" y="83.63636363636363" fill="grey">X</text><text font-size="9.090909090909092" text-anchor="middle" dy="-.2em" x="95.45454545454545" y="92.72727272727273" fill="grey"></text><text font-size="9.090909090909092" text-anchor="middle" dy="-.2em" x="95.45454545454545" y="101.81818181818181" fill="grey"></text><text font-size="9.090909090909092" text-anchor="middle" dy="-.2em" x="95.45454545454545" y="110.9090909090909" fill="grey"></text><text font-size="9.090909090909092" text-anchor="middle" dy="-.2em" x="95.45454545454545" y="120.0" fill="grey"></text><rect x="0" y="0" width="50" height="20" stroke="black" fill="white"/><rect x="0" y="0" width="20" height="20" stroke="black" fill="white"/><text font-size="20" text-anchor="middle" dy="-.2em" x="35" y="20" fill="black">16</text><text font-size="20" text-anchor="middle" dy="-.2em" x="10" y="20" fill="black">A</text><rect x="50" y="0" width="50" height="20" stroke="black" fill="white"/><text font-size="20" text-anchor="middle" dy="-.2em" x="85" y="20" fill="black">15</text><path d="M55.0 16.0 L58.0 16.0 L58.0 13.0 L58.0 10.0 L55.0 10.0 L55.0 7.0 L55.0 4.0 L58.0 4.0 L58.0 7.0 L61.0 7.0 L61.0 4.0 L64.0 4.0 L64.0 7.0 L67.0 7.0 L67.0 4.0 L70.0 4.0 L70.0 7.0 L70.0 10.0 L67.0 10.0 L67.0 13.0 L67.0 16.0 L70.0 16.0" stroke="black" fill="none"/><path d="M1.2987012987012987 63.93939393939394 L2.5974025974025974 63.93939393939394 L2.5974025974025974 62.42424242424242 L2.5974025974025974 60.9090909090909 L1.2987012987012987 60.9090909090909 L1.2987012987012987 59.393939393939384 L1.2987012987012987 57.87878787878787 L2.5974025974025974 57.87878787878787 L2.5974025974025974 59.393939393939384 L3.8961038961038956 59.393939393939384 L3.8961038961038956 57.87878787878787 L5.194805194805195 57.87878787878787 L5.194805194805195 59.393939393939384 L6.493506493506493 59.393939393939384 L6.493506493506493 57.87878787878787 L7.79220779220779 57.87878787878787 L7.79220779220779 59.393939393939384 L7.79220779220779 60.9090909090909 L6.493506493506493 60.9090909090909 L6.493506493506493 62.42424242424242 L6.493506493506493 63.93939393939394 L7.79220779220779 63.93939393939394" stroke="black" fill="none"/><path d="M46.753246753246756 91.2121212121212 L48.05194805194806 91.2121212121212 L48.05194805194806 89.69696969696969 L48.05194805194806 88.18181818181817 L46.753246753246756 88.18181818181817 L46.753246753246756 86.66666666666666 L46.753246753246756 85.15151515151514 L48.05194805194806 85.15151515151514 L48.05194805194806 86.66666666666666 L49.35064935064936 86.66666666666666 L49.35064935064936 85.15151515151514 L50.649350649350666 85.15151515151514 L50.649350649350666 86.66666666666666 L51.94805194805197 86.66666666666666 L51.94805194805197 85.15151515151514 L53.246753246753265 85.15151515151514 L53.246753246753265 86.66666666666666 L53.246753246753265 88.18181818181817 L51.94805194805197 88.18181818181817 L51.94805194805197 89.69696969696969 L51.94805194805197 91.2121212121212 L53.246753246753265 91.2121212121212" stroke="black" fill="none"/><path d="M55.84415584415585 63.93939393939394 L57.14285714285715 63.93939393939394 L57.14285714285715 62.42424242424242 L57.14285714285715 60.9090909090909 L55.84415584415585 60.9090909090909 L55.84415584415585 59.393939393939384 L55.84415584415585 57.87878787878787 L57.14285714285715 57.87878787878787 L57.14285714285715 59.393939393939384 L58.441558441558456 59.393939393939384 L58.441558441558456 57.87878787878787 L59.74025974025976 57.87878787878787 L59.74025974025976 59.393939393939384 L61.03896103896106 59.393939393939384 L61.03896103896106 57.87878787878787 L62.33766233766235 57.87878787878787 L62.33766233766235 59.393939393939384 L62.33766233766235 60.9090909090909 L61.03896103896106 60.9090909090909 L61.03896103896106 62.42424242424242 L61.03896103896106 63.93939393939394 L62.33766233766235 63.93939393939394" stroke="black" fill="none"/><path d="M9.090909090909092 29.090909090909093 L9.090909090909092 38.18181818181819" stroke="black" fill="none"/><path d="M9.090909090909092 83.63636363636363 L9.090909090909092 92.72727272727273" stroke="black" fill="none"/><path d="M9.090909090909092 101.81818181818181 L9.090909090909092 110.9090909090909" stroke="black" fill="none"/><path d="M18.181818181818183 38.18181818181819 L18.181818181818183 47.27272727272727" stroke="black" fill="none"/><path d="M18.181818181818183 74.54545454545455 L18.181818181818183 83.63636363636363" stroke="black" fill="none"/><path d="M18.181818181818183 83.63636363636363 L18.181818181818183 92.72727272727273" stroke="black" fill="none"/><path d="M18.181818181818183 92.72727272727273 L18.181818181818183 101.81818181818181" stroke="black" fill="none"/><path d="M27.272727272727273 29.090909090909093 L27.272727272727273 38.18181818181819" stroke="black" fill="none"/><path d="M27.272727272727273 47.27272727272727 L27.272727272727273 56.36363636363637" stroke="black" fill="none"/><path d="M27.272727272727273 65.45454545454545 L27.272727272727273 74.54545454545455" stroke="black" fill="none"/><path d="M27.272727272727273 74.54545454545455 L27.272727272727273 83.63636363636363" stroke="black" fill="none"/><path d="M27.272727272727273 92.72727272727273 L27.272727272727273 101.81818181818181" stroke="black" fill="none"/><path d="M27.272727272727273 101.81818181818181 L27.272727272727273 110.9090909090909" stroke="black" fill="none"/><path d="M27.272727272727273 110.9090909090909 L27.272727272727273 120.0" stroke="black" fill="none"/><path d="M36.36363636363637 29.090909090909093 L36.36363636363637 38.18181818181819" stroke="black" fill="none"/><path d="M36.36363636363637 47.27272727272727 L36.36363636363637 56.36363636363637" stroke="black" fill="none"/><path d="M36.36363636363637 65.45454545454545 L36.36363636363637 74.54545454545455" stroke="black" fill="none"/><path d="M36.36363636363637 101.81818181818181 L36.36363636363637 110.9090909090909" stroke="black" fill="none"/><path d="M36.36363636363637 110.9090909090909 L36.36363636363637 120.0" stroke="black" fill="none"/><path d="M45.45454545454545 29.090909090909093 L45.45454545454545 38.18181818181819" stroke="black" fill="none"/><path d="M45.45454545454545 38.18181818181819 L45.45454545454545 47.27272727272727" stroke="black" fill="none"/><path d="M45.45454545454545 110.9090909090909 L45.45454545454545 120.0" stroke="black" fill="none"/><path d="M54.54545454545455 29.090909090909093 L54.54545454545455 38.18181818181819" stroke="black" fill="none"/><path d="M54.54545454545455 110.9090909090909 L54.54545454545455 120.0" stroke="black" fill="none"/><path d="M63.63636363636363 29.090909090909093 L63.63636363636363 38.18181818181819" stroke="black" fill="none"/><path d="M63.63636363636363 101.81818181818181 L63.63636363636363 110.9090909090909" stroke="black" fill="none"/><path d="M63.63636363636363 110.9090909090909 L63.63636363636363 120.0" stroke="black" fill="none"/><path d="M72.72727272727273 29.090909090909093 L72.72727272727273 38.18181818181819" stroke="black" fill="none"/><path d="M72.72727272727273 38.18181818181819 L72.72727272727273 47.27272727272727" stroke="black" fill="none"/><path d="M72.72727272727273 74.54545454545455 L72.72727272727273 83.63636363636363" stroke="black" fill="none"/><path d="M72.72727272727273 92.72727272727273 L72.72727272727273 101.81818181818181" stroke="black" fill="none"/><path d="M72.72727272727273 110.9090909090909 L72.72727272727273 120.0" stroke="black" fill="none"/><path d="M81.81818181818181 47.27272727272727 L81.81818181818181 56.36363636363637" stroke="black" fill="none"/><path d="M81.81818181818181 65.45454545454545 L81.81818181818181 74.54545454545455" stroke="black" fill="none"/><path d="M81.81818181818181 83.63636363636363 L81.81818181818181 92.72727272727273" stroke="black" fill="none"/><path d="M90.9090909090909 56.36363636363637 L90.9090909090909 65.45454545454545" stroke="black" fill="none"/><path d="M90.9090909090909 74.54545454545455 L90.9090909090909 83.63636363636363" stroke="black" fill="none"/><path d="M0.0 29.090909090909093 L9.090909090909092 29.090909090909093" stroke="black" fill="none"/><path d="M0.0 92.72727272727273 L9.090909090909092 92.72727272727273" stroke="black" fill="none"/><path d="M0.0 101.81818181818181 L9.090909090909092 101.81818181818181" stroke="black" fill="none"/><path d="M9.090909090909092 38.18181818181819 L18.181818181818183 38.18181818181819" stroke="black" fill="none"/><path d="M9.090909090909092 83.63636363636363 L18.181818181818183 83.63636363636363" stroke="black" fill="none"/><path d="M9.090909090909092 92.72727272727273 L18.181818181818183 92.72727272727273" stroke="black" fill="none"/><path d="M9.090909090909092 110.9090909090909 L18.181818181818183 110.9090909090909" stroke="black" fill="none"/><path d="M18.181818181818183 47.27272727272727 L27.272727272727273 47.27272727272727" stroke="black" fill="none"/><path d="M18.181818181818183 74.54545454545455 L27.272727272727273 74.54545454545455" stroke="black" fill="none"/><path d="M18.181818181818183 83.63636363636363 L27.272727272727273 83.63636363636363" stroke="black" fill="none"/><path d="M18.181818181818183 92.72727272727273 L27.272727272727273 92.72727272727273" stroke="black" fill="none"/><path d="M18.181818181818183 101.81818181818181 L27.272727272727273 101.81818181818181" stroke="black" fill="none"/><path d="M18.181818181818183 110.9090909090909 L27.272727272727273 110.9090909090909" stroke="black" fill="none"/><path d="M27.272727272727273 29.090909090909093 L36.36363636363637 29.090909090909093" stroke="black" fill="none"/><path d="M27.272727272727273 38.18181818181819 L36.36363636363637 38.18181818181819" stroke="black" fill="none"/><path d="M27.272727272727273 56.36363636363637 L36.36363636363637 56.36363636363637" stroke="black" fill="none"/><path d="M27.272727272727273 65.45454545454545 L36.36363636363637 65.45454545454545" stroke="black" fill="none"/><path d="M27.272727272727273 74.54545454545455 L36.36363636363637 74.54545454545455" stroke="black" fill="none"/><path d="M27.272727272727273 101.81818181818181 L36.36363636363637 101.81818181818181" stroke="black" fill="none"/><path d="M27.272727272727273 110.9090909090909 L36.36363636363637 110.9090909090909" stroke="black" fill="none"/><path d="M36.36363636363637 47.27272727272727 L45.45454545454545 47.27272727272727" stroke="black" fill="none"/><path d="M36.36363636363637 110.9090909090909 L45.45454545454545 110.9090909090909" stroke="black" fill="none"/><path d="M45.45454545454545 29.090909090909093 L54.54545454545455 29.090909090909093" stroke="black" fill="none"/><path d="M45.45454545454545 38.18181818181819 L54.54545454545455 38.18181818181819" stroke="black" fill="none"/><path d="M54.54545454545455 29.090909090909093 L63.63636363636363 29.090909090909093" stroke="black" fill="none"/><path d="M54.54545454545455 110.9090909090909 L63.63636363636363 110.9090909090909" stroke="black" fill="none"/><path d="M63.63636363636363 29.090909090909093 L72.72727272727273 29.090909090909093" stroke="black" fill="none"/><path d="M63.63636363636363 38.18181818181819 L72.72727272727273 38.18181818181819" stroke="black" fill="none"/><path d="M63.63636363636363 101.81818181818181 L72.72727272727273 101.81818181818181" stroke="black" fill="none"/><path d="M63.63636363636363 110.9090909090909 L72.72727272727273 110.9090909090909" stroke="black" fill="none"/><path d="M72.72727272727273 47.27272727272727 L81.81818181818181 47.27272727272727" stroke="black" fill="none"/><path d="M72.72727272727273 74.54545454545455 L81.81818181818181 74.54545454545455" stroke="black" fill="none"/><path d="M72.72727272727273 83.63636363636363 L81.81818181818181 83.63636363636363" stroke="black" fill="none"/><path d="M72.72727272727273 92.72727272727273 L81.81818181818181 92.72727272727273" stroke="black" fill="none"/><path d="M81.81818181818181 56.36363636363637 L90.9090909090909 56.36363636363637" stroke="black" fill="none"/><path d="M81.81818181818181 65.45454545454545 L90.9090909090909 65.45454545454545" stroke="black" fill="none"/><path d="M90.9090909090909 74.54545454545455 L100.0 74.54545454545455" stroke="black" fill="none"/><path d="M90.9090909090909 83.63636363636363 L100.0 83.63636363636363" stroke="black" fill="none"/></svg>
