<?xml version='1.0' encoding='ASCII'?>
<svg xmlns="http://www.w3.org/2000/svg" xmlns:xlink="http://www.w3.org/1999/xlink" width="100" height="120" viewBox="0 0 100 120">
                        <defs>
                        </defs>
                        <rect x="0" y="20" width="100" height="100" stroke="black" fill="white"/><path d="M0.0 20.0 L14.285714285714286 20.0 L14.285714285714286 34.285714285714285 L0.0 34.285714285714285" stroke="lightgray" fill="lightgrey"/><path d="M0.0 34.285714285714285 L14.285714285714286 34.285714285714285 L14.285714285714286 48.57142857142857 L0.0 48.57142857142857" stroke="lightgray" fill="lightgrey"/><path d="M0.0 48.57142857142857 L14.285714285714286 48.57142857142857 L14.285714285714286 62.857142857142854 L0.0 62.857142857142854" stroke="lightgray" fill="lightgrey"/><path d="M0.0 62.857142857142854 L14.285714285714286 62.857142857142854 L14.285714285714286 77.14285714285714 L0.0 77.14285714285714" stroke="lightgray" fill="lightgrey"/><path d="M0.0 77.14285714285714 L14.285714285714286 77.14285714285714 L14.285714285714286 91.42857142857143 L0.0 91.42857142857143" stroke="lightgray" fill="lightgrey"/><path d="M0.0 91.42857142857143 L14.285714285714286 91.42857142857143 L14.285714285714286 105.71428571428571 L0.0 105.71428571428571" stroke="lightgray" fill="lightgrey"/><path d="M0.0 105.71428571428571 L14.285714285714286 105.71428571428571 L14.285714285714286 120.0 L0.0 120.0" stroke="lightgray" fill="white"/><path d="M14.285714285714286 20.0 L28.571428571428573 20.0 L28.571428571428573 34.285714285714285 L14.285714285714286 34.285714285714285" stroke="lightgray" fill="lightgrey"/><path d="M14.285714285714286 34.285714285714285 L28.571428571428573 34.285714285714285 L28.571428571428573 48.57142857142857 L14.285714285714286 48.57142857142857" stroke="lightgray" fill="lightgrey"/><path d="M14.285714285714286 48.57142857142857 L28.571428571428573 48.57142857142857 L28.571428571428573 62.857142857142854 L14.285714285714286 62.857142857142854" stroke="lightgray" fill="lightgrey"/><path d="M14.285714285714286 62.857142857142854 L28.571428571428573 62.857142857142854 L28.571428571428573 77.14285714285714 L14.285714285714286 77.14285714285714" stroke="lightgray" fill="lightgrey"/><path d="M14.285714285714286 77.14285714285714 L28.571428571428573 77.14285714285714 L28.571428571428573 91.42857142857143 L14.285714285714286 91.42857142857143" stroke="lightgray" fill="lightgrey"/><path d="M14.285714285714286 91.42857142857143 L28.571428571428573 91.42857142857143 L28.571428571428573 105.71428571428571 L14.285714285714286 105.71428571428571" stroke="lightgray" fill="white"/><path d="M14.285714285714286 105.71428571428571 L28.571428571428573 105.71428571428571 L28.571428571428573 120.0 L14.285714285714286 120.0" stroke="lightgray" fill="white"/><path d="M28.571428571428573 20.0 L42.857142857142854 20.0 L42.857142857142854 34.285714285714285 L28.571428571428573 34.285714285714285" stroke="lightgray" fill="lightgrey"/><path d="M28.571428571428573 34.285714285714285 L42.857142857142854 34.285714285714285 L42.857142857142854 48.57142857142857 L28.571428571428573 48.57142857142857" stroke="lightgray" fill="lightgrey"/><path d="M28.571428571428573 48.57142857142857 L42.857142857142854 48.57142857142857 L42.857142857142854 62.857142857142854 L28.571428571428573 62.857142857142854" stroke="lightgray" fill="lightgrey"/><path d="M28.571428571428573 62.857142857142854 L42.857142857142854 62.857142857142854 L42.857142857142854 77.14285714285714 L28.571428571428573 77.14285714285714" stroke="lightgray" fill="lightgrey"/><path d="M28.571428571428573 77.14285714285714 L42.857142857142854 77.14285714285714 L42.857142857142854 91.42857142857143 L28.571428571428573 91.42857142857143" stroke="lightgray" fill="white"/><path d="M28.571428571428573 91.42857142857143 L42.857142857142854 91.42857142857143 L42.857142857142854 105.71428571428571 L28.571428571428573 105.71428571428571" stroke="lightgray" fill="white"/><path d="M28.571428571428573 105.71428571428571 L42.857142857142854 105.71428571428571 L42.857142857142854 120.0 L28.571428571428573 120.0" stroke="lightgray" fill="lightgreen"/><path d="M42.857142857142854 20.0 L57.142857142857146 20.0 L57.142857142857146 34.285714285714285 L42.857142857142854 34.285714285714285" stroke="lightgray" fill="lightgrey"/><path d="M42.857142857142854 34.285714285714285 L57.142857142857146 34.285714285714285 L57.142857142857146 48.57142857142857 L42.857142857142854 48.57142857142857" stroke="lightgray" fill="lightgrey"/><path d="M42.857142857142854 48.57142857142857 L57.142857142857146 48.57142857142857 L57.142857142857146 62.857142857142854 L42.857142857142854 62.857142857142854" stroke="lightgray" fill="lightgrey"/><path d="M42.857142857142854 62.857142857142854 L57.142857142857146 62.857142857142854 L57.142857142857146 77.14285714285714 L42.857142857142854 77.14285714285714" stroke="lightgray" fill="lightgrey"/><path d="M42.857142857142854 77.14285714285714 L57.142857142857146 77.14285714285714 L57.142857142857146 91.42857142857143 L42.857142857142854 91.42857142857143" stroke="lightgray" fill="orange"/><path d="M42.857142857142854 91.42857142857143 L57.142857142857146 91.42857142857143 L57.142857142857146 105.71428571428571 L42.857142857142854 105.71428571428571" stroke="lightgray" fill="white"/><path d="M42.857142857142854 105.71428571428571 L57.142857142857146 105.71428571428571 L57.142857142857146 120.0 L42.857142857142854 120.0" stroke="lightgray" fill="white"/><path d="M57.142857142857146 20.0 L71.42857142857143 20.0 L71.42857142857143 34.285714285714285 L57.142857142857146 34.285714285714285" stroke="lightgray" fill="lightgrey"/><path d="M57.142857142857146 34.285714285714285 L71.42857142857143 34.285714285714285 L71.42857142857143 48.57142857142857 L57.142857142857146 48.57142857142857" stroke="lightgray" fill="lightgrey"/><path d="M57.142857142857146 48.57142857142857 L71.42857142857143 48.57142857142857 L71.42857142857143 62.857142857142854 L57.142857142857146 62.857142857142854" stroke="lightgray" fill="lightgrey"/><path d="M57.142857142857146 62.857142857142854 L71.42857142857143 62.857142857142854 L71.42857142857143 77.14285714285714 L57.142857142857146 77.14285714285714" stroke="lightgray" fill="orange"/><path d="M57.142857142857146 77.14285714285714 L71.42857142857143 77.14285714285714 L71.42857142857143 91.42857142857143 L57.142857142857146 91.42857142857143" stroke="lightgray" fill="white"/><path d="M57.142857142857146 91.42857142857143 L71.42857142857143 91.42857142857143 L71.42857142857143 105.71428571428571 L57.142857142857146 105.71428571428571" stroke="lightgray" fill="white"/><path d="M57.142857142857146 105.71428571428571 L71.42857142857143 105.71428571428571 L71.42857142857143 120.0 L57.142857142857146 120.0" stroke="lightgray" fill="white"/><path d="M71.42857142857143 20.0 L85.71428571428571 20.0 L85.71428571428571 34.285714285714285 L71.42857142857143 34.285714285714285" stroke="lightgray" fill="white"/><path d="M71.42857142857143 34.285714285714285 L85.71428571428571 34.285714285714285 L85.71428571428571 48.57142857142857 L71.42857142857143 48.57142857142857" stroke="lightgray" fill="lightgrey"/><path d="M71.42857142857143 48.57142857142857 L85.71428571428571 48.57142857142857 L85.71428571428571 62.857142857142854 L71.42857142857143 62.857142857142854" stroke="lightgray" fill="lightgrey"/><path d="M71.42857142857143 62.857142857142854 L85.71428571428571 62.857142857142854 L85.71428571428571 77.14285714285714 L71.42857142857143 77.14285714285714" stroke="lightgray" fill="lightgrey"/><path d="M71.42857142857143 77.14285714285714 L85.71428571428571 77.14285714285714 L85.71428571428571 91.42857142857143 L71.42857142857143 91.42857142857143" stroke="lightgray" fill="white"/><path d="M71.42857142857143 91.42857142857143 L85.71428571428571 91.42857142857143 L85.71428571428571 105.71428571428571 L71.42857142857143 105.71428571428571" stroke="lightgray" fill="white"/><path d="M71.42857142857143 105.71428571428571 L85.71428571428571 105.71428571428571 L85.71428571428571 120.0 L71.42857142857143 120.0" stroke="lightgray" fill="white"/><path d="M85.71428571428571 20.0 L100.0 20.0 L100.0 34.285714285714285 L85.71428571428571 34.285714285714285" stroke="lightgray" fill="lightgrey"/><path d="M85.71428571428571 34.285714285714285 L100.0 34.285714285714285 L100.0 48.57142857142857 L85.71428571428571 48.57142857142857" stroke="lightgray" fill="lightgrey"/><path d="M85.71428571428571 48.57142857142857 L100.0 48.57142857142857 L100.0 62.857142857142854 L85.71428571428571 62.857142857142854" stroke="lightgray" fill="lightgrey"/><path d="M85.71428571428571 62.857142857142854 L100.0 62.857142857142854 L100.0 77.14285714285714 L85.71428571428571 77.14285714285714" stroke="lightgray" fill="lightgrey"/><path d="M85.71428571428571 77.14285714285714 L100.0 77.14285714285714 L100.0 91.42857142857143 L85.71428571428571 91.42857142857143" stroke="lightgray" fill="lightgrey"/><path d="M85.71428571428571 91.42857142857143 L100.0 91.42857142857143 L100.0 105.71428571428571 L85.71428571428571 105.71428571428571" stroke="lightgray" fill="white"/><path d="M85.71428571428571 105.71428571428571 L100.0 105.71428571428571 L100.0 120.0 L85.71428571428571 120.0" stroke="lightgray" fill="white"/><path d="M0.0 20.0 L100.0 20.0 L100.0 120.0 L0.0 120.0 L0.0 20.0" stroke="black" fill="none"/><text font-size="14.285714285714286" text-anchor="middle" dy="-.2em" x="7.142857142857143" y="34.285714285714285" fill="grey"></text><text font-size="14.285714285714286" text-anchor="middle" dy="-.2em" x="7.142857142857143" y="48.57142857142857" fill="grey"></text><text font-size="14.285714285714286" text-anchor="middle" dy="-.2em" x="7.142857142857143" y="62.857142857142854" fill="grey"></text><text font-size="14.285714285714286" text-anchor="middle" dy="-.2em" x="7.142857142857143" y="77.14285714285714" fill="grey"></text><text font-size="14.285714285714286" text-anchor="middle" dy="-.2em" x="7.142857142857143" y="91.42857142857143" fill="grey"></text><text font-size="14.285714285714286" text-anchor="middle" dy="-.2em" x="7.142857142857143" y="105.71428571428571" fill="grey"></text><text font-size="14.285714285714286" text-anchor="middle" dy="-.2em" x="7.142857142857143" y="120.0" fill="grey"></text><text font-size="14.285714285714286" text-anchor="middle" dy="-.2em" x="21.428571428571427" y="34.285714285714285" fill="grey"></text><text font-size="14.285714285714286" text-anchor="middle" dy="-.2em" x="21.428571428571427" y="48.57142857142857" fill="grey"></text><text font-size="14.285714285714286" text-anchor="middle" dy="-.2em" x="21.428571428571427" y="62.857142857142854" fill="grey"></text><text font-size="14.285714285714286" text-anchor="middle" dy="-.2em" x="21.428571428571427" y="77.14285714285714" fill="grey"></text><text font-size="14.285714285714286" text-anchor="middle" dy="-.2em" x="21.428571428571427" y="91.42857142857143" fill="grey"></text><text font-size="14.285714285714286" text-anchor="middle" dy="-.2em" x="21.428571428571427" y="105.71428571428571" fill="grey"></text><text font-size="14.285714285714286" text-anchor="middle" dy="-.2em" x="21.428571428571427" y="120.0" fill="grey"></text><text font-size="14.285714285714286" text-anchor="middle" dy="-.2em" x="35.714285714285715" y="34.285714285714285" fill="grey"></text><text font-size="14.285714285714286" text-anchor="middle" dy="-.2em" x="35.714285714285715" y="48.57142857142857" fill="grey"></text><text font-size="14.285714285714286" text-anchor="middle" dy="-.2em" x="35.714285714285715" y="62.857142857142854" fill="grey"></text><text font-size="14.285714285714286" text-anchor="middle" dy="-.2em" x="35.714285714285715" y="77.14285714285714" fill="grey"></text><text font-size="14.285714285714286" text-anchor="middle" dy="-.2em" x="35.714285714285715" y="91.42857142857143" fill="grey"></text><text font-size="14.285714285714286" text-anchor="middle" dy="-.2em" x="35.714285714285715" y="105.71428571428571" fill="grey"></text><text font-size="14.285714285714286" text-anchor="middle" dy="-.2em" x="35.714285714285715" y="120.0" fill="grey"></text><text font-size="14.285714285714286" text-anchor="middle" dy="-.2em" x="50.0" y="34.285714285714285" fill="grey"></text><text font-size="14.285714285714286" text-anchor="middle" dy="-.2em" x="50.0" y="48.57142857142857" fill="grey"></text><text font-size="14.285714285714286" text-anchor="middle" dy="-.2em" x="50.0" y="62.857142857142854" fill="grey"></text><text font-size="14.285714285714286" text-anchor="middle" dy="-.2em" x="50.0" y="77.14285714285714" fill="grey"></text><text font-size="14.285714285714286" text-anchor="middle" dy="-.2em" x="50.0" y="91.42857142857143" fill="grey">X</text><text font-size="14.285714285714286" text-anchor="middle" dy="-.2em" x="50.0" y="105.71428571428571" fill="grey"></text><text font-size="14.285714285714286" text-anchor="middle" dy="-.2em" x="50.0" y="120.0" fill="grey"></text><text font-size="14.285714285714286" text-anchor="middle" dy="-.2em" x="64.28571428571429" y="34.285714285714285" fill="grey"></text><text font-size="14.285714285714286" text-anchor="middle" dy="-.2em" x="64.28571428571429" y="48.57142857142857" fill="grey"></text><text font-size="14.285714285714286" text-anchor="middle" dy="-.2em" x="64.28571428571429" y="62.857142857142854" fill="grey"></text><text font-size="14.285714285714286" text-anchor="middle" dy="-.2em" x="64.28571428571429" y="77.14285714285714" fill="grey">X</text><text font-size="14.285714285714286" text-anchor="middle" dy="-.2em" x="64.28571428571429" y="91.42857142857143" fill="grey"></text><text font-size="14.285714285714286" text-anchor="middle" dy="-.2em" x="64.28571428571429" y="105.71428571428571" fill="grey"></text><text font-size="14.285714285714286" text-anchor="middle" dy="-.2em" x="64.28571428571429" y="120.0" fill="grey"></text><text font-size="14.285714285714286" text-anchor="middle" dy="-.2em" x="78.57142857142857" y="34.285714285714285" fill="grey"></text><text font-size="14.285714285714286" text-anchor="middle" dy="-.2em" x="78.57142857142857" y="48.57142857142857" fill="grey"></text><text font-size="14.285714285714286" text-anchor="middle" dy="-.2em" x="78.57142857142857" y="62.857142857142854" fill="grey"></text><text font-size="14.285714285714286" text-anchor="middle" dy="-.2em" x="78.57142857142857" y="77.14285714285714" fill="grey"></text><text font-size="14.285714285714286" text-anchor="middle" dy="-.2em" x="78.57142857142857" y="91.42857142857143" fill="grey"></text><text font-size="14.285714285714286" text-anchor="middle" dy="-.2em" x="78.57142857142857" y="105.71428571428571" fill="grey"></text><text font-size="14.285714285714286" text-anchor="middle" dy="-.2em" x="78.57142857142857" y="120.0" fill="grey"></text><text font-size="14.285714285714286" text-anchor="middle" dy="-.2em" x="92.85714285714286" y="34.285714285714285" fill="grey"></text><text font-size="14.285714285714286" text-anchor="middle" dy="-.2em" x="92.85714285714286" y="48.57142857142857" fill="grey"></text><text font-size="14.285714285714286" text-anchor="middle" dy="-.2em" x="92.85714285714286" y="62.857142857142854" fill="grey"></text><text font-size="14.285714285714286" text-anchor="middle" dy="-.2em" x="92.85714285714286" y="77.14285714285714" fill="grey"></text><text font-size="14.285714285714286" text-anchor="middle" dy="-.2em" x="92.85714285714286" y="91.42857142857143" fill="grey"></text><text font-size="14.285714285714286" text-anchor="middle" dy="-.2em" x="92.85714285714286" y="105.71428571428571" fill="grey"></text><text font-size="14.285714285714286" text-anchor="middle" dy="-.2em" x="92.85714285714286" y="120.0" fill="grey"></text><rect x="0" y="0" width="50" height="20" stroke="black" fill="white"/><rect x="0" y="0" width="20" height="20" stroke="black" fill="white"/><text font-size="20" text-anchor="middle" dy="-.2em" x="35" y="20" fill="black">7</text><text font-size="20" text-anchor="middle" dy="-.2em" x="10" y="20" fill="black">A</text><rect x="50" y="0" width="50" height="20" stroke="black" fill="white"/><text font-size="20" text-anchor="middle" dy="-.2em" x="85" y="20" fill="black">6</text><path d="M55.0 16.0 L58.0 16.0 L58.0 13.0 L58.0 10.0 L55.0 10.0 L55.0 7.0 L55.0 4.0 L58.0 4.0 L58.0 7.0 L61.0 7.0 L61.0 4.0 L64.0 4.0 L64.0 7.0 L67.0 7.0 L67.0 4.0 L70.0 4.0 L70.0 7.0 L70.0 10.0 L67.0 10.0 L67.0 13.0 L67.0 16.0 L70.0 16.0" stroke="black" fill="none"/><path d="M2.0408163265306123 74.76190476190476 L4.081632653061225 74.76190476190476 L4.081632653061225 72.38095238095238 L4.081632653061225 70.0 L2.0408163265306123 70.0 L2.0408163265306123 67.61904761904762 L2.0408163265306123 65.23809523809524 L4.081632653061225 65.23809523809524 L4.081632653061225 67.61904761904762 L6.122448979591836 67.61904761904762 L6.122448979591836 65.23809523809524 L8.16326530612245 65.23809523809524 L8.16326530612245 67.61904761904762 L10.20408163265306 67.61904761904762 L10.20408163265306 65.23809523809524 L12.244897959183671 65.23809523809524 L12.244897959183671 67.61904761904762 L12.244897959183671 70.0 L10.20408163265306 70.0 L10.20408163265306 72.38095238095238 L10.20408163265306 74.76190476190476 L12.244897959183671 74.76190476190476" stroke="black" fill="none"/><path d="M16.3265306122449 31.904761904761905 L18.36734693877551 31.904761904761905 L18.36734693877551 29.523809523809526 L18.36734693877551 27.142857142857146 L16.3265306122449 27.142857142857146 L16.3265306122449 24.761904761904766 L16.3265306122449 22.380952380952383 L18.36734693877551 22.380952380952383 L18.36734693877551 24.761904761904766 L20.40816326530612 24.761904761904766 L20.40816326530612 22.380952380952383 L22.44897959183673 22.380952380952383 L22.44897959183673 24.761904761904766 L24.489795918367342 24.761904761904766 L24.489795918367342 22.380952380952383 L26.530612244897952 22.380952380952383 L26.530612244897952 24.761904761904766 L26.530612244897952 27.142857142857146 L24.489795918367342 27.142857142857146 L24.489795918367342 29.523809523809526 L24.489795918367342 31.904761904761905 L26.530612244897952 31.904761904761905" stroke="black" fill="none"/><path d="M44.89795918367347 46.19047619047619 L46.93877551020408 46.19047619047619 L46.93877551020408 43.80952380952381 L46.93877551020408 41.42857142857143 L44.89795918367347 41.42857142857143 L44.89795918367347 39.047619047619044 L44.89795918367347 36.666666666666664 L46.93877551020408 36.666666666666664 L46.93877551020408 39.047619047619044 L48.97959183673469 39.047619047619044 L48.97959183673469 36.666666666666664 L51.0204081632653 36.666666666666664 L51.0204081632653 39.047619047619044 L53.06122448979591 39.047619047619044 L53.06122448979591 36.666666666666664 L55.10204081632652 36.666666666666664 L55.10204081632652 39.047619047619044 L55.10204081632652 41.42857142857143 L53.06122448979591 41.42857142857143 L53.06122448979591 43.80952380952381 L53.06122448979591 46.19047619047619 L55.10204081632652 46.19047619047619" stroke="red" fill="none"/><path d="M87.75510204081634 60.47619047619048 L89.79591836734696 60.47619047619048 L89.79591836734696 58.095238095238095 L89.79591836734696 55.71428571428572 L87.75510204081634 55.71428571428572 L87.75510204081634 53.33333333333334 L87.75510204081634 50.95238095238096 L89.79591836734696 50.95238095238096 L89.79591836734696 53.33333333333334 L91.83673469387757 53.33333333333334 L91.83673469387757 50.95238095238096 L93.87755102040819 50.95238095238096 L93.87755102040819 53.33333333333334 L95.91836734693881 53.33333333333334 L95.91836734693881 50.95238095238096 L97.95918367346941 50.95238095238096 L97.95918367346941 53.33333333333334 L97.95918367346941 55.71428571428572 L95.91836734693881 55.71428571428572 L95.91836734693881 58.095238095238095 L95.91836734693881 60.47619047619048 L97.95918367346941 60.47619047619048" stroke="black" fill="none"/><path d="M14.285714285714286 91.42857142857143 L14.285714285714286 105.71428571428571" stroke="black" fill="none"/><path d="M28.571428571428573 77.14285714285714 L28.571428571428573 91.42857142857143" stroke="black" fill="none"/><path d="M28.571428571428573 105.71428571428571 L28.571428571428573 120.0" stroke="black" fill="none"/><path d="M42.857142857142854 77.14285714285714 L42.857142857142854 91.42857142857143" stroke="black" fill="none"/><path d="M42.857142857142854 105.71428571428571 L42.857142857142854 120.0" stroke="black" fill="none"/><path d="M57.142857142857146 62.857142857142854 L57.142857142857146 77.14285714285714" stroke="black" fill="none"/><path d="M57.142857142857146 77.14285714285714 L57.142857142857146 91.42857142857143" stroke="black" fill="none"/><path d="M71.42857142857143 20.0 L71.42857142857143 34.285714285714285" stroke="black" fill="none"/><path d="M71.42857142857143 62.857142857142854 L71.42857142857143 77.14285714285714" stroke="black" fill="none"/><path d="M85.71428571428571 20.0 L85.71428571428571 34.285714285714285" stroke="black" fill="none"/><path d="M85.71428571428571 77.14285714285714 L85.71428571428571 91.42857142857143" stroke="black" fill="none"/><path d="M0.0 105.71428571428571 L14.285714285714286 105.71428571428571" stroke="black" fill="none"/><path d="M14.285714285714286 91.42857142857143 L28.571428571428573 91.42857142857143" stroke="black" fill="none"/><path d="M28.571428571428573 77.14285714285714 L42.857142857142854 77.14285714285714" stroke="black" fill="none"/><path d="M28.571428571428573 105.71428571428571 L42.857142857142854 105.71428571428571" stroke="black" fill="none"/><path d="M42.857142857142854 77.14285714285714 L57.142857142857146 77.14285714285714" stroke="black" fill="none"/><path d="M42.857142857142854 91.42857142857143 L57.142857142857146 91.42857142857143" stroke="black" fill="none"/><path d="M57.142857142857146 62.857142857142854 L71.42857142857143 62.857142857142854" stroke="black" fill="none"/><path d="M57.142857142857146 77.14285714285714 L71.42857142857143 77.14285714285714" stroke="black" fill="none"/><path d="M71.42857142857143 34.285714285714285 L85.71428571428571 34.285714285714285" stroke="black" fill="none"/><path d="M71.42857142857143 77.14285714285714 L85.71428571428571 77.14285714285714" stroke="black" fill="none"/><path d="M85.71428571428571 91.42857142857143 L100.0 91.42857142857143" stroke="black" fill="none"/></svg>
