<?xml version='1.0' encoding='ASCII'?>
<svg xmlns="http://www.w3.org/2000/svg" xmlns:xlink="http://www.w3.org/1999/xlink" width="100" height="120" viewBox="0 0 100 120">
                        <defs>
                        </defs>
                        <rect x="0" y="20" width="100" height="100" stroke="black" fill="white"/><path d="M0.0 20.0 L14.285714285714286 20.0 L14.285714285714286 34.285714285714285 L0.0 34.285714285714285" stroke="lightgray" fill="lightgrey"/><path d="M0.0 34.285714285714285 L14.285714285714286 34.285714285714285 L14.285714285714286 48.57142857142857 L0.0 48.57142857142857" stroke="lightgray" fill="lightgrey"/><path d="M0.0 48.57142857142857 L14.285714285714286 48.57142857142857 L14.285714285714286 62.857142857142854 L0.0 62.857142857142854" stroke="lightgray" fill="lightgrey"/><path d="M0.0 62.857142857142854 L14.285714285714286 62.857142857142854 L14.285714285714286 77.14285714285714 L0.0 77.14285714285714" stroke="lightgray" fill="lightgrey"/><path d="M0.0 77.14285714285714 L14.285714285714286 77.14285714285714 L14.285714285714286 91.42857142857143 L0.0 91.42857142857143" stroke="lightgray" fill="lightgrey"/><path d="M0.0 91.42857142857143 L14.285714285714286 91.42857142857143 L14.285714285714286 105.71428571428571 L0.0 105.71428571428571" stroke="lightgray" fill="lightgrey"/><path d="M0.0 105.71428571428571 L14.285714285714286 105.71428571428571 L14.285714285714286 120.0 L0.0 120.0" stroke="lightgray" fill="lightgrey"/><path d="M14.285714285714286 20.0 L28.571428571428573 20.0 L28.571428571428573 34.285714285714285 L14.285714285714286 34.285714285714285" stroke="lightgray" fill="lightgrey"/><path d="M14.285714285714286 34.285714285714285 L28.571428571428573 34.285714285714285 L28.571428571428573 48.57142857142857 L14.285714285714286 48.57142857142857" stroke="lightgray" fill="lightgrey"/><path d="M14.285714285714286 48.57142857142857 L28.571428571428573 48.57142857142857 L28.571428571428573 62.857142857142854 L14.285714285714286 62.857142857142854" stroke="lightgray" fill="lightgrey"/><path d="M14.285714285714286 62.857142857142854 L28.571428571428573 62.857142857142854 L28.571428571428573 77.14285714285714 L14.285714285714286 77.14285714285714" stroke="lightgray" fill="lightgrey"/><path d="M14.285714285714286 77.14285714285714 L28.571428571428573 77.14285714285714 L28.571428571428573 91.42857142857143 L14.285714285714286 91.42857142857143" stroke="lightgray" fill="lightgrey"/><path d="M14.285714285714286 91.42857142857143 L28.571428571428573 91.42857142857143 L28.571428571428573 105.71428571428571 L14.285714285714286 105.71428571428571" stroke="lightgray" fill="lightgrey"/><path d="M14.285714285714286 105.71428571428571 L28.571428571428573 105.71428571428571 L28.571428571428573 120.0 L14.285714285714286 120.0" stroke="lightgray" fill="lightgrey"/><path d="M28.571428571428573 20.0 L42.857142857142854 20.0 L42.857142857142854 34.285714285714285 L28.571428571428573 34.285714285714285" stroke="lightgray" fill="lightgrey"/><path d="M28.571428571428573 34.285714285714285 L42.857142857142854 34.285714285714285 L42.857142857142854 48.57142857142857 L28.571428571428573 48.57142857142857" stroke="lightgray" fill="lightgrey"/><path d="M28.571428571428573 48.57142857142857 L42.857142857142854 48.57142857142857 L42.857142857142854 62.857142857142854 L28.571428571428573 62.857142857142854" stroke="lightgray" fill="lightgrey"/><path d="M28.571428571428573 62.857142857142854 L42.857142857142854 62.857142857142854 L42.857142857142854 77.14285714285714 L28.571428571428573 77.14285714285714" stroke="lightgray" fill="lightgrey"/><path d="M28.571428571428573 77.14285714285714 L42.857142857142854 77.14285714285714 L42.857142857142854 91.42857142857143 L28.571428571428573 91.42857142857143" stroke="lightgray" fill="lightgrey"/><path d="M28.571428571428573 91.42857142857143 L42.857142857142854 91.42857142857143 L42.857142857142854 105.71428571428571 L28.571428571428573 105.71428571428571" stroke="lightgray" fill="lightgrey"/><path d="M28.571428571428573 105.71428571428571 L42.857142857142854 105.71428571428571 L42.857142857142854 120.0 L28.571428571428573 120.0" stroke="lightgray" fill="lightgrey"/><path d="M42.857142857142854 20.0 L57.142857142857146 20.0 L57.142857142857146 34.285714285714285 L42.857142857142854 34.285714285714285" stroke="lightgray" fill="lightgrey"/><path d="M42.857142857142854 34.285714285714285 L57.142857142857146 34.285714285714285 L57.142857142857146 48.57142857142857 L42.857142857142854 48.57142857142857" stroke="lightgray" fill="lightgrey"/><path d="M42.857142857142854 48.57142857142857 L57.142857142857146 48.57142857142857 L57.142857142857146 62.857142857142854 L42.857142857142854 62.857142857142854" stroke="lightgray" fill="lightgrey"/><path d="M42.857142857142854 62.857142857142854 L57.142857142857146 62.857142857142854 L57.142857142857146 77.14285714285714 L42.857142857142854 77.14285714285714" stroke="lightgray" fill="lightgrey"/><path d="M42.857142857142854 77.14285714285714 L57.142857142857146 77.14285714285714 L57.142857142857146 91.42857142857143 L42.857142857142854 91.42857142857143" stroke="lightgray" fill="lightgrey"/><path d="M42.857142857142854 91.42857142857143 L57.142857142857146 91.42857142857143 L57.142857142857146 105.71428571428571 L42.857142857142854 105.71428571428571" stroke="lightgray" fill="lightgrey"/><path d="M42.857142857142854 105.71428571428571 L57.142857142857146 105.71428571428571 L57.142857142857146 120.0 L42.857142857142854 120.0" stroke="lightgray" fill="lightgrey"/><path d="M57.142857142857146 20.0 L71.42857142857143 20.0 L71.42857142857143 34.285714285714285 L57.142857142857146 34.285714285714285" stroke="lightgray" fill="lightgrey"/><path d="M57.142857142857146 34.285714285714285 L71.42857142857143 34.285714285714285 L71.42857142857143 48.57142857142857 L57.142857142857146 48.57142857142857" stroke="lightgray" fill="lightgrey"/><path d="M57.142857142857146 48.57142857142857 L71.42857142857143 48.57142857142857 L71.42857142857143 62.857142857142854 L57.142857142857146 62.857142857142854" stroke="lightgray" fill="lightgrey"/><path d="M57.142857142857146 62.857142857142854 L71.42857142857143 62.857142857142854 L71.42857142857143 77.14285714285714 L57.142857142857146 77.14285714285714" stroke="lightgray" fill="lightgrey"/><path d="M57.142857142857146 77.14285714285714 L71.42857142857143 77.14285714285714 L71.42857142857143 91.42857142857143 L57.142857142857146 91.42857142857143" stroke="lightgray" fill="lightgrey"/><path d="M57.142857142857146 91.42857142857143 L71.42857142857143 91.42857142857143 L71.42857142857143 105.71428571428571 L57.142857142857146 105.71428571428571" stroke="lightgray" fill="lightgrey"/><path d="M57.142857142857146 105.71428571428571 L71.42857142857143 105.71428571428571 L71.42857142857143 120.0 L57.142857142857146 120.0" stroke="lightgray" fill="lightgrey"/><path d="M71.42857142857143 20.0 L85.71428571428571 20.0 L85.71428571428571 34.285714285714285 L71.42857142857143 34.285714285714285" stroke="lightgray" fill="lightgrey"/><path d="M71.42857142857143 34.285714285714285 L85.71428571428571 34.285714285714285 L85.71428571428571 48.57142857142857 L71.42857142857143 48.57142857142857" stroke="lightgray" fill="lightgrey"/><path d="M71.42857142857143 48.57142857142857 L85.71428571428571 48.57142857142857 L85.71428571428571 62.857142857142854 L71.42857142857143 62.857142857142854" stroke="lightgray" fill="lightgrey"/><path d="M71.42857142857143 62.857142857142854 L85.71428571428571 62.857142857142854 L85.71428571428571 77.14285714285714 L71.42857142857143 77.14285714285714" stroke="lightgray" fill="lightgrey"/><path d="M71.42857142857143 77.14285714285714 L85.71428571428571 77.14285714285714 L85.71428571428571 91.42857142857143 L71.42857142857143 91.42857142857143" stroke="lightgray" fill="lightgrey"/><path d="M71.42857142857143 91.42857142857143 L85.71428571428571 91.42857142857143 L85.71428571428571 105.71428571428571 L71.42857142857143 105.71428571428571" stroke="lightgray" fill="lightgrey"/><path d="M71.42857142857143 105.71428571428571 L85.71428571428571 105.71428571428571 L85.71428571428571 120.0 L71.42857142857143 120.0" stroke="lightgray" fill="lightgrey"/><path d="M85.71428571428571 20.0 L100.0 20.0 L100.0 34.285714285714285 L85.71428571428571 34.285714285714285" stroke="lightgray" fill="lightgrey"/><path d="M85.71428571428571 34.285714285714285 L100.0 34.285714285714285 L100.0 48.57142857142857 L85.71428571428571 48.57142857142857" stroke="lightgray" fill="lightgrey"/><path d="M85.71428571428571 48.57142857142857 L100.0 48.57142857142857 L100.0 62.857142857142854 L85.71428571428571 62.857142857142854" stroke="lightgray" fill="lightgrey"/><path d="M85.71428571428571 62.857142857142854 L100.0 62.857142857142854 L100.0 77.14285714285714 L85.71428571428571 77.14285714285714" stroke="lightgray" fill="lightgrey"/><path d="M85.71428571428571 77.14285714285714 L100.0 77.14285714285714 L100.0 91.42857142857143 L85.71428571428571 91.42857142857143" stroke="lightgray" fill="lightgrey"/><path d="M85.71428571428571 91.42857142857143 L100.0 91.42857142857143 L100.0 105.71428571428571 L85.71428571428571 105.71428571428571" stroke="lightgray" fill="lightgrey"/><path d="M85.71428571428571 105.71428571428571 L100.0 105.71428571428571 L100.0 120.0 L85.71428571428571 120.0" stroke="lightgray" fill="lightgrey"/><path d="M0.0 20.0 L100.0 20.0 L100.0 120.0 L0.0 120.0 L0.0 20.0" stroke="black" fill="none"/><text font-size="14.285714285714286" text-anchor="middle" dy="-.2em" x="7.142857142857143" y="34.285714285714285" fill="grey"></text><text font-size="14.285714285714286" text-anchor="middle" dy="-.2em" x="7.142857142857143" y="48.57142857142857" fill="grey"></text><text font-size="14.285714285714286" text-anchor="middle" dy="-.2em" x="7.142857142857143" y="62.857142857142854" fill="grey"></text><text font-size="14.285714285714286" text-anchor="middle" dy="-.2em" x="7.142857142857143" y="77.14285714285714" fill="grey"></text><text font-size="14.285714285714286" text-anchor="middle" dy="-.2em" x="7.142857142857143" y="91.42857142857143" fill="grey"></text><text font-size="14.285714285714286" text-anchor="middle" dy="-.2em" x="7.142857142857143" y="105.71428571428571" fill="grey"></text><text font-size="14.285714285714286" text-anchor="middle" dy="-.2em" x="7.142857142857143" y="120.0" fill="grey"></text><text font-size="14.285714285714286" text-anchor="middle" dy="-.2em" x="21.428571428571427" y="34.285714285714285" fill="grey"></text><text font-size="14.285714285714286" text-anchor="middle" dy="-.2em" x="21.428571428571427" y="48.57142857142857" fill="grey"></text><text font-size="14.285714285714286" text-anchor="middle" dy="-.2em" x="21.428571428571427" y="62.857142857142854" fill="grey"></text><text font-size="14.285714285714286" text-anchor="middle" dy="-.2em" x="21.428571428571427" y="77.14285714285714" fill="grey"></text><text font-size="14.285714285714286" text-anchor="middle" dy="-.2em" x="21.428571428571427" y="91.42857142857143" fill="grey"></text><text font-size="14.285714285714286" text-anchor="middle" dy="-.2em" x="21.428571428571427" y="105.71428571428571" fill="grey"></text><text font-size="14.285714285714286" text-anchor="middle" dy="-.2em" x="21.428571428571427" y="120.0" fill="grey"></text><text font-size="14.285714285714286" text-anchor="middle" dy="-.2em" x="35.714285714285715" y="34.285714285714285" fill="grey"></text><text font-size="14.285714285714286" text-anchor="middle" dy="-.2em" x="35.714285714285715" y="48.57142857142857" fill="grey"></text><text font-size="14.285714285714286" text-anchor="middle" dy="-.2em" x="35.714285714285715" y="62.857142857142854" fill="grey"></text><text font-size="14.285714285714286" text-anchor="middle" dy="-.2em" x="35.714285714285715" y="77.14285714285714" fill="grey"></text><text font-size="14.285714285714286" text-anchor="middle" dy="-.2em" x="35.714285714285715" y="91.42857142857143" fill="grey"></text><text font-size="14.285714285714286" text-anchor="middle" dy="-.2em" x="35.714285714285715" y="105.71428571428571" fill="grey"></text><text font-size="14.285714285714286" text-anchor="middle" dy="-.2em" x="35.714285714285715" y="120.0" fill="grey"></text><text font-size="14.285714285714286" text-anchor="middle" dy="-.2em" x="50.0" y="34.285714285714285" fill="grey"></text><text font-size="14.285714285714286" text-anchor="middle" dy="-.2em" x="50.0" y="48.57142857142857" fill="grey"></text><text font-size="14.285714285714286" text-anchor="middle" dy="-.2em" x="50.0" y="62.857142857142854" fill="grey"></text><text font-size="14.285714285714286" text-anchor="middle" dy="-.2em" x="50.0" y="77.14285714285714" fill="grey"></text><text font-size="14.285714285714286" text-anchor="middle" dy="-.2em" x="50.0" y="91.42857142857143" fill="grey"></text><text font-size="14.285714285714286" text-anchor="middle" dy="-.2em" x="50.0" y="105.71428571428571" fill="grey"></text><text font-size="14.285714285714286" text-anchor="middle" dy="-.2em" x="50.0" y="120.0" fill="grey"></text><text font-size="14.285714285714286" text-anchor="middle" dy="-.2em" x="64.28571428571429" y="34.285714285714285" fill="grey"></text><text font-size="14.285714285714286" text-anchor="middle" dy="-.2em" x="64.28571428571429" y="48.57142857142857" fill="grey"></text><text font-size="14.285714285714286" text-anchor="middle" dy="-.2em" x="64.28571428571429" y="62.857142857142854" fill="grey"></text><text font-size="14.285714285714286" text-anchor="middle" dy="-.2em" x="64.28571428571429" y="77.14285714285714" fill="grey"></text><text font-size="14.285714285714286" text-anchor="middle" dy="-.2em" x="64.28571428571429" y="91.42857142857143" fill="grey"></text><text font-size="14.285714285714286" text-anchor="middle" dy="-.2em" x="64.28571428571429" y="105.71428571428571" fill="grey"></text><text font-size="14.285714285714286" text-anchor="middle" dy="-.2em" x="64.28571428571429" y="120.0" fill="grey"></text><text font-size="14.285714285714286" text-anchor="middle" dy="-.2em" x="78.57142857142857" y="34.285714285714285" fill="grey"></text><text font-size="14.285714285714286" text-anchor="middle" dy="-.2em" x="78.57142857142857" y="48.57142857142857" fill="grey"></text><text font-size="14.285714285714286" text-anchor="middle" dy="-.2em" x="78.57142857142857" y="62.857142857142854" fill="grey"></text><text font-size="14.285714285714286" text-anchor="middle" dy="-.2em" x="78.57142857142857" y="77.14285714285714" fill="grey"></text><text font-size="14.285714285714286" text-anchor="middle" dy="-.2em" x="78.57142857142857" y="91.42857142857143" fill="grey"></text><text font-size="14.285714285714286" text-anchor="middle" dy="-.2em" x="78.57142857142857" y="105.71428571428571" fill="grey"></text><text font-size="14.285714285714286" text-anchor="middle" dy="-.2em" x="78.57142857142857" y="120.0" fill="grey"></text><text font-size="14.285714285714286" text-anchor="middle" dy="-.2em" x="92.85714285714286" y="34.285714285714285" fill="grey"></text><text font-size="14.285714285714286" text-anchor="middle" dy="-.2em" x="92.85714285714286" y="48.57142857142857" fill="grey"></text><text font-size="14.285714285714286" text-anchor="middle" dy="-.2em" x="92.85714285714286" y="62.857142857142854" fill="grey"></text><text font-size="14.285714285714286" text-anchor="middle" dy="-.2em" x="92.85714285714286" y="77.14285714285714" fill="grey"></text><text font-size="14.285714285714286" text-anchor="middle" dy="-.2em" x="92.85714285714286" y="91.42857142857143" fill="grey"></text><text font-size="14.285714285714286" text-anchor="middle" dy="-.2em" x="92.85714285714286" y="105.71428571428571" fill="grey"></text><text font-size="14.285714285714286" text-anchor="middle" dy="-.2em" x="92.85714285714286" y="120.0" fill="grey"></text><rect x="0" y="0" width="50" height="20" stroke="black" fill="white"/><rect x="0" y="0" width="20" height="20" stroke="black" fill="white"/><text font-size="20" text-anchor="middle" dy="-.2em" x="35" y="20" fill="black">0</text><rect x="50" y="0" width="50" height="20" stroke="black" fill="white"/><text font-size="20" text-anchor="middle" dy="-.2em" x="85" y="20" fill="black">0</text><path d="M55.0 16.0 L58.0 16.0 L58.0 13.0 L58.0 10.0 L55.0 10.0 L55.0 7.0 L55.0 4.0 L58.0 4.0 L58.0 7.0 L61.0 7.0 L61.0 4.0 L64.0 4.0 L64.0 7.0 L67.0 7.0 L67.0 4.0 L70.0 4.0 L70.0 7.0 L70.0 10.0 L67.0 10.0 L67.0 13.0 L67.0 16.0 L70.0 16.0" stroke="black" fill="none"/><path d="M2.0408163265306123 60.47619047619048 L4.081632653061225 60.47619047619048 L4.081632653061225 58.095238095238095 L4.081632653061225 55.71428571428572 L2.0408163265306123 55.71428571428572 L2.0408163265306123 53.33333333333334 L2.0408163265306123 50.95238095238096 L4.081632653061225 50.95238095238096 L4.081632653061225 53.33333333333334 L6.122448979591836 53.33333333333334 L6.122448979591836 50.95238095238096 L8.16326530612245 50.95238095238096 L8.16326530612245 53.33333333333334 L10.20408163265306 53.33333333333334 L10.20408163265306 50.95238095238096 L12.244897959183671 50.95238095238096 L12.244897959183671 53.33333333333334 L12.244897959183671 55.71428571428572 L10.20408163265306 55.71428571428572 L10.20408163265306 58.095238095238095 L10.20408163265306 60.47619047619048 L12.244897959183671 60.47619047619048" stroke="black" fill="none"/><path d="M2.0408163265306123 103.33333333333333 L4.081632653061225 103.33333333333333 L4.081632653061225 100.95238095238095 L4.081632653061225 98.57142857142856 L2.0408163265306123 98.57142857142856 L2.0408163265306123 96.19047619047618 L2.0408163265306123 93.80952380952378 L4.081632653061225 93.80952380952378 L4.081632653061225 96.19047619047618 L6.122448979591836 96.19047619047618 L6.122448979591836 93.80952380952378 L8.16326530612245 93.80952380952378 L8.16326530612245 96.19047619047618 L10.20408163265306 96.19047619047618 L10.20408163265306 93.80952380952378 L12.244897959183671 93.80952380952378 L12.244897959183671 96.19047619047618 L12.244897959183671 98.57142857142856 L10.20408163265306 98.57142857142856 L10.20408163265306 100.95238095238095 L10.20408163265306 103.33333333333333 L12.244897959183671 103.33333333333333" stroke="black" fill="none"/><path d="M16.3265306122449 31.904761904761905 L18.36734693877551 31.904761904761905 L18.36734693877551 29.523809523809526 L18.36734693877551 27.142857142857146 L16.3265306122449 27.142857142857146 L16.3265306122449 24.761904761904766 L16.3265306122449 22.380952380952383 L18.36734693877551 22.380952380952383 L18.36734693877551 24.761904761904766 L20.40816326530612 24.761904761904766 L20.40816326530612 22.380952380952383 L22.44897959183673 22.380952380952383 L22.44897959183673 24.761904761904766 L24.489795918367342 24.761904761904766 L24.489795918367342 22.380952380952383 L26.530612244897952 22.380952380952383 L26.530612244897952 24.761904761904766 L26.530612244897952 27.142857142857146 L24.489795918367342 27.142857142857146 L24.489795918367342 29.523809523809526 L24.489795918367342 31.904761904761905 L26.530612244897952 31.904761904761905" stroke="black" fill="none"/><path d="M30.612244897959183 74.76190476190476 L32.6530612244898 74.76190476190476 L32.6530612244898 72.38095238095238 L32.6530612244898 70.0 L30.612244897959183 70.0 L30.612244897959183 67.61904761904762 L30.612244897959183 65.23809523809524 L32.6530612244898 65.23809523809524 L32.6530612244898 67.61904761904762 L34.69387755102041 67.61904761904762 L34.69387755102041 65.23809523809524 L36.73469387755102 65.23809523809524 L36.73469387755102 67.61904761904762 L38.77551020408163 67.61904761904762 L38.77551020408163 65.23809523809524 L40.81632653061224 65.23809523809524 L40.81632653061224 67.61904761904762 L40.81632653061224 70.0 L38.77551020408163 70.0 L38.77551020408163 72.38095238095238 L38.77551020408163 74.76190476190476 L40.81632653061224 74.76190476190476" stroke="black" fill="none"/><path d="M30.612244897959183 117.6190476190476 L32.6530612244898 117.6190476190476 L32.6530612244898 115.23809523809523 L32.6530612244898 112.85714285714285 L30.612244897959183 112.85714285714285 L30.612244897959183 110.47619047619047 L30.612244897959183 108.09523809523807 L32.6530612244898 108.09523809523807 L32.6530612244898 110.47619047619047 L34.69387755102041 110.47619047619047 L34.69387755102041 108.09523809523807 L36.73469387755102 108.09523809523807 L36.73469387755102 110.47619047619047 L38.77551020408163 110.47619047619047 L38.77551020408163 108.09523809523807 L40.81632653061224 108.09523809523807 L40.81632653061224 110.47619047619047 L40.81632653061224 112.85714285714285 L38.77551020408163 112.85714285714285 L38.77551020408163 115.23809523809523 L38.77551020408163 117.6190476190476 L40.81632653061224 117.6190476190476" stroke="black" fill="none"/><path d="M44.89795918367347 46.19047619047619 L46.93877551020408 46.19047619047619 L46.93877551020408 43.80952380952381 L46.93877551020408 41.42857142857143 L44.89795918367347 41.42857142857143 L44.89795918367347 39.047619047619044 L44.89795918367347 36.666666666666664 L46.93877551020408 36.666666666666664 L46.93877551020408 39.047619047619044 L48.97959183673469 39.047619047619044 L48.97959183673469 36.666666666666664 L51.0204081632653 36.666666666666664 L51.0204081632653 39.047619047619044 L53.06122448979591 39.047619047619044 L53.06122448979591 36.666666666666664 L55.10204081632652 36.666666666666664 L55.10204081632652 39.047619047619044 L55.10204081632652 41.42857142857143 L53.06122448979591 41.42857142857143 L53.06122448979591 43.80952380952381 L53.06122448979591 46.19047619047619 L55.10204081632652 46.19047619047619" stroke="black" fill="none"/><path d="M59.18367346938776 89.04761904761905 L61.22448979591838 89.04761904761905 L61.22448979591838 86.66666666666666 L61.22448979591838 84.28571428571426 L59.18367346938776 84.28571428571426 L59.18367346938776 81.90476190476188 L59.18367346938776 79.5238095238095 L61.22448979591838 79.5238095238095 L61.22448979591838 81.90476190476188 L63.26530612244899 81.90476190476188 L63.26530612244899 79.5238095238095 L65.30612244897961 79.5238095238095 L65.30612244897961 81.90476190476188 L67.34693877551022 81.90476190476188 L67.34693877551022 79.5238095238095 L69.38775510204086 79.5238095238095 L69.38775510204086 81.90476190476188 L69.38775510204086 84.28571428571426 L67.34693877551022 84.28571428571426 L67.34693877551022 86.66666666666666 L67.34693877551022 89.04761904761905 L69.38775510204086 89.04761904761905" stroke="black" fill="none"/><path d="M73.46938775510205 31.904761904761905 L75.51020408163266 31.904761904761905 L75.51020408163266 29.523809523809526 L75.51020408163266 27.142857142857146 L73.46938775510205 27.142857142857146 L73.46938775510205 24.761904761904766 L73.46938775510205 22.380952380952383 L75.51020408163266 22.380952380952383 L75.51020408163266 24.761904761904766 L77.55102040816328 24.761904761904766 L77.55102040816328 22.380952380952383 L79.5918367346939 22.380952380952383 L79.5918367346939 24.761904761904766 L81.63265306122453 24.761904761904766 L81.63265306122453 22.380952380952383 L83.67346938775513 22.380952380952383 L83.67346938775513 24.761904761904766 L83.67346938775513 27.142857142857146 L81.63265306122453 27.142857142857146 L81.63265306122453 29.523809523809526 L81.63265306122453 31.904761904761905 L83.67346938775513 31.904761904761905" stroke="black" fill="none"/><path d="M87.75510204081634 60.47619047619048 L89.79591836734696 60.47619047619048 L89.79591836734696 58.095238095238095 L89.79591836734696 55.71428571428572 L87.75510204081634 55.71428571428572 L87.75510204081634 53.33333333333334 L87.75510204081634 50.95238095238096 L89.79591836734696 50.95238095238096 L89.79591836734696 53.33333333333334 L91.83673469387757 53.33333333333334 L91.83673469387757 50.95238095238096 L93.87755102040819 50.95238095238096 L93.87755102040819 53.33333333333334 L95.91836734693881 53.33333333333334 L95.91836734693881 50.95238095238096 L97.95918367346941 50.95238095238096 L97.95918367346941 53.33333333333334 L97.95918367346941 55.71428571428572 L95.91836734693881 55.71428571428572 L95.91836734693881 58.095238095238095 L95.91836734693881 60.47619047619048 L97.95918367346941 60.47619047619048" stroke="black" fill="none"/><path d="M87.75510204081634 117.6190476190476 L89.79591836734696 117.6190476190476 L89.79591836734696 115.23809523809523 L89.79591836734696 112.85714285714285 L87.75510204081634 112.85714285714285 L87.75510204081634 110.47619047619047 L87.75510204081634 108.09523809523807 L89.79591836734696 108.09523809523807 L89.79591836734696 110.47619047619047 L91.83673469387757 110.47619047619047 L91.83673469387757 108.09523809523807 L93.87755102040819 108.09523809523807 L93.87755102040819 110.47619047619047 L95.91836734693881 110.47619047619047 L95.91836734693881 108.09523809523807 L97.95918367346941 108.09523809523807 L97.95918367346941 110.47619047619047 L97.95918367346941 112.85714285714285 L95.91836734693881 112.85714285714285 L95.91836734693881 115.23809523809523 L95.91836734693881 117.6190476190476 L97.95918367346941 117.6190476190476" stroke="red" fill="none"/></svg>
