<?xml version='1.0' encoding='ASCII'?>
<svg xmlns="http://www.w3.org/2000/svg" xmlns:xlink="http://www.w3.org/1999/xlink" width="100" height="120" viewBox="0 0 100 120">
                        <defs>
                        </defs>
                        <rect x="0" y="20" width="100" height="100" stroke="black" fill="white"/><path d="M0.0 20.0 L14.285714285714286 20.0 L14.285714285714286 34.285714285714285 L0.0 34.285714285714285" stroke="lightgray" fill="lightgrey"/><path d="M0.0 34.285714285714285 L14.285714285714286 34.285714285714285 L14.285714285714286 48.57142857142857 L0.0 48.57142857142857" stroke="lightgray" fill="lightgrey"/><path d="M0.0 48.57142857142857 L14.285714285714286 48.57142857142857 L14.285714285714286 62.857142857142854 L0.0 62.857142857142854" stroke="lightgray" fill="lightgrey"/><path d="M0.0 62.857142857142854 L14.285714285714286 62.857142857142854 L14.285714285714286 77.14285714285714 L0.0 77.14285714285714" stroke="lightgray" fill="lightgrey"/><path d="M0.0 77.14285714285714 L14.285714285714286 77.14285714285714 L14.285714285714286 91.42857142857143 L0.0 91.42857142857143" stroke="lightgray" fill="lightgrey"/><path d="M0.0 91.42857142857143 L14.285714285714286 91.42857142857143 L14.285714285714286 105.71428571428571 L0.0 105.71428571428571" stroke="lightgray" fill="lightgrey"/><path d="M0.0 105.71428571428571 L14.285714285714286 105.71428571428571 L14.285714285714286 120.0 L0.0 120.0" stroke="lightgray" fill="lightgrey"/><path d="M14.285714285714286 20.0 L28.571428571428573 20.0 L28.571428571428573 34.285714285714285 L14.285714285714286 34.285714285714285" stroke="lightgray" fill="lightgrey"/><path d="M14.285714285714286 34.285714285714285 L28.571428571428573 34.285714285714285 L28.571428571428573 48.57142857142857 L14.285714285714286 48.57142857142857" stroke="lightgray" fill="lightgrey"/><path d="M14.285714285714286 48.57142857142857 L28.571428571428573 48.57142857142857 L28.571428571428573 62.857142857142854 L14.285714285714286 62.857142857142854" stroke="lightgray" fill="lightgrey"/><path d="M14.285714285714286 62.857142857142854 L28.571428571428573 62.857142857142854 L28.571428571428573 77.14285714285714 L14.285714285714286 77.14285714285714" stroke="lightgray" fill="lightgrey"/><path d="M14.285714285714286 77.14285714285714 L28.571428571428573 77.14285714285714 L28.571428571428573 91.42857142857143 L14.285714285714286 91.42857142857143" stroke="lightgray" fill="lightgrey"/><path d="M14.285714285714286 91.42857142857143 L28.571428571428573 91.42857142857143 L28.571428571428573 105.71428571428571 L14.285714285714286 105.71428571428571" stroke="lightgray" fill="lightgrey"/><path d="M14.285714285714286 105.71428571428571 L28.571428571428573 105.71428571428571 L28.571428571428573 120.0 L14.285714285714286 120.0" stroke="lightgray" fill="lightgrey"/><path d="M28.571428571428573 20.0 L42.857142857142854 20.0 L42.857142857142854 34.285714285714285 L28.571428571428573 34.285714285714285" stroke="lightgray" fill="lightgrey"/><path d="M28.571428571428573 34.285714285714285 L42.857142857142854 34.285714285714285 L42.857142857142854 48.57142857142857 L28.571428571428573 48.57142857142857" stroke="lightgray" fill="lightgrey"/><path d="M28.571428571428573 48.57142857142857 L42.857142857142854 48.57142857142857 L42.857142857142854 62.857142857142854 L28.571428571428573 62.857142857142854" stroke="lightgray" fill="lightgrey"/><path d="M28.571428571428573 62.857142857142854 L42.857142857142854 62.857142857142854 L42.857142857142854 77.14285714285714 L28.571428571428573 77.14285714285714" stroke="lightgray" fill="lightgrey"/><path d="M28.571428571428573 77.14285714285714 L42.857142857142854 77.14285714285714 L42.857142857142854 91.42857142857143 L28.571428571428573 91.42857142857143" stroke="lightgray" fill="lightgrey"/><path d="M28.571428571428573 91.42857142857143 L42.857142857142854 91.42857142857143 L42.857142857142854 105.71428571428571 L28.571428571428573 105.71428571428571" stroke="lightgray" fill="lightgrey"/><path d="M28.571428571428573 105.71428571428571 L42.857142857142854 105.71428571428571 L42.857142857142854 120.0 L28.571428571428573 120.0" stroke="lightgray" fill="lightgrey"/><path d="M42.857142857142854 20.0 L57.142857142857146 20.0 L57.142857142857146 34.285714285714285 L42.857142857142854 34.285714285714285" stroke="lightgray" fill="lightgrey"/><path d="M42.857142857142854 34.285714285714285 L57.142857142857146 34.285714285714285 L57.142857142857146 48.57142857142857 L42.857142857142854 48.57142857142857" stroke="lightgray" fill="lightgrey"/><path d="M42.857142857142854 48.57142857142857 L57.142857142857146 48.57142857142857 L57.142857142857146 62.857142857142854 L42.857142857142854 62.857142857142854" stroke="lightgray" fill="lightgrey"/><path d="M42.857142857142854 62.857142857142854 L57.142857142857146 62.857142857142854 L57.142857142857146 77.14285714285714 L42.857142857142854 77.14285714285714" stroke="lightgray" fill="lightgrey"/><path d="M42.857142857142854 77.14285714285714 L57.142857142857146 77.14285714285714 L57.142857142857146 91.42857142857143 L42.857142857142854 91.42857142857143" stroke="lightgray" fill="lightgrey"/><path d="M42.857142857142854 91.42857142857143 L57.142857142857146 91.42857142857143 L57.142857142857146 105.71428571428571 L42.857142857142854 105.71428571428571" stroke="lightgray" fill="lightgrey"/><path d="M42.857142857142854 105.71428571428571 L57.142857142857146 105.71428571428571 L57.142857142857146 120.0 L42.857142857142854 120.0" stroke="lightgray" fill="lightgrey"/><path d="M57.142857142857146 20.0 L71.42857142857143 20.0 L71.42857142857143 34.285714285714285 L57.142857142857146 34.285714285714285" stroke="lightgray" fill="lightgrey"/><path d="M57.142857142857146 34.285714285714285 L71.42857142857143 34.285714285714285 L71.42857142857143 48.57142857142857 L57.142857142857146 48.57142857142857" stroke="lightgray" fill="lightgrey"/><path d="M57.142857142857146 48.57142857142857 L71.42857142857143 48.57142857142857 L71.42857142857143 62.857142857142854 L57.142857142857146 62.857142857142854" stroke="lightgray" fill="lightgrey"/><path d="M57.142857142857146 62.857142857142854 L71.42857142857143 62.857142857142854 L71.42857142857143 77.14285714285714 L57.142857142857146 77.14285714285714" stroke="lightgray" fill="lightgrey"/><path d="M57.142857142857146 77.14285714285714 L71.42857142857143 77.14285714285714 L71.42857142857143 91.42857142857143 L57.142857142857146 91.42857142857143" stroke="lightgray" fill="lightgrey"/><path d="M57.142857142857146 91.42857142857143 L71.42857142857143 91.42857142857143 L71.42857142857143 105.71428571428571 L57.142857142857146 105.71428571428571" stroke="lightgray" fill="lightgrey"/><path d="M57.142857142857146 105.71428571428571 L71.42857142857143 105.71428571428571 L71.42857142857143 120.0 L57.142857142857146 120.0" stroke="lightgray" fill="lightgrey"/><path d="M71.42857142857143 20.0 L85.71428571428571 20.0 L85.71428571428571 34.285714285714285 L71.42857142857143 34.285714285714285" stroke="lightgray" fill="lightgreen"/><path d="M71.42857142857143 34.285714285714285 L85.71428571428571 34.285714285714285 L85.71428571428571 48.57142857142857 L71.42857142857143 48.57142857142857" stroke="lightgray" fill="lightgrey"/><path d="M71.42857142857143 48.57142857142857 L85.71428571428571 48.57142857142857 L85.71428571428571 62.857142857142854 L71.42857142857143 62.857142857142854" stroke="lightgray" fill="lightgrey"/><path d="M71.42857142857143 62.857142857142854 L85.71428571428571 62.857142857142854 L85.71428571428571 77.14285714285714 L71.42857142857143 77.14285714285714" stroke="lightgray" fill="lightgrey"/><path d="M71.42857142857143 77.14285714285714 L85.71428571428571 77.14285714285714 L85.71428571428571 91.42857142857143 L71.42857142857143 91.42857142857143" stroke="lightgray" fill="lightgrey"/><path d="M71.42857142857143 91.42857142857143 L85.71428571428571 91.42857142857143 L85.71428571428571 105.71428571428571 L71.42857142857143 105.71428571428571" stroke="lightgray" fill="white"/><path d="M71.42857142857143 105.71428571428571 L85.71428571428571 105.71428571428571 L85.71428571428571 120.0 L71.42857142857143 120.0" stroke="lightgray" fill="white"/><path d="M85.71428571428571 20.0 L100.0 20.0 L100.0 34.285714285714285 L85.71428571428571 34.285714285714285" stroke="lightgray" fill="lightgreen"/><path d="M85.71428571428571 34.285714285714285 L100.0 34.285714285714285 L100.0 48.57142857142857 L85.71428571428571 48.57142857142857" stroke="lightgray" fill="lightgrey"/><path d="M85.71428571428571 48.57142857142857 L100.0 48.57142857142857 L100.0 62.857142857142854 L85.71428571428571 62.857142857142854" stroke="lightgray" fill="lightgrey"/><path d="M85.71428571428571 62.857142857142854 L100.0 62.857142857142854 L100.0 77.14285714285714 L85.71428571428571 77.14285714285714" stroke="lightgray" fill="lightgrey"/><path d="M85.71428571428571 77.14285714285714 L100.0 77.14285714285714 L100.0 91.42857142857143 L85.71428571428571 91.42857142857143" stroke="lightgray" fill="lightgrey"/><path d="M85.71428571428571 91.42857142857143 L100.0 91.42857142857143 L100.0 105.71428571428571 L85.71428571428571 105.71428571428571" stroke="lightgray" fill="lightgrey"/><path d="M85.71428571428571 105.71428571428571 L100.0 105.71428571428571 L100.0 120.0 L85.71428571428571 120.0" stroke="lightgray" fill="white"/><path d="M0.0 20.0 L100.0 20.0 L100.0 120.0 L0.0 120.0 L0.0 20.0" stroke="black" fill="none"/><text font-size="14.285714285714286" text-anchor="middle" dy="-.2em" x="7.142857142857143" y="34.285714285714285" fill="grey"></text><text font-size="14.285714285714286" text-anchor="middle" dy="-.2em" x="7.142857142857143" y="48.57142857142857" fill="grey"></text><text font-size="14.285714285714286" text-anchor="middle" dy="-.2em" x="7.142857142857143" y="62.857142857142854" fill="grey"></text><text font-size="14.285714285714286" text-anchor="middle" dy="-.2em" x="7.142857142857143" y="77.14285714285714" fill="grey"></text><text font-size="14.285714285714286" text-anchor="middle" dy="-.2em" x="7.142857142857143" y="91.42857142857143" fill="grey"></text><text font-size="14.285714285714286" text-anchor="middle" dy="-.2em" x="7.142857142857143" y="105.71428571428571" fill="grey"></text><text font-size="14.285714285714286" text-anchor="middle" dy="-.2em" x="7.142857142857143" y="120.0" fill="grey"></text><text font-size="14.285714285714286" text-anchor="middle" dy="-.2em" x="21.428571428571427" y="34.285714285714285" fill="grey"></text><text font-size="14.285714285714286" text-anchor="middle" dy="-.2em" x="21.428571428571427" y="48.57142857142857" fill="grey"></text><text font-size="14.285714285714286" text-anchor="middle" dy="-.2em" x="21.428571428571427" y="62.857142857142854" fill="grey"></text><text font-size="14.285714285714286" text-anchor="middle" dy="-.2em" x="21.428571428571427" y="77.14285714285714" fill="grey"></text><text font-size="14.285714285714286" text-anchor="middle" dy="-.2em" x="21.428571428571427" y="91.42857142857143" fill="grey"></text><text font-size="14.285714285714286" text-anchor="middle" dy="-.2em" x="21.428571428571427" y="105.71428571428571" fill="grey"></text><text font-size="14.285714285714286" text-anchor="middle" dy="-.2em" x="21.428571428571427" y="120.0" fill="grey"></text><text font-size="14.285714285714286" text-anchor="middle" dy="-.2em" x="35.714285714285715" y="34.285714285714285" fill="grey"></text><text font-size="14.285714285714286" text-anchor="middle" dy="-.2em" x="35.714285714285715" y="48.57142857142857" fill="grey"></text><text font-size="14.285714285714286" text-anchor="middle" dy="-.2em" x="35.714285714285715" y="62.857142857142854" fill="grey"></text><text font-size="14.285714285714286" text-anchor="middle" dy="-.2em" x="35.714285714285715" y="77.14285714285714" fill="grey"></text><text font-size="14.285714285714286" text-anchor="middle" dy="-.2em" x="35.714285714285715" y="91.42857142857143" fill="grey"></text><text font-size="14.285714285714286" text-anchor="middle" dy="-.2em" x="35.714285714285715" y="105.71428571428571" fill="grey"></text><text font-size="14.285714285714286" text-anchor="middle" dy="-.2em" x="35.714285714285715" y="120.0" fill="grey"></text><text font-size="14.285714285714286" text-anchor="middle" dy="-.2em" x="50.0" y="34.285714285714285" fill="grey"></text><text font-size="14.285714285714286" text-anchor="middle" dy="-.2em" x="50.0" y="48.57142857142857" fill="grey"></text><text font-size="14.285714285714286" text-anchor="middle" dy="-.2em" x="50.0" y="62.857142857142854" fill="grey"></text><text font-size="14.285714285714286" text-anchor="middle" dy="-.2em" x="50.0" y="77.14285714285714" fill="grey"></text><text font-size="14.285714285714286" text-anchor="middle" dy="-.2em" x="50.0" y="91.42857142857143" fill="grey"></text><text font-size="14.285714285714286" text-anchor="middle" dy="-.2em" x="50.0" y="105.71428571428571" fill="grey"></text><text font-size="14.285714285714286" text-anchor="middle" dy="-.2em" x="50.0" y="120.0" fill="grey"></text><text font-size="14.285714285714286" text-anchor="middle" dy="-.2em" x="64.28571428571429" y="34.285714285714285" fill="grey"></text><text font-size="14.285714285714286" text-anchor="middle" dy="-.2em" x="64.28571428571429" y="48.57142857142857" fill="grey"></text><text font-size="14.285714285714286" text-anchor="middle" dy="-.2em" x="64.28571428571429" y="62.857142857142854" fill="grey"></text><text font-size="14.285714285714286" text-anchor="middle" dy="-.2em" x="64.28571428571429" y="77.14285714285714" fill="grey"></text><text font-size="14.285714285714286" text-anchor="middle" dy="-.2em" x="64.28571428571429" y="91.42857142857143" fill="grey"></text><text font-size="14.285714285714286" text-anchor="middle" dy="-.2em" x="64.28571428571429" y="105.71428571428571" fill="grey"></text><text font-size="14.285714285714286" text-anchor="middle" dy="-.2em" x="64.28571428571429" y="120.0" fill="grey"></text><text font-size="14.285714285714286" text-anchor="middle" dy="-.2em" x="78.57142857142857" y="34.285714285714285" fill="grey">1</text><text font-size="14.285714285714286" text-anchor="middle" dy="-.2em" x="78.57142857142857" y="48.57142857142857" fill="grey"></text><text font-size="14.285714285714286" text-anchor="middle" dy="-.2em" x="78.57142857142857" y="62.857142857142854" fill="grey"></text><text font-size="14.285714285714286" text-anchor="middle" dy="-.2em" x="78.57142857142857" y="77.14285714285714" fill="grey"></text><text font-size="14.285714285714286" text-anchor="middle" dy="-.2em" x="78.57142857142857" y="91.42857142857143" fill="grey"></text><text font-size="14.285714285714286" text-anchor="middle" dy="-.2em" x="78.57142857142857" y="105.71428571428571" fill="grey">2</text><text font-size="14.285714285714286" text-anchor="middle" dy="-.2em" x="78.57142857142857" y="120.0" fill="grey">2</text><text font-size="14.285714285714286" text-anchor="middle" dy="-.2em" x="92.85714285714286" y="34.285714285714285" fill="grey">1</text><text font-size="14.285714285714286" text-anchor="middle" dy="-.2em" x="92.85714285714286" y="48.57142857142857" fill="grey"></text><text font-size="14.285714285714286" text-anchor="middle" dy="-.2em" x="92.85714285714286" y="62.857142857142854" fill="grey"></text><text font-size="14.285714285714286" text-anchor="middle" dy="-.2em" x="92.85714285714286" y="77.14285714285714" fill="grey"></text><text font-size="14.285714285714286" text-anchor="middle" dy="-.2em" x="92.85714285714286" y="91.42857142857143" fill="grey"></text><text font-size="14.285714285714286" text-anchor="middle" dy="-.2em" x="92.85714285714286" y="105.71428571428571" fill="grey"></text><text font-size="14.285714285714286" text-anchor="middle" dy="-.2em" x="92.85714285714286" y="120.0" fill="grey">2</text><rect x="0" y="0" width="50" height="20" stroke="black" fill="white"/><rect x="0" y="0" width="20" height="20" stroke="black" fill="white"/><text font-size="20" text-anchor="middle" dy="-.2em" x="35" y="20" fill="black">2</text><text font-size="20" text-anchor="middle" dy="-.2em" x="10" y="20" fill="black">S</text><rect x="50" y="0" width="50" height="20" stroke="black" fill="white"/><text font-size="20" text-anchor="middle" dy="-.2em" x="85" y="20" fill="black">2</text><path d="M55.0 16.0 L58.0 16.0 L58.0 13.0 L58.0 10.0 L55.0 10.0 L55.0 7.0 L55.0 4.0 L58.0 4.0 L58.0 7.0 L61.0 7.0 L61.0 4.0 L64.0 4.0 L64.0 7.0 L67.0 7.0 L67.0 4.0 L70.0 4.0 L70.0 7.0 L70.0 10.0 L67.0 10.0 L67.0 13.0 L67.0 16.0 L70.0 16.0" stroke="black" fill="none"/><path d="M2.0408163265306123 31.904761904761905 L4.081632653061225 31.904761904761905 L4.081632653061225 29.523809523809526 L4.081632653061225 27.142857142857146 L2.0408163265306123 27.142857142857146 L2.0408163265306123 24.761904761904766 L2.0408163265306123 22.380952380952383 L4.081632653061225 22.380952380952383 L4.081632653061225 24.761904761904766 L6.122448979591836 24.761904761904766 L6.122448979591836 22.380952380952383 L8.16326530612245 22.380952380952383 L8.16326530612245 24.761904761904766 L10.20408163265306 24.761904761904766 L10.20408163265306 22.380952380952383 L12.244897959183671 22.380952380952383 L12.244897959183671 24.761904761904766 L12.244897959183671 27.142857142857146 L10.20408163265306 27.142857142857146 L10.20408163265306 29.523809523809526 L10.20408163265306 31.904761904761905 L12.244897959183671 31.904761904761905" stroke="black" fill="none"/><path d="M2.0408163265306123 103.33333333333333 L4.081632653061225 103.33333333333333 L4.081632653061225 100.95238095238095 L4.081632653061225 98.57142857142856 L2.0408163265306123 98.57142857142856 L2.0408163265306123 96.19047619047618 L2.0408163265306123 93.80952380952378 L4.081632653061225 93.80952380952378 L4.081632653061225 96.19047619047618 L6.122448979591836 96.19047619047618 L6.122448979591836 93.80952380952378 L8.16326530612245 93.80952380952378 L8.16326530612245 96.19047619047618 L10.20408163265306 96.19047619047618 L10.20408163265306 93.80952380952378 L12.244897959183671 93.80952380952378 L12.244897959183671 96.19047619047618 L12.244897959183671 98.57142857142856 L10.20408163265306 98.57142857142856 L10.20408163265306 100.95238095238095 L10.20408163265306 103.33333333333333 L12.244897959183671 103.33333333333333" stroke="black" fill="none"/><path d="M16.3265306122449 74.76190476190476 L18.36734693877551 74.76190476190476 L18.36734693877551 72.38095238095238 L18.36734693877551 70.0 L16.3265306122449 70.0 L16.3265306122449 67.61904761904762 L16.3265306122449 65.23809523809524 L18.36734693877551 65.23809523809524 L18.36734693877551 67.61904761904762 L20.40816326530612 67.61904761904762 L20.40816326530612 65.23809523809524 L22.44897959183673 65.23809523809524 L22.44897959183673 67.61904761904762 L24.489795918367342 67.61904761904762 L24.489795918367342 65.23809523809524 L26.530612244897952 65.23809523809524 L26.530612244897952 67.61904761904762 L26.530612244897952 70.0 L24.489795918367342 70.0 L24.489795918367342 72.38095238095238 L24.489795918367342 74.76190476190476 L26.530612244897952 74.76190476190476" stroke="black" fill="none"/><path d="M30.612244897959183 46.19047619047619 L32.6530612244898 46.19047619047619 L32.6530612244898 43.80952380952381 L32.6530612244898 41.42857142857143 L30.612244897959183 41.42857142857143 L30.612244897959183 39.047619047619044 L30.612244897959183 36.666666666666664 L32.6530612244898 36.666666666666664 L32.6530612244898 39.047619047619044 L34.69387755102041 39.047619047619044 L34.69387755102041 36.666666666666664 L36.73469387755102 36.666666666666664 L36.73469387755102 39.047619047619044 L38.77551020408163 39.047619047619044 L38.77551020408163 36.666666666666664 L40.81632653061224 36.666666666666664 L40.81632653061224 39.047619047619044 L40.81632653061224 41.42857142857143 L38.77551020408163 41.42857142857143 L38.77551020408163 43.80952380952381 L38.77551020408163 46.19047619047619 L40.81632653061224 46.19047619047619" stroke="black" fill="none"/><path d="M30.612244897959183 117.6190476190476 L32.6530612244898 117.6190476190476 L32.6530612244898 115.23809523809523 L32.6530612244898 112.85714285714285 L30.612244897959183 112.85714285714285 L30.612244897959183 110.47619047619047 L30.612244897959183 108.09523809523807 L32.6530612244898 108.09523809523807 L32.6530612244898 110.47619047619047 L34.69387755102041 110.47619047619047 L34.69387755102041 108.09523809523807 L36.73469387755102 108.09523809523807 L36.73469387755102 110.47619047619047 L38.77551020408163 110.47619047619047 L38.77551020408163 108.09523809523807 L40.81632653061224 108.09523809523807 L40.81632653061224 110.47619047619047 L40.81632653061224 112.85714285714285 L38.77551020408163 112.85714285714285 L38.77551020408163 115.23809523809523 L38.77551020408163 117.6190476190476 L40.81632653061224 117.6190476190476" stroke="black" fill="none"/><path d="M44.89795918367347 89.04761904761905 L46.93877551020408 89.04761904761905 L46.93877551020408 86.66666666666666 L46.93877551020408 84.28571428571426 L44.89795918367347 84.28571428571426 L44.89795918367347 81.90476190476188 L44.89795918367347 79.5238095238095 L46.93877551020408 79.5238095238095 L46.93877551020408 81.90476190476188 L48.97959183673469 81.90476190476188 L48.97959183673469 79.5238095238095 L51.0204081632653 79.5238095238095 L51.0204081632653 81.90476190476188 L53.06122448979591 81.90476190476188 L53.06122448979591 79.5238095238095 L55.10204081632652 79.5238095238095 L55.10204081632652 81.90476190476188 L55.10204081632652 84.28571428571426 L53.06122448979591 84.28571428571426 L53.06122448979591 86.66666666666666 L53.06122448979591 89.04761904761905 L55.10204081632652 89.04761904761905" stroke="black" fill="none"/><path d="M59.18367346938776 60.47619047619048 L61.22448979591838 60.47619047619048 L61.22448979591838 58.095238095238095 L61.22448979591838 55.71428571428572 L59.18367346938776 55.71428571428572 L59.18367346938776 53.33333333333334 L59.18367346938776 50.95238095238096 L61.22448979591838 50.95238095238096 L61.22448979591838 53.33333333333334 L63.26530612244899 53.33333333333334 L63.26530612244899 50.95238095238096 L65.30612244897961 50.95238095238096 L65.30612244897961 53.33333333333334 L67.34693877551022 53.33333333333334 L67.34693877551022 50.95238095238096 L69.38775510204086 50.95238095238096 L69.38775510204086 53.33333333333334 L69.38775510204086 55.71428571428572 L67.34693877551022 55.71428571428572 L67.34693877551022 58.095238095238095 L67.34693877551022 60.47619047619048 L69.38775510204086 60.47619047619048" stroke="black" fill="none"/><path d="M87.75510204081634 74.76190476190476 L89.79591836734696 74.76190476190476 L89.79591836734696 72.38095238095238 L89.79591836734696 70.0 L87.75510204081634 70.0 L87.75510204081634 67.61904761904762 L87.75510204081634 65.23809523809524 L89.79591836734696 65.23809523809524 L89.79591836734696 67.61904761904762 L91.83673469387757 67.61904761904762 L91.83673469387757 65.23809523809524 L93.87755102040819 65.23809523809524 L93.87755102040819 67.61904761904762 L95.91836734693881 67.61904761904762 L95.91836734693881 65.23809523809524 L97.95918367346941 65.23809523809524 L97.95918367346941 67.61904761904762 L97.95918367346941 70.0 L95.91836734693881 70.0 L95.91836734693881 72.38095238095238 L95.91836734693881 74.76190476190476 L97.95918367346941 74.76190476190476" stroke="red" fill="none"/><path d="M71.42857142857143 20.0 L71.42857142857143 34.285714285714285" stroke="black" fill="none"/><path d="M71.42857142857143 91.42857142857143 L71.42857142857143 105.71428571428571" stroke="black" fill="none"/><path d="M71.42857142857143 105.71428571428571 L71.42857142857143 120.0" stroke="black" fill="none"/><path d="M85.71428571428571 91.42857142857143 L85.71428571428571 105.71428571428571" stroke="black" fill="none"/><path d="M71.42857142857143 34.285714285714285 L85.71428571428571 34.285714285714285" stroke="black" fill="none"/><path d="M71.42857142857143 91.42857142857143 L85.71428571428571 91.42857142857143" stroke="black" fill="none"/><path d="M85.71428571428571 34.285714285714285 L100.0 34.285714285714285" stroke="black" fill="none"/><path d="M85.71428571428571 105.71428571428571 L100.0 105.71428571428571" stroke="black" fill="none"/></svg>
