<?xml version='1.0' encoding='ASCII'?>
<svg xmlns="http://www.w3.org/2000/svg" xmlns:xlink="http://www.w3.org/1999/xlink" width="100" height="120" viewBox="0 0 100 120">
                        <defs>
                        </defs>
                        <rect x="0" y="20" width="100" height="100" stroke="black" fill="white"/><path d="M0.0 20.0 L14.285714285714286 20.0 L14.285714285714286 34.285714285714285 L0.0 34.285714285714285" stroke="lightgray" fill="lightgrey"/><path d="M0.0 34.285714285714285 L14.285714285714286 34.285714285714285 L14.285714285714286 48.57142857142857 L0.0 48.57142857142857" stroke="lightgray" fill="lightgrey"/><path d="M0.0 48.57142857142857 L14.285714285714286 48.57142857142857 L14.285714285714286 62.857142857142854 L0.0 62.857142857142854" stroke="lightgray" fill="lightgrey"/><path d="M0.0 62.857142857142854 L14.285714285714286 62.857142857142854 L14.285714285714286 77.14285714285714 L0.0 77.14285714285714" stroke="lightgray" fill="lightgrey"/><path d="M0.0 77.14285714285714 L14.285714285714286 77.14285714285714 L14.285714285714286 91.42857142857143 L0.0 91.42857142857143" stroke="lightgray" fill="lightgrey"/><path d="M0.0 91.42857142857143 L14.285714285714286 91.42857142857143 L14.285714285714286 105.71428571428571 L0.0 105.71428571428571" stroke="lightgray" fill="lightgrey"/><path d="M0.0 105.71428571428571 L14.285714285714286 105.71428571428571 L14.285714285714286 120.0 L0.0 120.0" stroke="lightgray" fill="lightgrey"/><path d="M14.285714285714286 20.0 L28.571428571428573 20.0 L28.571428571428573 34.285714285714285 L14.285714285714286 34.285714285714285" stroke="lightgray" fill="lightgrey"/><path d="M14.285714285714286 34.285714285714285 L28.571428571428573 34.285714285714285 L28.571428571428573 48.57142857142857 L14.285714285714286 48.57142857142857" stroke="lightgray" fill="lightgrey"/><path d="M14.285714285714286 48.57142857142857 L28.571428571428573 48.57142857142857 L28.571428571428573 62.857142857142854 L14.285714285714286 62.857142857142854" stroke="lightgray" fill="lightgrey"/><path d="M14.285714285714286 62.857142857142854 L28.571428571428573 62.857142857142854 L28.571428571428573 77.14285714285714 L14.285714285714286 77.14285714285714" stroke="lightgray" fill="lightgrey"/><path d="M14.285714285714286 77.14285714285714 L28.571428571428573 77.14285714285714 L28.571428571428573 91.42857142857143 L14.285714285714286 91.42857142857143" stroke="lightgray" fill="lightgrey"/><path d="M14.285714285714286 91.42857142857143 L28.571428571428573 91.42857142857143 L28.571428571428573 105.71428571428571 L14.285714285714286 105.71428571428571" stroke="lightgray" fill="lightgrey"/><path d="M14.285714285714286 105.71428571428571 L28.571428571428573 105.71428571428571 L28.571428571428573 120.0 L14.285714285714286 120.0" stroke="lightgray" fill="lightgrey"/><path d="M28.571428571428573 20.0 L42.857142857142854 20.0 L42.857142857142854 34.285714285714285 L28.571428571428573 34.285714285714285" stroke="lightgray" fill="lightgrey"/><path d="M28.571428571428573 34.285714285714285 L42.857142857142854 34.285714285714285 L42.857142857142854 48.57142857142857 L28.571428571428573 48.57142857142857" stroke="lightgray" fill="lightgrey"/><path d="M28.571428571428573 48.57142857142857 L42.857142857142854 48.57142857142857 L42.857142857142854 62.857142857142854 L28.571428571428573 62.857142857142854" stroke="lightgray" fill="lightgrey"/><path d="M28.571428571428573 62.857142857142854 L42.857142857142854 62.857142857142854 L42.857142857142854 77.14285714285714 L28.571428571428573 77.14285714285714" stroke="lightgray" fill="lightgrey"/><path d="M28.571428571428573 77.14285714285714 L42.857142857142854 77.14285714285714 L42.857142857142854 91.42857142857143 L28.571428571428573 91.42857142857143" stroke="lightgray" fill="lightgrey"/><path d="M28.571428571428573 91.42857142857143 L42.857142857142854 91.42857142857143 L42.857142857142854 105.71428571428571 L28.571428571428573 105.71428571428571" stroke="lightgray" fill="lightgrey"/><path d="M28.571428571428573 105.71428571428571 L42.857142857142854 105.71428571428571 L42.857142857142854 120.0 L28.571428571428573 120.0" stroke="lightgray" fill="lightgrey"/><path d="M42.857142857142854 20.0 L57.142857142857146 20.0 L57.142857142857146 34.285714285714285 L42.857142857142854 34.285714285714285" stroke="lightgray" fill="lightgrey"/><path d="M42.857142857142854 34.285714285714285 L57.142857142857146 34.285714285714285 L57.142857142857146 48.57142857142857 L42.857142857142854 48.57142857142857" stroke="lightgray" fill="lightgrey"/><path d="M42.857142857142854 48.57142857142857 L57.142857142857146 48.57142857142857 L57.142857142857146 62.857142857142854 L42.857142857142854 62.857142857142854" stroke="lightgray" fill="lightgrey"/><path d="M42.857142857142854 62.857142857142854 L57.142857142857146 62.857142857142854 L57.142857142857146 77.14285714285714 L42.857142857142854 77.14285714285714" stroke="lightgray" fill="lightgrey"/><path d="M42.857142857142854 77.14285714285714 L57.142857142857146 77.14285714285714 L57.142857142857146 91.42857142857143 L42.857142857142854 91.42857142857143" stroke="lightgray" fill="lightgrey"/><path d="M42.857142857142854 91.42857142857143 L57.142857142857146 91.42857142857143 L57.142857142857146 105.71428571428571 L42.857142857142854 105.71428571428571" stroke="lightgray" fill="lightgrey"/><path d="M42.857142857142854 105.71428571428571 L57.142857142857146 105.71428571428571 L57.142857142857146 120.0 L42.857142857142854 120.0" stroke="lightgray" fill="white"/><path d="M57.142857142857146 20.0 L71.42857142857143 20.0 L71.42857142857143 34.285714285714285 L57.142857142857146 34.285714285714285" stroke="lightgray" fill="lightgrey"/><path d="M57.142857142857146 34.285714285714285 L71.42857142857143 34.285714285714285 L71.42857142857143 48.57142857142857 L57.142857142857146 48.57142857142857" stroke="lightgray" fill="lightgrey"/><path d="M57.142857142857146 48.57142857142857 L71.42857142857143 48.57142857142857 L71.42857142857143 62.857142857142854 L57.142857142857146 62.857142857142854" stroke="lightgray" fill="lightgrey"/><path d="M57.142857142857146 62.857142857142854 L71.42857142857143 62.857142857142854 L71.42857142857143 77.14285714285714 L57.142857142857146 77.14285714285714" stroke="lightgray" fill="lightgrey"/><path d="M57.142857142857146 77.14285714285714 L71.42857142857143 77.14285714285714 L71.42857142857143 91.42857142857143 L57.142857142857146 91.42857142857143" stroke="lightgray" fill="lightgrey"/><path d="M57.142857142857146 91.42857142857143 L71.42857142857143 91.42857142857143 L71.42857142857143 105.71428571428571 L57.142857142857146 105.71428571428571" stroke="lightgray" fill="lightgrey"/><path d="M57.142857142857146 105.71428571428571 L71.42857142857143 105.71428571428571 L71.42857142857143 120.0 L57.142857142857146 120.0" stroke="lightgray" fill="white"/><path d="M71.42857142857143 20.0 L85.71428571428571 20.0 L85.71428571428571 34.285714285714285 L71.42857142857143 34.285714285714285" stroke="lightgray" fill="lightgrey"/><path d="M71.42857142857143 34.285714285714285 L85.71428571428571 34.285714285714285 L85.71428571428571 48.57142857142857 L71.42857142857143 48.57142857142857" stroke="lightgray" fill="lightgrey"/><path d="M71.42857142857143 48.57142857142857 L85.71428571428571 48.57142857142857 L85.71428571428571 62.857142857142854 L71.42857142857143 62.857142857142854" stroke="lightgray" fill="lightgrey"/><path d="M71.42857142857143 62.857142857142854 L85.71428571428571 62.857142857142854 L85.71428571428571 77.14285714285714 L71.42857142857143 77.14285714285714" stroke="lightgray" fill="lightgrey"/><path d="M71.42857142857143 77.14285714285714 L85.71428571428571 77.14285714285714 L85.71428571428571 91.42857142857143 L71.42857142857143 91.42857142857143" stroke="lightgray" fill="lightgrey"/><path d="M71.42857142857143 91.42857142857143 L85.71428571428571 91.42857142857143 L85.71428571428571 105.71428571428571 L71.42857142857143 105.71428571428571" stroke="lightgray" fill="lightgrey"/><path d="M71.42857142857143 105.71428571428571 L85.71428571428571 105.71428571428571 L85.71428571428571 120.0 L71.42857142857143 120.0" stroke="lightgray" fill="lightgrey"/><path d="M85.71428571428571 20.0 L100.0 20.0 L100.0 34.285714285714285 L85.71428571428571 34.285714285714285" stroke="lightgray" fill="lightgrey"/><path d="M85.71428571428571 34.285714285714285 L100.0 34.285714285714285 L100.0 48.57142857142857 L85.71428571428571 48.57142857142857" stroke="lightgray" fill="lightgrey"/><path d="M85.71428571428571 48.57142857142857 L100.0 48.57142857142857 L100.0 62.857142857142854 L85.71428571428571 62.857142857142854" stroke="lightgray" fill="lightgrey"/><path d="M85.71428571428571 62.857142857142854 L100.0 62.857142857142854 L100.0 77.14285714285714 L85.71428571428571 77.14285714285714" stroke="lightgray" fill="lightgrey"/><path d="M85.71428571428571 77.14285714285714 L100.0 77.14285714285714 L100.0 91.42857142857143 L85.71428571428571 91.42857142857143" stroke="lightgray" fill="lightgrey"/><path d="M85.71428571428571 91.42857142857143 L100.0 91.42857142857143 L100.0 105.71428571428571 L85.71428571428571 105.71428571428571" stroke="lightgray" fill="lightgrey"/><path d="M85.71428571428571 105.71428571428571 L100.0 105.71428571428571 L100.0 120.0 L85.71428571428571 120.0" stroke="lightgray" fill="lightgrey"/><path d="M0.0 20.0 L100.0 20.0 L100.0 120.0 L0.0 120.0 L0.0 20.0" stroke="black" fill="none"/><rect x="0" y="0" width="50" height="20" stroke="black" fill="white"/><rect x="0" y="0" width="20" height="20" stroke="black" fill="white"/><text font-size="20" text-anchor="middle" dy="-.2em" x="35" y="20" fill="black">1</text><text font-size="20" text-anchor="middle" dy="-.2em" x="10" y="20" fill="black">S</text><rect x="50" y="0" width="50" height="20" stroke="black" fill="white"/><text font-size="20" text-anchor="middle" dy="-.2em" x="85" y="20" fill="black">1</text><path d="M55.0 16.0 L58.0 16.0 L58.0 13.0 L58.0 10.0 L55.0 10.0 L55.0 7.0 L55.0 4.0 L58.0 4.0 L58.0 7.0 L61.0 7.0 L61.0 4.0 L64.0 4.0 L64.0 7.0 L67.0 7.0 L67.0 4.0 L70.0 4.0 L70.0 7.0 L70.0 10.0 L67.0 10.0 L67.0 13.0 L67.0 16.0 L70.0 16.0" stroke="black" fill="none"/><path d="M2.0408163265306123 31.904761904761905 L4.081632653061225 31.904761904761905 L4.081632653061225 29.523809523809526 L4.081632653061225 27.142857142857146 L2.0408163265306123 27.142857142857146 L2.0408163265306123 24.761904761904766 L2.0408163265306123 22.380952380952383 L4.081632653061225 22.380952380952383 L4.081632653061225 24.761904761904766 L6.122448979591836 24.761904761904766 L6.122448979591836 22.380952380952383 L8.16326530612245 22.380952380952383 L8.16326530612245 24.761904761904766 L10.20408163265306 24.761904761904766 L10.20408163265306 22.380952380952383 L12.244897959183671 22.380952380952383 L12.244897959183671 24.761904761904766 L12.244897959183671 27.142857142857146 L10.20408163265306 27.142857142857146 L10.20408163265306 29.523809523809526 L10.20408163265306 31.904761904761905 L12.244897959183671 31.904761904761905" stroke="black" fill="none"/><path d="M2.0408163265306123 74.76190476190476 L4.081632653061225 74.76190476190476 L4.081632653061225 72.38095238095238 L4.081632653061225 70.0 L2.0408163265306123 70.0 L2.0408163265306123 67.61904761904762 L2.0408163265306123 65.23809523809524 L4.081632653061225 65.23809523809524 L4.081632653061225 67.61904761904762 L6.122448979591836 67.61904761904762 L6.122448979591836 65.23809523809524 L8.16326530612245 65.23809523809524 L8.16326530612245 67.61904761904762 L10.20408163265306 67.61904761904762 L10.20408163265306 65.23809523809524 L12.244897959183671 65.23809523809524 L12.244897959183671 67.61904761904762 L12.244897959183671 70.0 L10.20408163265306 70.0 L10.20408163265306 72.38095238095238 L10.20408163265306 74.76190476190476 L12.244897959183671 74.76190476190476" stroke="black" fill="none"/><path d="M2.0408163265306123 117.6190476190476 L4.081632653061225 117.6190476190476 L4.081632653061225 115.23809523809523 L4.081632653061225 112.85714285714285 L2.0408163265306123 112.85714285714285 L2.0408163265306123 110.47619047619047 L2.0408163265306123 108.09523809523807 L4.081632653061225 108.09523809523807 L4.081632653061225 110.47619047619047 L6.122448979591836 110.47619047619047 L6.122448979591836 108.09523809523807 L8.16326530612245 108.09523809523807 L8.16326530612245 110.47619047619047 L10.20408163265306 110.47619047619047 L10.20408163265306 108.09523809523807 L12.244897959183671 108.09523809523807 L12.244897959183671 110.47619047619047 L12.244897959183671 112.85714285714285 L10.20408163265306 112.85714285714285 L10.20408163265306 115.23809523809523 L10.20408163265306 117.6190476190476 L12.244897959183671 117.6190476190476" stroke="black" fill="none"/><path d="M30.612244897959183 46.19047619047619 L32.6530612244898 46.19047619047619 L32.6530612244898 43.80952380952381 L32.6530612244898 41.42857142857143 L30.612244897959183 41.42857142857143 L30.612244897959183 39.047619047619044 L30.612244897959183 36.666666666666664 L32.6530612244898 36.666666666666664 L32.6530612244898 39.047619047619044 L34.69387755102041 39.047619047619044 L34.69387755102041 36.666666666666664 L36.73469387755102 36.666666666666664 L36.73469387755102 39.047619047619044 L38.77551020408163 39.047619047619044 L38.77551020408163 36.666666666666664 L40.81632653061224 36.666666666666664 L40.81632653061224 39.047619047619044 L40.81632653061224 41.42857142857143 L38.77551020408163 41.42857142857143 L38.77551020408163 43.80952380952381 L38.77551020408163 46.19047619047619 L40.81632653061224 46.19047619047619" stroke="black" fill="none"/><path d="M30.612244897959183 89.04761904761905 L32.6530612244898 89.04761904761905 L32.6530612244898 86.66666666666666 L32.6530612244898 84.28571428571426 L30.612244897959183 84.28571428571426 L30.612244897959183 81.90476190476188 L30.612244897959183 79.5238095238095 L32.6530612244898 79.5238095238095 L32.6530612244898 81.90476190476188 L34.69387755102041 81.90476190476188 L34.69387755102041 79.5238095238095 L36.73469387755102 79.5238095238095 L36.73469387755102 81.90476190476188 L38.77551020408163 81.90476190476188 L38.77551020408163 79.5238095238095 L40.81632653061224 79.5238095238095 L40.81632653061224 81.90476190476188 L40.81632653061224 84.28571428571426 L38.77551020408163 84.28571428571426 L38.77551020408163 86.66666666666666 L38.77551020408163 89.04761904761905 L40.81632653061224 89.04761904761905" stroke="red" fill="none"/><path d="M59.18367346938776 31.904761904761905 L61.22448979591838 31.904761904761905 L61.22448979591838 29.523809523809526 L61.22448979591838 27.142857142857146 L59.18367346938776 27.142857142857146 L59.18367346938776 24.761904761904766 L59.18367346938776 22.380952380952383 L61.22448979591838 22.380952380952383 L61.22448979591838 24.761904761904766 L63.26530612244899 24.761904761904766 L63.26530612244899 22.380952380952383 L65.30612244897961 22.380952380952383 L65.30612244897961 24.761904761904766 L67.34693877551022 24.761904761904766 L67.34693877551022 22.380952380952383 L69.38775510204086 22.380952380952383 L69.38775510204086 24.761904761904766 L69.38775510204086 27.142857142857146 L67.34693877551022 27.142857142857146 L67.34693877551022 29.523809523809526 L67.34693877551022 31.904761904761905 L69.38775510204086 31.904761904761905" stroke="black" fill="none"/><path d="M73.46938775510205 74.76190476190476 L75.51020408163266 74.76190476190476 L75.51020408163266 72.38095238095238 L75.51020408163266 70.0 L73.46938775510205 70.0 L73.46938775510205 67.61904761904762 L73.46938775510205 65.23809523809524 L75.51020408163266 65.23809523809524 L75.51020408163266 67.61904761904762 L77.55102040816328 67.61904761904762 L77.55102040816328 65.23809523809524 L79.5918367346939 65.23809523809524 L79.5918367346939 67.61904761904762 L81.63265306122453 67.61904761904762 L81.63265306122453 65.23809523809524 L83.67346938775513 65.23809523809524 L83.67346938775513 67.61904761904762 L83.67346938775513 70.0 L81.63265306122453 70.0 L81.63265306122453 72.38095238095238 L81.63265306122453 74.76190476190476 L83.67346938775513 74.76190476190476" stroke="black" fill="none"/><path d="M87.75510204081634 46.19047619047619 L89.79591836734696 46.19047619047619 L89.79591836734696 43.80952380952381 L89.79591836734696 41.42857142857143 L87.75510204081634 41.42857142857143 L87.75510204081634 39.047619047619044 L87.75510204081634 36.666666666666664 L89.79591836734696 36.666666666666664 L89.79591836734696 39.047619047619044 L91.83673469387757 39.047619047619044 L91.83673469387757 36.666666666666664 L93.87755102040819 36.666666666666664 L93.87755102040819 39.047619047619044 L95.91836734693881 39.047619047619044 L95.91836734693881 36.666666666666664 L97.95918367346941 36.666666666666664 L97.95918367346941 39.047619047619044 L97.95918367346941 41.42857142857143 L95.91836734693881 41.42857142857143 L95.91836734693881 43.80952380952381 L95.91836734693881 46.19047619047619 L97.95918367346941 46.19047619047619" stroke="black" fill="none"/><path d="M87.75510204081634 103.33333333333333 L89.79591836734696 103.33333333333333 L89.79591836734696 100.95238095238095 L89.79591836734696 98.57142857142856 L87.75510204081634 98.57142857142856 L87.75510204081634 96.19047619047618 L87.75510204081634 93.80952380952378 L89.79591836734696 93.80952380952378 L89.79591836734696 96.19047619047618 L91.83673469387757 96.19047619047618 L91.83673469387757 93.80952380952378 L93.87755102040819 93.80952380952378 L93.87755102040819 96.19047619047618 L95.91836734693881 96.19047619047618 L95.91836734693881 93.80952380952378 L97.95918367346941 93.80952380952378 L97.95918367346941 96.19047619047618 L97.95918367346941 98.57142857142856 L95.91836734693881 98.57142857142856 L95.91836734693881 100.95238095238095 L95.91836734693881 103.33333333333333 L97.95918367346941 103.33333333333333" stroke="black" fill="none"/><path d="M42.857142857142854 105.71428571428571 L42.857142857142854 120.0" stroke="black" fill="none"/><path d="M71.42857142857143 105.71428571428571 L71.42857142857143 120.0" stroke="black" fill="none"/><path d="M42.857142857142854 105.71428571428571 L57.142857142857146 105.71428571428571" stroke="black" fill="none"/><path d="M57.142857142857146 105.71428571428571 L71.42857142857143 105.71428571428571" stroke="black" fill="none"/></svg>
