<?xml version='1.0' encoding='ASCII'?>
<svg xmlns="http://www.w3.org/2000/svg" xmlns:xlink="http://www.w3.org/1999/xlink" width="100" height="120" viewBox="0 0 100 120">
                        <defs>
                        </defs>
                        <rect x="0" y="20" width="100" height="100" stroke="black" fill="white"/><path d="M0.0 20.0 L14.285714285714286 20.0 L14.285714285714286 34.285714285714285 L0.0 34.285714285714285" stroke="lightgray" fill="lightgreen"/><path d="M0.0 34.285714285714285 L14.285714285714286 34.285714285714285 L14.285714285714286 48.57142857142857 L0.0 48.57142857142857" stroke="lightgray" fill="white"/><path d="M0.0 48.57142857142857 L14.285714285714286 48.57142857142857 L14.285714285714286 62.857142857142854 L0.0 62.857142857142854" stroke="lightgray" fill="orange"/><path d="M0.0 62.857142857142854 L14.285714285714286 62.857142857142854 L14.285714285714286 77.14285714285714 L0.0 77.14285714285714" stroke="lightgray" fill="white"/><path d="M0.0 77.14285714285714 L14.285714285714286 77.14285714285714 L14.285714285714286 91.42857142857143 L0.0 91.42857142857143" stroke="lightgray" fill="lightgrey"/><path d="M0.0 91.42857142857143 L14.285714285714286 91.42857142857143 L14.285714285714286 105.71428571428571 L0.0 105.71428571428571" stroke="lightgray" fill="lightgrey"/><path d="M0.0 105.71428571428571 L14.285714285714286 105.71428571428571 L14.285714285714286 120.0 L0.0 120.0" stroke="lightgray" fill="lightgrey"/><path d="M14.285714285714286 20.0 L28.571428571428573 20.0 L28.571428571428573 34.285714285714285 L14.285714285714286 34.285714285714285" stroke="lightgray" fill="lightgrey"/><path d="M14.285714285714286 34.285714285714285 L28.571428571428573 34.285714285714285 L28.571428571428573 48.57142857142857 L14.285714285714286 48.57142857142857" stroke="lightgray" fill="white"/><path d="M14.285714285714286 48.57142857142857 L28.571428571428573 48.57142857142857 L28.571428571428573 62.857142857142854 L14.285714285714286 62.857142857142854" stroke="lightgray" fill="white"/><path d="M14.285714285714286 62.857142857142854 L28.571428571428573 62.857142857142854 L28.571428571428573 77.14285714285714 L14.285714285714286 77.14285714285714" stroke="lightgray" fill="white"/><path d="M14.285714285714286 77.14285714285714 L28.571428571428573 77.14285714285714 L28.571428571428573 91.42857142857143 L14.285714285714286 91.42857142857143" stroke="lightgray" fill="lightgrey"/><path d="M14.285714285714286 91.42857142857143 L28.571428571428573 91.42857142857143 L28.571428571428573 105.71428571428571 L14.285714285714286 105.71428571428571" stroke="lightgray" fill="lightgrey"/><path d="M14.285714285714286 105.71428571428571 L28.571428571428573 105.71428571428571 L28.571428571428573 120.0 L14.285714285714286 120.0" stroke="lightgray" fill="lightgrey"/><path d="M28.571428571428573 20.0 L42.857142857142854 20.0 L42.857142857142854 34.285714285714285 L28.571428571428573 34.285714285714285" stroke="lightgray" fill="lightgrey"/><path d="M28.571428571428573 34.285714285714285 L42.857142857142854 34.285714285714285 L42.857142857142854 48.57142857142857 L28.571428571428573 48.57142857142857" stroke="lightgray" fill="lightgrey"/><path d="M28.571428571428573 48.57142857142857 L42.857142857142854 48.57142857142857 L42.857142857142854 62.857142857142854 L28.571428571428573 62.857142857142854" stroke="lightgray" fill="white"/><path d="M28.571428571428573 62.857142857142854 L42.857142857142854 62.857142857142854 L42.857142857142854 77.14285714285714 L28.571428571428573 77.14285714285714" stroke="lightgray" fill="lightgrey"/><path d="M28.571428571428573 77.14285714285714 L42.857142857142854 77.14285714285714 L42.857142857142854 91.42857142857143 L28.571428571428573 91.42857142857143" stroke="lightgray" fill="lightgrey"/><path d="M28.571428571428573 91.42857142857143 L42.857142857142854 91.42857142857143 L42.857142857142854 105.71428571428571 L28.571428571428573 105.71428571428571" stroke="lightgray" fill="lightgrey"/><path d="M28.571428571428573 105.71428571428571 L42.857142857142854 105.71428571428571 L42.857142857142854 120.0 L28.571428571428573 120.0" stroke="lightgray" fill="lightgrey"/><path d="M42.857142857142854 20.0 L57.142857142857146 20.0 L57.142857142857146 34.285714285714285 L42.857142857142854 34.285714285714285" stroke="lightgray" fill="lightgrey"/><path d="M42.857142857142854 34.285714285714285 L57.142857142857146 34.285714285714285 L57.142857142857146 48.57142857142857 L42.857142857142854 48.57142857142857" stroke="lightgray" fill="lightgrey"/><path d="M42.857142857142854 48.57142857142857 L57.142857142857146 48.57142857142857 L57.142857142857146 62.857142857142854 L42.857142857142854 62.857142857142854" stroke="lightgray" fill="lightgrey"/><path d="M42.857142857142854 62.857142857142854 L57.142857142857146 62.857142857142854 L57.142857142857146 77.14285714285714 L42.857142857142854 77.14285714285714" stroke="lightgray" fill="lightgrey"/><path d="M42.857142857142854 77.14285714285714 L57.142857142857146 77.14285714285714 L57.142857142857146 91.42857142857143 L42.857142857142854 91.42857142857143" stroke="lightgray" fill="lightgrey"/><path d="M42.857142857142854 91.42857142857143 L57.142857142857146 91.42857142857143 L57.142857142857146 105.71428571428571 L42.857142857142854 105.71428571428571" stroke="lightgray" fill="lightgrey"/><path d="M42.857142857142854 105.71428571428571 L57.142857142857146 105.71428571428571 L57.142857142857146 120.0 L42.857142857142854 120.0" stroke="lightgray" fill="lightgrey"/><path d="M57.142857142857146 20.0 L71.42857142857143 20.0 L71.42857142857143 34.285714285714285 L57.142857142857146 34.285714285714285" stroke="lightgray" fill="lightgrey"/><path d="M57.142857142857146 34.285714285714285 L71.42857142857143 34.285714285714285 L71.42857142857143 48.57142857142857 L57.142857142857146 48.57142857142857" stroke="lightgray" fill="lightgrey"/><path d="M57.142857142857146 48.57142857142857 L71.42857142857143 48.57142857142857 L71.42857142857143 62.857142857142854 L57.142857142857146 62.857142857142854" stroke="lightgray" fill="white"/><path d="M57.142857142857146 62.857142857142854 L71.42857142857143 62.857142857142854 L71.42857142857143 77.14285714285714 L57.142857142857146 77.14285714285714" stroke="lightgray" fill="lightgrey"/><path d="M57.142857142857146 77.14285714285714 L71.42857142857143 77.14285714285714 L71.42857142857143 91.42857142857143 L57.142857142857146 91.42857142857143" stroke="lightgray" fill="lightgrey"/><path d="M57.142857142857146 91.42857142857143 L71.42857142857143 91.42857142857143 L71.42857142857143 105.71428571428571 L57.142857142857146 105.71428571428571" stroke="lightgray" fill="lightgrey"/><path d="M57.142857142857146 105.71428571428571 L71.42857142857143 105.71428571428571 L71.42857142857143 120.0 L57.142857142857146 120.0" stroke="lightgray" fill="lightgrey"/><path d="M71.42857142857143 20.0 L85.71428571428571 20.0 L85.71428571428571 34.285714285714285 L71.42857142857143 34.285714285714285" stroke="lightgray" fill="lightgrey"/><path d="M71.42857142857143 34.285714285714285 L85.71428571428571 34.285714285714285 L85.71428571428571 48.57142857142857 L71.42857142857143 48.57142857142857" stroke="lightgray" fill="lightgrey"/><path d="M71.42857142857143 48.57142857142857 L85.71428571428571 48.57142857142857 L85.71428571428571 62.857142857142854 L71.42857142857143 62.857142857142854" stroke="lightgray" fill="orange"/><path d="M71.42857142857143 62.857142857142854 L85.71428571428571 62.857142857142854 L85.71428571428571 77.14285714285714 L71.42857142857143 77.14285714285714" stroke="lightgray" fill="lightgrey"/><path d="M71.42857142857143 77.14285714285714 L85.71428571428571 77.14285714285714 L85.71428571428571 91.42857142857143 L71.42857142857143 91.42857142857143" stroke="lightgray" fill="lightgrey"/><path d="M71.42857142857143 91.42857142857143 L85.71428571428571 91.42857142857143 L85.71428571428571 105.71428571428571 L71.42857142857143 105.71428571428571" stroke="lightgray" fill="lightgrey"/><path d="M71.42857142857143 105.71428571428571 L85.71428571428571 105.71428571428571 L85.71428571428571 120.0 L71.42857142857143 120.0" stroke="lightgray" fill="lightgrey"/><path d="M85.71428571428571 20.0 L100.0 20.0 L100.0 34.285714285714285 L85.71428571428571 34.285714285714285" stroke="lightgray" fill="lightgrey"/><path d="M85.71428571428571 34.285714285714285 L100.0 34.285714285714285 L100.0 48.57142857142857 L85.71428571428571 48.57142857142857" stroke="lightgray" fill="lightgrey"/><path d="M85.71428571428571 48.57142857142857 L100.0 48.57142857142857 L100.0 62.857142857142854 L85.71428571428571 62.857142857142854" stroke="lightgray" fill="lightgrey"/><path d="M85.71428571428571 62.857142857142854 L100.0 62.857142857142854 L100.0 77.14285714285714 L85.71428571428571 77.14285714285714" stroke="lightgray" fill="white"/><path d="M85.71428571428571 77.14285714285714 L100.0 77.14285714285714 L100.0 91.42857142857143 L85.71428571428571 91.42857142857143" stroke="lightgray" fill="lightgrey"/><path d="M85.71428571428571 91.42857142857143 L100.0 91.42857142857143 L100.0 105.71428571428571 L85.71428571428571 105.71428571428571" stroke="lightgray" fill="lightgrey"/><path d="M85.71428571428571 105.71428571428571 L100.0 105.71428571428571 L100.0 120.0 L85.71428571428571 120.0" stroke="lightgray" fill="lightgrey"/><path d="M0.0 20.0 L100.0 20.0 L100.0 120.0 L0.0 120.0 L0.0 20.0" stroke="black" fill="none"/><text font-size="14.285714285714286" text-anchor="middle" dy="-.2em" x="7.142857142857143" y="34.285714285714285" fill="grey">1</text><text font-size="14.285714285714286" text-anchor="middle" dy="-.2em" x="7.142857142857143" y="48.57142857142857" fill="grey">2</text><text font-size="14.285714285714286" text-anchor="middle" dy="-.2em" x="7.142857142857143" y="62.857142857142854" fill="grey">X</text><text font-size="14.285714285714286" text-anchor="middle" dy="-.2em" x="7.142857142857143" y="77.14285714285714" fill="grey">2</text><text font-size="14.285714285714286" text-anchor="middle" dy="-.2em" x="7.142857142857143" y="91.42857142857143" fill="grey"></text><text font-size="14.285714285714286" text-anchor="middle" dy="-.2em" x="7.142857142857143" y="105.71428571428571" fill="grey"></text><text font-size="14.285714285714286" text-anchor="middle" dy="-.2em" x="7.142857142857143" y="120.0" fill="grey"></text><text font-size="14.285714285714286" text-anchor="middle" dy="-.2em" x="21.428571428571427" y="34.285714285714285" fill="grey"></text><text font-size="14.285714285714286" text-anchor="middle" dy="-.2em" x="21.428571428571427" y="48.57142857142857" fill="grey">3</text><text font-size="14.285714285714286" text-anchor="middle" dy="-.2em" x="21.428571428571427" y="62.857142857142854" fill="grey">3</text><text font-size="14.285714285714286" text-anchor="middle" dy="-.2em" x="21.428571428571427" y="77.14285714285714" fill="grey">3</text><text font-size="14.285714285714286" text-anchor="middle" dy="-.2em" x="21.428571428571427" y="91.42857142857143" fill="grey"></text><text font-size="14.285714285714286" text-anchor="middle" dy="-.2em" x="21.428571428571427" y="105.71428571428571" fill="grey"></text><text font-size="14.285714285714286" text-anchor="middle" dy="-.2em" x="21.428571428571427" y="120.0" fill="grey"></text><text font-size="14.285714285714286" text-anchor="middle" dy="-.2em" x="35.714285714285715" y="34.285714285714285" fill="grey"></text><text font-size="14.285714285714286" text-anchor="middle" dy="-.2em" x="35.714285714285715" y="48.57142857142857" fill="grey"></text><text font-size="14.285714285714286" text-anchor="middle" dy="-.2em" x="35.714285714285715" y="62.857142857142854" fill="grey">3</text><text font-size="14.285714285714286" text-anchor="middle" dy="-.2em" x="35.714285714285715" y="77.14285714285714" fill="grey"></text><text font-size="14.285714285714286" text-anchor="middle" dy="-.2em" x="35.714285714285715" y="91.42857142857143" fill="grey"></text><text font-size="14.285714285714286" text-anchor="middle" dy="-.2em" x="35.714285714285715" y="105.71428571428571" fill="grey"></text><text font-size="14.285714285714286" text-anchor="middle" dy="-.2em" x="35.714285714285715" y="120.0" fill="grey"></text><text font-size="14.285714285714286" text-anchor="middle" dy="-.2em" x="50.0" y="34.285714285714285" fill="grey"></text><text font-size="14.285714285714286" text-anchor="middle" dy="-.2em" x="50.0" y="48.57142857142857" fill="grey"></text><text font-size="14.285714285714286" text-anchor="middle" dy="-.2em" x="50.0" y="62.857142857142854" fill="grey"></text><text font-size="14.285714285714286" text-anchor="middle" dy="-.2em" x="50.0" y="77.14285714285714" fill="grey"></text><text font-size="14.285714285714286" text-anchor="middle" dy="-.2em" x="50.0" y="91.42857142857143" fill="grey"></text><text font-size="14.285714285714286" text-anchor="middle" dy="-.2em" x="50.0" y="105.71428571428571" fill="grey"></text><text font-size="14.285714285714286" text-anchor="middle" dy="-.2em" x="50.0" y="120.0" fill="grey"></text><text font-size="14.285714285714286" text-anchor="middle" dy="-.2em" x="64.28571428571429" y="34.285714285714285" fill="grey"></text><text font-size="14.285714285714286" text-anchor="middle" dy="-.2em" x="64.28571428571429" y="48.57142857142857" fill="grey"></text><text font-size="14.285714285714286" text-anchor="middle" dy="-.2em" x="64.28571428571429" y="62.857142857142854" fill="grey">4</text><text font-size="14.285714285714286" text-anchor="middle" dy="-.2em" x="64.28571428571429" y="77.14285714285714" fill="grey"></text><text font-size="14.285714285714286" text-anchor="middle" dy="-.2em" x="64.28571428571429" y="91.42857142857143" fill="grey"></text><text font-size="14.285714285714286" text-anchor="middle" dy="-.2em" x="64.28571428571429" y="105.71428571428571" fill="grey"></text><text font-size="14.285714285714286" text-anchor="middle" dy="-.2em" x="64.28571428571429" y="120.0" fill="grey"></text><text font-size="14.285714285714286" text-anchor="middle" dy="-.2em" x="78.57142857142857" y="34.285714285714285" fill="grey"></text><text font-size="14.285714285714286" text-anchor="middle" dy="-.2em" x="78.57142857142857" y="48.57142857142857" fill="grey"></text><text font-size="14.285714285714286" text-anchor="middle" dy="-.2em" x="78.57142857142857" y="62.857142857142854" fill="grey">X</text><text font-size="14.285714285714286" text-anchor="middle" dy="-.2em" x="78.57142857142857" y="77.14285714285714" fill="grey"></text><text font-size="14.285714285714286" text-anchor="middle" dy="-.2em" x="78.57142857142857" y="91.42857142857143" fill="grey"></text><text font-size="14.285714285714286" text-anchor="middle" dy="-.2em" x="78.57142857142857" y="105.71428571428571" fill="grey"></text><text font-size="14.285714285714286" text-anchor="middle" dy="-.2em" x="78.57142857142857" y="120.0" fill="grey"></text><text font-size="14.285714285714286" text-anchor="middle" dy="-.2em" x="92.85714285714286" y="34.285714285714285" fill="grey"></text><text font-size="14.285714285714286" text-anchor="middle" dy="-.2em" x="92.85714285714286" y="48.57142857142857" fill="grey"></text><text font-size="14.285714285714286" text-anchor="middle" dy="-.2em" x="92.85714285714286" y="62.857142857142854" fill="grey"></text><text font-size="14.285714285714286" text-anchor="middle" dy="-.2em" x="92.85714285714286" y="77.14285714285714" fill="grey">5</text><text font-size="14.285714285714286" text-anchor="middle" dy="-.2em" x="92.85714285714286" y="91.42857142857143" fill="grey"></text><text font-size="14.285714285714286" text-anchor="middle" dy="-.2em" x="92.85714285714286" y="105.71428571428571" fill="grey"></text><text font-size="14.285714285714286" text-anchor="middle" dy="-.2em" x="92.85714285714286" y="120.0" fill="grey"></text><rect x="0" y="0" width="50" height="20" stroke="black" fill="white"/><rect x="0" y="0" width="20" height="20" stroke="black" fill="white"/><text font-size="20" text-anchor="middle" dy="-.2em" x="35" y="20" fill="black">5</text><text font-size="20" text-anchor="middle" dy="-.2em" x="10" y="20" fill="black">S</text><rect x="50" y="0" width="50" height="20" stroke="black" fill="white"/><text font-size="20" text-anchor="middle" dy="-.2em" x="85" y="20" fill="black">5</text><path d="M55.0 16.0 L58.0 16.0 L58.0 13.0 L58.0 10.0 L55.0 10.0 L55.0 7.0 L55.0 4.0 L58.0 4.0 L58.0 7.0 L61.0 7.0 L61.0 4.0 L64.0 4.0 L64.0 7.0 L67.0 7.0 L67.0 4.0 L70.0 4.0 L70.0 7.0 L70.0 10.0 L67.0 10.0 L67.0 13.0 L67.0 16.0 L70.0 16.0" stroke="black" fill="none"/><path d="M2.0408163265306123 117.6190476190476 L4.081632653061225 117.6190476190476 L4.081632653061225 115.23809523809523 L4.081632653061225 112.85714285714285 L2.0408163265306123 112.85714285714285 L2.0408163265306123 110.47619047619047 L2.0408163265306123 108.09523809523807 L4.081632653061225 108.09523809523807 L4.081632653061225 110.47619047619047 L6.122448979591836 110.47619047619047 L6.122448979591836 108.09523809523807 L8.16326530612245 108.09523809523807 L8.16326530612245 110.47619047619047 L10.20408163265306 110.47619047619047 L10.20408163265306 108.09523809523807 L12.244897959183671 108.09523809523807 L12.244897959183671 110.47619047619047 L12.244897959183671 112.85714285714285 L10.20408163265306 112.85714285714285 L10.20408163265306 115.23809523809523 L10.20408163265306 117.6190476190476 L12.244897959183671 117.6190476190476" stroke="black" fill="none"/><path d="M44.89795918367347 31.904761904761905 L46.93877551020408 31.904761904761905 L46.93877551020408 29.523809523809526 L46.93877551020408 27.142857142857146 L44.89795918367347 27.142857142857146 L44.89795918367347 24.761904761904766 L44.89795918367347 22.380952380952383 L46.93877551020408 22.380952380952383 L46.93877551020408 24.761904761904766 L48.97959183673469 24.761904761904766 L48.97959183673469 22.380952380952383 L51.0204081632653 22.380952380952383 L51.0204081632653 24.761904761904766 L53.06122448979591 24.761904761904766 L53.06122448979591 22.380952380952383 L55.10204081632652 22.380952380952383 L55.10204081632652 24.761904761904766 L55.10204081632652 27.142857142857146 L53.06122448979591 27.142857142857146 L53.06122448979591 29.523809523809526 L53.06122448979591 31.904761904761905 L55.10204081632652 31.904761904761905" stroke="red" fill="none"/><path d="M44.89795918367347 89.04761904761905 L46.93877551020408 89.04761904761905 L46.93877551020408 86.66666666666666 L46.93877551020408 84.28571428571426 L44.89795918367347 84.28571428571426 L44.89795918367347 81.90476190476188 L44.89795918367347 79.5238095238095 L46.93877551020408 79.5238095238095 L46.93877551020408 81.90476190476188 L48.97959183673469 81.90476190476188 L48.97959183673469 79.5238095238095 L51.0204081632653 79.5238095238095 L51.0204081632653 81.90476190476188 L53.06122448979591 81.90476190476188 L53.06122448979591 79.5238095238095 L55.10204081632652 79.5238095238095 L55.10204081632652 81.90476190476188 L55.10204081632652 84.28571428571426 L53.06122448979591 84.28571428571426 L53.06122448979591 86.66666666666666 L53.06122448979591 89.04761904761905 L55.10204081632652 89.04761904761905" stroke="black" fill="none"/><path d="M73.46938775510205 103.33333333333333 L75.51020408163266 103.33333333333333 L75.51020408163266 100.95238095238095 L75.51020408163266 98.57142857142856 L73.46938775510205 98.57142857142856 L73.46938775510205 96.19047619047618 L73.46938775510205 93.80952380952378 L75.51020408163266 93.80952380952378 L75.51020408163266 96.19047619047618 L77.55102040816328 96.19047619047618 L77.55102040816328 93.80952380952378 L79.5918367346939 93.80952380952378 L79.5918367346939 96.19047619047618 L81.63265306122453 96.19047619047618 L81.63265306122453 93.80952380952378 L83.67346938775513 93.80952380952378 L83.67346938775513 96.19047619047618 L83.67346938775513 98.57142857142856 L81.63265306122453 98.57142857142856 L81.63265306122453 100.95238095238095 L81.63265306122453 103.33333333333333 L83.67346938775513 103.33333333333333" stroke="black" fill="none"/><path d="M87.75510204081634 31.904761904761905 L89.79591836734696 31.904761904761905 L89.79591836734696 29.523809523809526 L89.79591836734696 27.142857142857146 L87.75510204081634 27.142857142857146 L87.75510204081634 24.761904761904766 L87.75510204081634 22.380952380952383 L89.79591836734696 22.380952380952383 L89.79591836734696 24.761904761904766 L91.83673469387757 24.761904761904766 L91.83673469387757 22.380952380952383 L93.87755102040819 22.380952380952383 L93.87755102040819 24.761904761904766 L95.91836734693881 24.761904761904766 L95.91836734693881 22.380952380952383 L97.95918367346941 22.380952380952383 L97.95918367346941 24.761904761904766 L97.95918367346941 27.142857142857146 L95.91836734693881 27.142857142857146 L95.91836734693881 29.523809523809526 L95.91836734693881 31.904761904761905 L97.95918367346941 31.904761904761905" stroke="black" fill="none"/><path d="M14.285714285714286 20.0 L14.285714285714286 34.285714285714285" stroke="black" fill="none"/><path d="M14.285714285714286 34.285714285714285 L14.285714285714286 48.57142857142857" stroke="black" fill="none"/><path d="M14.285714285714286 48.57142857142857 L14.285714285714286 62.857142857142854" stroke="black" fill="none"/><path d="M14.285714285714286 62.857142857142854 L14.285714285714286 77.14285714285714" stroke="black" fill="none"/><path d="M28.571428571428573 34.285714285714285 L28.571428571428573 48.57142857142857" stroke="black" fill="none"/><path d="M28.571428571428573 62.857142857142854 L28.571428571428573 77.14285714285714" stroke="black" fill="none"/><path d="M42.857142857142854 48.57142857142857 L42.857142857142854 62.857142857142854" stroke="black" fill="none"/><path d="M57.142857142857146 48.57142857142857 L57.142857142857146 62.857142857142854" stroke="black" fill="none"/><path d="M71.42857142857143 48.57142857142857 L71.42857142857143 62.857142857142854" stroke="black" fill="none"/><path d="M85.71428571428571 48.57142857142857 L85.71428571428571 62.857142857142854" stroke="black" fill="none"/><path d="M85.71428571428571 62.857142857142854 L85.71428571428571 77.14285714285714" stroke="black" fill="none"/><path d="M0.0 34.285714285714285 L14.285714285714286 34.285714285714285" stroke="black" fill="none"/><path d="M0.0 48.57142857142857 L14.285714285714286 48.57142857142857" stroke="black" fill="none"/><path d="M0.0 62.857142857142854 L14.285714285714286 62.857142857142854" stroke="black" fill="none"/><path d="M0.0 77.14285714285714 L14.285714285714286 77.14285714285714" stroke="black" fill="none"/><path d="M14.285714285714286 34.285714285714285 L28.571428571428573 34.285714285714285" stroke="black" fill="none"/><path d="M14.285714285714286 77.14285714285714 L28.571428571428573 77.14285714285714" stroke="black" fill="none"/><path d="M28.571428571428573 48.57142857142857 L42.857142857142854 48.57142857142857" stroke="black" fill="none"/><path d="M28.571428571428573 62.857142857142854 L42.857142857142854 62.857142857142854" stroke="black" fill="none"/><path d="M57.142857142857146 48.57142857142857 L71.42857142857143 48.57142857142857" stroke="black" fill="none"/><path d="M57.142857142857146 62.857142857142854 L71.42857142857143 62.857142857142854" stroke="black" fill="none"/><path d="M71.42857142857143 48.57142857142857 L85.71428571428571 48.57142857142857" stroke="black" fill="none"/><path d="M71.42857142857143 62.857142857142854 L85.71428571428571 62.857142857142854" stroke="black" fill="none"/><path d="M85.71428571428571 62.857142857142854 L100.0 62.857142857142854" stroke="black" fill="none"/><path d="M85.71428571428571 77.14285714285714 L100.0 77.14285714285714" stroke="black" fill="none"/></svg>
