<?xml version='1.0' encoding='ASCII'?>
<svg xmlns="http://www.w3.org/2000/svg" xmlns:xlink="http://www.w3.org/1999/xlink" width="100" height="120" viewBox="0 0 100 120">
                        <defs>
                        </defs>
                        <rect x="0" y="20" width="100" height="100" stroke="black" fill="white"/><path d="M0.0 20.0 L33.333333333333336 20.0 L33.333333333333336 53.333333333333336 L0.0 53.333333333333336" stroke="lightgray" fill="lightgrey"/><path d="M0.0 53.333333333333336 L33.333333333333336 53.333333333333336 L33.333333333333336 86.66666666666667 L0.0 86.66666666666667" stroke="lightgray" fill="lightgrey"/><path d="M0.0 86.66666666666667 L33.333333333333336 86.66666666666667 L33.333333333333336 120.0 L0.0 120.0" stroke="lightgray" fill="lightgrey"/><path d="M33.333333333333336 20.0 L66.66666666666667 20.0 L66.66666666666667 53.333333333333336 L33.333333333333336 53.333333333333336" stroke="lightgray" fill="lightgrey"/><path d="M33.333333333333336 53.333333333333336 L66.66666666666667 53.333333333333336 L66.66666666666667 86.66666666666667 L33.333333333333336 86.66666666666667" stroke="lightgray" fill="lightgrey"/><path d="M33.333333333333336 86.66666666666667 L66.66666666666667 86.66666666666667 L66.66666666666667 120.0 L33.333333333333336 120.0" stroke="lightgray" fill="lightgrey"/><path d="M66.66666666666667 20.0 L100.0 20.0 L100.0 53.333333333333336 L66.66666666666667 53.333333333333336" stroke="lightgray" fill="lightgrey"/><path d="M66.66666666666667 53.333333333333336 L100.0 53.333333333333336 L100.0 86.66666666666667 L66.66666666666667 86.66666666666667" stroke="lightgray" fill="lightgrey"/><path d="M66.66666666666667 86.66666666666667 L100.0 86.66666666666667 L100.0 120.0 L66.66666666666667 120.0" stroke="lightgray" fill="lightgrey"/><path d="M0.0 20.0 L100.0 20.0 L100.0 120.0 L0.0 120.0 L0.0 20.0" stroke="black" fill="none"/><rect x="0" y="0" width="50" height="20" stroke="black" fill="white"/><rect x="0" y="0" width="20" height="20" stroke="black" fill="white"/><text font-size="20" text-anchor="middle" dy="-.2em" x="35" y="20" fill="black">0</text><rect x="50" y="0" width="50" height="20" stroke="black" fill="white"/><text font-size="20" text-anchor="middle" dy="-.2em" x="85" y="20" fill="black">0</text><path d="M55.0 16.0 L58.0 16.0 L58.0 13.0 L58.0 10.0 L55.0 10.0 L55.0 7.0 L55.0 4.0 L58.0 4.0 L58.0 7.0 L61.0 7.0 L61.0 4.0 L64.0 4.0 L64.0 7.0 L67.0 7.0 L67.0 4.0 L70.0 4.0 L70.0 7.0 L70.0 10.0 L67.0 10.0 L67.0 13.0 L67.0 16.0 L70.0 16.0" stroke="black" fill="none"/><path d="M71.42857142857143 47.777777777777786 L76.19047619047619 47.777777777777786 L76.19047619047619 42.22222222222223 L76.19047619047619 36.66666666666667 L71.42857142857143 36.66666666666667 L71.42857142857143 31.111111111111114 L71.42857142857143 25.55555555555556 L76.19047619047619 25.55555555555556 L76.19047619047619 31.111111111111114 L80.95238095238095 31.111111111111114 L80.95238095238095 25.55555555555556 L85.71428571428571 25.55555555555556 L85.71428571428571 31.111111111111114 L90.47619047619047 31.111111111111114 L90.47619047619047 25.55555555555556 L95.23809523809523 25.55555555555556 L95.23809523809523 31.111111111111114 L95.23809523809523 36.66666666666667 L90.47619047619047 36.66666666666667 L90.47619047619047 42.22222222222223 L90.47619047619047 47.777777777777786 L95.23809523809523 47.777777777777786" stroke="red" fill="none"/></svg>
