<?xml version='1.0' encoding='ASCII'?>
<svg xmlns="http://www.w3.org/2000/svg" xmlns:xlink="http://www.w3.org/1999/xlink" width="100" height="120" viewBox="0 0 100 120">
                        <defs>
                        </defs>
                        <rect x="0" y="20" width="100" height="100" stroke="black" fill="white"/><path d="M0.0 20.0 L25.0 20.0 L25.0 45.0 L0.0 45.0" stroke="lightgray" fill="lightgrey"/><path d="M0.0 45.0 L25.0 45.0 L25.0 70.0 L0.0 70.0" stroke="lightgray" fill="lightgrey"/><path d="M0.0 70.0 L25.0 70.0 L25.0 95.0 L0.0 95.0" stroke="lightgray" fill="lightgrey"/><path d="M0.0 95.0 L25.0 95.0 L25.0 120.0 L0.0 120.0" stroke="lightgray" fill="lightgrey"/><path d="M25.0 20.0 L50.0 20.0 L50.0 45.0 L25.0 45.0" stroke="lightgray" fill="lightgrey"/><path d="M25.0 45.0 L50.0 45.0 L50.0 70.0 L25.0 70.0" stroke="lightgray" fill="lightgrey"/><path d="M25.0 70.0 L50.0 70.0 L50.0 95.0 L25.0 95.0" stroke="lightgray" fill="lightgrey"/><path d="M25.0 95.0 L50.0 95.0 L50.0 120.0 L25.0 120.0" stroke="lightgray" fill="lightgrey"/><path d="M50.0 20.0 L75.0 20.0 L75.0 45.0 L50.0 45.0" stroke="lightgray" fill="lightgrey"/><path d="M50.0 45.0 L75.0 45.0 L75.0 70.0 L50.0 70.0" stroke="lightgray" fill="lightgrey"/><path d="M50.0 70.0 L75.0 70.0 L75.0 95.0 L50.0 95.0" stroke="lightgray" fill="lightgrey"/><path d="M50.0 95.0 L75.0 95.0 L75.0 120.0 L50.0 120.0" stroke="lightgray" fill="lightgrey"/><path d="M75.0 20.0 L100.0 20.0 L100.0 45.0 L75.0 45.0" stroke="lightgray" fill="lightgrey"/><path d="M75.0 45.0 L100.0 45.0 L100.0 70.0 L75.0 70.0" stroke="lightgray" fill="lightgrey"/><path d="M75.0 70.0 L100.0 70.0 L100.0 95.0 L75.0 95.0" stroke="lightgray" fill="lightgrey"/><path d="M75.0 95.0 L100.0 95.0 L100.0 120.0 L75.0 120.0" stroke="lightgray" fill="lightgrey"/><path d="M0.0 20.0 L100.0 20.0 L100.0 120.0 L0.0 120.0 L0.0 20.0" stroke="black" fill="none"/><rect x="0" y="0" width="50" height="20" stroke="black" fill="white"/><rect x="0" y="0" width="20" height="20" stroke="black" fill="white"/><text font-size="20" text-anchor="middle" dy="-.2em" x="35" y="20" fill="black">0</text><rect x="50" y="0" width="50" height="20" stroke="black" fill="white"/><text font-size="20" text-anchor="middle" dy="-.2em" x="85" y="20" fill="black">0</text><path d="M55.0 16.0 L58.0 16.0 L58.0 13.0 L58.0 10.0 L55.0 10.0 L55.0 7.0 L55.0 4.0 L58.0 4.0 L58.0 7.0 L61.0 7.0 L61.0 4.0 L64.0 4.0 L64.0 7.0 L67.0 7.0 L67.0 4.0 L70.0 4.0 L70.0 7.0 L70.0 10.0 L67.0 10.0 L67.0 13.0 L67.0 16.0 L70.0 16.0" stroke="black" fill="none"/><path d="M78.57142857142857 40.833333333333336 L82.14285714285714 40.833333333333336 L82.14285714285714 36.66666666666667 L82.14285714285714 32.5 L78.57142857142857 32.5 L78.57142857142857 28.333333333333336 L78.57142857142857 24.16666666666667 L82.14285714285714 24.16666666666667 L82.14285714285714 28.333333333333336 L85.71428571428571 28.333333333333336 L85.71428571428571 24.16666666666667 L89.28571428571428 24.16666666666667 L89.28571428571428 28.333333333333336 L92.85714285714285 28.333333333333336 L92.85714285714285 24.16666666666667 L96.42857142857142 24.16666666666667 L96.42857142857142 28.333333333333336 L96.42857142857142 32.5 L92.85714285714285 32.5 L92.85714285714285 36.66666666666667 L92.85714285714285 40.833333333333336 L96.42857142857142 40.833333333333336" stroke="red" fill="none"/></svg>
