<?xml version='1.0' encoding='ASCII'?>
<svg xmlns="http://www.w3.org/2000/svg" xmlns:xlink="http://www.w3.org/1999/xlink" width="100" height="120" viewBox="0 0 100 120">
                        <defs>
                        </defs>
                        <rect x="0" y="20" width="100" height="100" stroke="black" fill="white"/><path d="M0.0 20.0 L25.0 20.0 L25.0 45.0 L0.0 45.0" stroke="lightgray" fill="lightgrey"/><path d="M0.0 45.0 L25.0 45.0 L25.0 70.0 L0.0 70.0" stroke="lightgray" fill="lightgrey"/><path d="M0.0 70.0 L25.0 70.0 L25.0 95.0 L0.0 95.0" stroke="lightgray" fill="lightgrey"/><path d="M0.0 95.0 L25.0 95.0 L25.0 120.0 L0.0 120.0" stroke="lightgray" fill="lightgrey"/><path d="M25.0 20.0 L50.0 20.0 L50.0 45.0 L25.0 45.0" stroke="lightgray" fill="lightgrey"/><path d="M25.0 45.0 L50.0 45.0 L50.0 70.0 L25.0 70.0" stroke="lightgray" fill="lightgrey"/><path d="M25.0 70.0 L50.0 70.0 L50.0 95.0 L25.0 95.0" stroke="lightgray" fill="lightgrey"/><path d="M25.0 95.0 L50.0 95.0 L50.0 120.0 L25.0 120.0" stroke="lightgray" fill="lightgreen"/><path d="M50.0 20.0 L75.0 20.0 L75.0 45.0 L50.0 45.0" stroke="lightgray" fill="white"/><path d="M50.0 45.0 L75.0 45.0 L75.0 70.0 L50.0 70.0" stroke="lightgray" fill="lightgrey"/><path d="M50.0 70.0 L75.0 70.0 L75.0 95.0 L50.0 95.0" stroke="lightgray" fill="lightgrey"/><path d="M50.0 95.0 L75.0 95.0 L75.0 120.0 L50.0 120.0" stroke="lightgray" fill="lightgrey"/><path d="M75.0 20.0 L100.0 20.0 L100.0 45.0 L75.0 45.0" stroke="lightgray" fill="lightgrey"/><path d="M75.0 45.0 L100.0 45.0 L100.0 70.0 L75.0 70.0" stroke="lightgray" fill="lightgrey"/><path d="M75.0 70.0 L100.0 70.0 L100.0 95.0 L75.0 95.0" stroke="lightgray" fill="lightgrey"/><path d="M75.0 95.0 L100.0 95.0 L100.0 120.0 L75.0 120.0" stroke="lightgray" fill="lightgrey"/><path d="M0.0 20.0 L100.0 20.0 L100.0 120.0 L0.0 120.0 L0.0 20.0" stroke="black" fill="none"/><text font-size="25.0" text-anchor="middle" dy="-.2em" x="12.5" y="45.0" fill="grey"></text><text font-size="25.0" text-anchor="middle" dy="-.2em" x="12.5" y="70.0" fill="grey"></text><text font-size="25.0" text-anchor="middle" dy="-.2em" x="12.5" y="95.0" fill="grey"></text><text font-size="25.0" text-anchor="middle" dy="-.2em" x="12.5" y="120.0" fill="grey"></text><text font-size="25.0" text-anchor="middle" dy="-.2em" x="37.5" y="45.0" fill="grey"></text><text font-size="25.0" text-anchor="middle" dy="-.2em" x="37.5" y="70.0" fill="grey"></text><text font-size="25.0" text-anchor="middle" dy="-.2em" x="37.5" y="95.0" fill="grey"></text><text font-size="25.0" text-anchor="middle" dy="-.2em" x="37.5" y="120.0" fill="grey">1</text><text font-size="25.0" text-anchor="middle" dy="-.2em" x="62.5" y="45.0" fill="grey">2</text><text font-size="25.0" text-anchor="middle" dy="-.2em" x="62.5" y="70.0" fill="grey"></text><text font-size="25.0" text-anchor="middle" dy="-.2em" x="62.5" y="95.0" fill="grey"></text><text font-size="25.0" text-anchor="middle" dy="-.2em" x="62.5" y="120.0" fill="grey"></text><text font-size="25.0" text-anchor="middle" dy="-.2em" x="87.5" y="45.0" fill="grey"></text><text font-size="25.0" text-anchor="middle" dy="-.2em" x="87.5" y="70.0" fill="grey"></text><text font-size="25.0" text-anchor="middle" dy="-.2em" x="87.5" y="95.0" fill="grey"></text><text font-size="25.0" text-anchor="middle" dy="-.2em" x="87.5" y="120.0" fill="grey"></text><rect x="0" y="0" width="50" height="20" stroke="black" fill="white"/><rect x="0" y="0" width="20" height="20" stroke="black" fill="white"/><text font-size="20" text-anchor="middle" dy="-.2em" x="35" y="20" fill="black">2</text><text font-size="20" text-anchor="middle" dy="-.2em" x="10" y="20" fill="black">S</text><rect x="50" y="0" width="50" height="20" stroke="black" fill="white"/><text font-size="20" text-anchor="middle" dy="-.2em" x="85" y="20" fill="black">2</text><path d="M55.0 16.0 L58.0 16.0 L58.0 13.0 L58.0 10.0 L55.0 10.0 L55.0 7.0 L55.0 4.0 L58.0 4.0 L58.0 7.0 L61.0 7.0 L61.0 4.0 L64.0 4.0 L64.0 7.0 L67.0 7.0 L67.0 4.0 L70.0 4.0 L70.0 7.0 L70.0 10.0 L67.0 10.0 L67.0 13.0 L67.0 16.0 L70.0 16.0" stroke="black" fill="none"/><path d="M3.571428571428571 65.83333333333334 L7.142857142857142 65.83333333333334 L7.142857142857142 61.66666666666667 L7.142857142857142 57.5 L3.571428571428571 57.5 L3.571428571428571 53.33333333333333 L3.571428571428571 49.166666666666664 L7.142857142857142 49.166666666666664 L7.142857142857142 53.33333333333333 L10.714285714285714 53.33333333333333 L10.714285714285714 49.166666666666664 L14.285714285714285 49.166666666666664 L14.285714285714285 53.33333333333333 L17.857142857142854 53.33333333333333 L17.857142857142854 49.166666666666664 L21.428571428571423 49.166666666666664 L21.428571428571423 53.33333333333333 L21.428571428571423 57.5 L17.857142857142854 57.5 L17.857142857142854 61.66666666666667 L17.857142857142854 65.83333333333334 L21.428571428571423 65.83333333333334" stroke="black" fill="none"/><path d="M78.57142857142857 90.83333333333334 L82.14285714285714 90.83333333333334 L82.14285714285714 86.66666666666667 L82.14285714285714 82.50000000000001 L78.57142857142857 82.50000000000001 L78.57142857142857 78.33333333333334 L78.57142857142857 74.16666666666669 L82.14285714285714 74.16666666666669 L82.14285714285714 78.33333333333334 L85.71428571428571 78.33333333333334 L85.71428571428571 74.16666666666669 L89.28571428571428 74.16666666666669 L89.28571428571428 78.33333333333334 L92.85714285714285 78.33333333333334 L92.85714285714285 74.16666666666669 L96.42857142857142 74.16666666666669 L96.42857142857142 78.33333333333334 L96.42857142857142 82.50000000000001 L92.85714285714285 82.50000000000001 L92.85714285714285 86.66666666666667 L92.85714285714285 90.83333333333334 L96.42857142857142 90.83333333333334" stroke="red" fill="none"/><path d="M25.0 95.0 L25.0 120.0" stroke="black" fill="none"/><path d="M50.0 20.0 L50.0 45.0" stroke="black" fill="none"/><path d="M50.0 95.0 L50.0 120.0" stroke="black" fill="none"/><path d="M75.0 20.0 L75.0 45.0" stroke="black" fill="none"/><path d="M25.0 95.0 L50.0 95.0" stroke="black" fill="none"/><path d="M50.0 45.0 L75.0 45.0" stroke="black" fill="none"/></svg>
