<?xml version='1.0' encoding='ASCII'?>
<svg xmlns="http://www.w3.org/2000/svg" xmlns:xlink="http://www.w3.org/1999/xlink" width="100" height="120" viewBox="0 0 100 120">
                        <defs>
                        </defs>
                        <rect x="0" y="20" width="100" height="100" stroke="black" fill="white"/><path d="M0.0 20.0 L20.0 20.0 L20.0 40.0 L0.0 40.0" stroke="lightgray" fill="lightgrey"/><path d="M0.0 40.0 L20.0 40.0 L20.0 60.0 L0.0 60.0" stroke="lightgray" fill="lightgrey"/><path d="M0.0 60.0 L20.0 60.0 L20.0 80.0 L0.0 80.0" stroke="lightgray" fill="lightgrey"/><path d="M0.0 80.0 L20.0 80.0 L20.0 100.0 L0.0 100.0" stroke="lightgray" fill="lightgrey"/><path d="M0.0 100.0 L20.0 100.0 L20.0 120.0 L0.0 120.0" stroke="lightgray" fill="lightgrey"/><path d="M20.0 20.0 L40.0 20.0 L40.0 40.0 L20.0 40.0" stroke="lightgray" fill="lightgrey"/><path d="M20.0 40.0 L40.0 40.0 L40.0 60.0 L20.0 60.0" stroke="lightgray" fill="lightgrey"/><path d="M20.0 60.0 L40.0 60.0 L40.0 80.0 L20.0 80.0" stroke="lightgray" fill="lightgrey"/><path d="M20.0 80.0 L40.0 80.0 L40.0 100.0 L20.0 100.0" stroke="lightgray" fill="lightgrey"/><path d="M20.0 100.0 L40.0 100.0 L40.0 120.0 L20.0 120.0" stroke="lightgray" fill="lightgrey"/><path d="M40.0 20.0 L60.0 20.0 L60.0 40.0 L40.0 40.0" stroke="lightgray" fill="lightgrey"/><path d="M40.0 40.0 L60.0 40.0 L60.0 60.0 L40.0 60.0" stroke="lightgray" fill="lightgrey"/><path d="M40.0 60.0 L60.0 60.0 L60.0 80.0 L40.0 80.0" stroke="lightgray" fill="lightgrey"/><path d="M40.0 80.0 L60.0 80.0 L60.0 100.0 L40.0 100.0" stroke="lightgray" fill="lightgreen"/><path d="M40.0 100.0 L60.0 100.0 L60.0 120.0 L40.0 120.0" stroke="lightgray" fill="lightgrey"/><path d="M60.0 20.0 L80.0 20.0 L80.0 40.0 L60.0 40.0" stroke="lightgray" fill="lightgrey"/><path d="M60.0 40.0 L80.0 40.0 L80.0 60.0 L60.0 60.0" stroke="lightgray" fill="lightgrey"/><path d="M60.0 60.0 L80.0 60.0 L80.0 80.0 L60.0 80.0" stroke="lightgray" fill="lightgrey"/><path d="M60.0 80.0 L80.0 80.0 L80.0 100.0 L60.0 100.0" stroke="lightgray" fill="lightgrey"/><path d="M60.0 100.0 L80.0 100.0 L80.0 120.0 L60.0 120.0" stroke="lightgray" fill="lightgrey"/><path d="M80.0 20.0 L100.0 20.0 L100.0 40.0 L80.0 40.0" stroke="lightgray" fill="lightgrey"/><path d="M80.0 40.0 L100.0 40.0 L100.0 60.0 L80.0 60.0" stroke="lightgray" fill="lightgrey"/><path d="M80.0 60.0 L100.0 60.0 L100.0 80.0 L80.0 80.0" stroke="lightgray" fill="lightgrey"/><path d="M80.0 80.0 L100.0 80.0 L100.0 100.0 L80.0 100.0" stroke="lightgray" fill="lightgrey"/><path d="M80.0 100.0 L100.0 100.0 L100.0 120.0 L80.0 120.0" stroke="lightgray" fill="lightgrey"/><path d="M0.0 20.0 L100.0 20.0 L100.0 120.0 L0.0 120.0 L0.0 20.0" stroke="black" fill="none"/><text font-size="20.0" text-anchor="middle" dy="-.2em" x="10.0" y="40.0" fill="grey"></text><text font-size="20.0" text-anchor="middle" dy="-.2em" x="10.0" y="60.0" fill="grey"></text><text font-size="20.0" text-anchor="middle" dy="-.2em" x="10.0" y="80.0" fill="grey"></text><text font-size="20.0" text-anchor="middle" dy="-.2em" x="10.0" y="100.0" fill="grey"></text><text font-size="20.0" text-anchor="middle" dy="-.2em" x="10.0" y="120.0" fill="grey"></text><text font-size="20.0" text-anchor="middle" dy="-.2em" x="30.0" y="40.0" fill="grey"></text><text font-size="20.0" text-anchor="middle" dy="-.2em" x="30.0" y="60.0" fill="grey"></text><text font-size="20.0" text-anchor="middle" dy="-.2em" x="30.0" y="80.0" fill="grey"></text><text font-size="20.0" text-anchor="middle" dy="-.2em" x="30.0" y="100.0" fill="grey"></text><text font-size="20.0" text-anchor="middle" dy="-.2em" x="30.0" y="120.0" fill="grey"></text><text font-size="20.0" text-anchor="middle" dy="-.2em" x="50.0" y="40.0" fill="grey"></text><text font-size="20.0" text-anchor="middle" dy="-.2em" x="50.0" y="60.0" fill="grey"></text><text font-size="20.0" text-anchor="middle" dy="-.2em" x="50.0" y="80.0" fill="grey"></text><text font-size="20.0" text-anchor="middle" dy="-.2em" x="50.0" y="100.0" fill="grey">1</text><text font-size="20.0" text-anchor="middle" dy="-.2em" x="50.0" y="120.0" fill="grey"></text><text font-size="20.0" text-anchor="middle" dy="-.2em" x="70.0" y="40.0" fill="grey"></text><text font-size="20.0" text-anchor="middle" dy="-.2em" x="70.0" y="60.0" fill="grey"></text><text font-size="20.0" text-anchor="middle" dy="-.2em" x="70.0" y="80.0" fill="grey"></text><text font-size="20.0" text-anchor="middle" dy="-.2em" x="70.0" y="100.0" fill="grey"></text><text font-size="20.0" text-anchor="middle" dy="-.2em" x="70.0" y="120.0" fill="grey"></text><text font-size="20.0" text-anchor="middle" dy="-.2em" x="90.0" y="40.0" fill="grey"></text><text font-size="20.0" text-anchor="middle" dy="-.2em" x="90.0" y="60.0" fill="grey"></text><text font-size="20.0" text-anchor="middle" dy="-.2em" x="90.0" y="80.0" fill="grey"></text><text font-size="20.0" text-anchor="middle" dy="-.2em" x="90.0" y="100.0" fill="grey"></text><text font-size="20.0" text-anchor="middle" dy="-.2em" x="90.0" y="120.0" fill="grey"></text><rect x="0" y="0" width="50" height="20" stroke="black" fill="white"/><rect x="0" y="0" width="20" height="20" stroke="black" fill="white"/><text font-size="20" text-anchor="middle" dy="-.2em" x="35" y="20" fill="black">1</text><text font-size="20" text-anchor="middle" dy="-.2em" x="10" y="20" fill="black">S</text><rect x="50" y="0" width="50" height="20" stroke="black" fill="white"/><text font-size="20" text-anchor="middle" dy="-.2em" x="85" y="20" fill="black">1</text><path d="M55.0 16.0 L58.0 16.0 L58.0 13.0 L58.0 10.0 L55.0 10.0 L55.0 7.0 L55.0 4.0 L58.0 4.0 L58.0 7.0 L61.0 7.0 L61.0 4.0 L64.0 4.0 L64.0 7.0 L67.0 7.0 L67.0 4.0 L70.0 4.0 L70.0 7.0 L70.0 10.0 L67.0 10.0 L67.0 13.0 L67.0 16.0 L70.0 16.0" stroke="black" fill="none"/><path d="M2.8571428571428568 56.66666666666667 L5.7142857142857135 56.66666666666667 L5.7142857142857135 53.333333333333336 L5.7142857142857135 50.0 L2.8571428571428568 50.0 L2.8571428571428568 46.666666666666664 L2.8571428571428568 43.33333333333333 L5.7142857142857135 43.33333333333333 L5.7142857142857135 46.666666666666664 L8.571428571428571 46.666666666666664 L8.571428571428571 43.33333333333333 L11.428571428571427 43.33333333333333 L11.428571428571427 46.666666666666664 L14.285714285714283 46.666666666666664 L14.285714285714283 43.33333333333333 L17.14285714285714 43.33333333333333 L17.14285714285714 46.666666666666664 L17.14285714285714 50.0 L14.285714285714283 50.0 L14.285714285714283 53.333333333333336 L14.285714285714283 56.66666666666667 L17.14285714285714 56.66666666666667" stroke="black" fill="none"/><path d="M2.8571428571428568 116.66666666666666 L5.7142857142857135 116.66666666666666 L5.7142857142857135 113.33333333333333 L5.7142857142857135 109.99999999999997 L2.8571428571428568 109.99999999999997 L2.8571428571428568 106.66666666666664 L2.8571428571428568 103.3333333333333 L5.7142857142857135 103.3333333333333 L5.7142857142857135 106.66666666666664 L8.571428571428571 106.66666666666664 L8.571428571428571 103.3333333333333 L11.428571428571427 103.3333333333333 L11.428571428571427 106.66666666666664 L14.285714285714283 106.66666666666664 L14.285714285714283 103.3333333333333 L17.14285714285714 103.3333333333333 L17.14285714285714 106.66666666666664 L17.14285714285714 109.99999999999997 L14.285714285714283 109.99999999999997 L14.285714285714283 113.33333333333333 L14.285714285714283 116.66666666666666 L17.14285714285714 116.66666666666666" stroke="black" fill="none"/><path d="M42.857142857142854 36.66666666666667 L45.71428571428571 36.66666666666667 L45.71428571428571 33.333333333333336 L45.71428571428571 30.000000000000004 L42.857142857142854 30.000000000000004 L42.857142857142854 26.66666666666667 L42.857142857142854 23.333333333333336 L45.71428571428571 23.333333333333336 L45.71428571428571 26.66666666666667 L48.57142857142857 26.66666666666667 L48.57142857142857 23.333333333333336 L51.42857142857142 23.333333333333336 L51.42857142857142 26.66666666666667 L54.28571428571428 26.66666666666667 L54.28571428571428 23.333333333333336 L57.14285714285713 23.333333333333336 L57.14285714285713 26.66666666666667 L57.14285714285713 30.000000000000004 L54.28571428571428 30.000000000000004 L54.28571428571428 33.333333333333336 L54.28571428571428 36.66666666666667 L57.14285714285713 36.66666666666667" stroke="black" fill="none"/><path d="M82.85714285714286 56.66666666666667 L85.71428571428574 56.66666666666667 L85.71428571428574 53.333333333333336 L85.71428571428574 50.0 L82.85714285714286 50.0 L82.85714285714286 46.666666666666664 L82.85714285714286 43.33333333333333 L85.71428571428574 43.33333333333333 L85.71428571428574 46.666666666666664 L88.57142857142858 46.666666666666664 L88.57142857142858 43.33333333333333 L91.42857142857146 43.33333333333333 L91.42857142857146 46.666666666666664 L94.28571428571432 46.666666666666664 L94.28571428571432 43.33333333333333 L97.1428571428572 43.33333333333333 L97.1428571428572 46.666666666666664 L97.1428571428572 50.0 L94.28571428571432 50.0 L94.28571428571432 53.333333333333336 L94.28571428571432 56.66666666666667 L97.1428571428572 56.66666666666667" stroke="red" fill="none"/><path d="M82.85714285714286 116.66666666666666 L85.71428571428574 116.66666666666666 L85.71428571428574 113.33333333333333 L85.71428571428574 109.99999999999997 L82.85714285714286 109.99999999999997 L82.85714285714286 106.66666666666664 L82.85714285714286 103.3333333333333 L85.71428571428574 103.3333333333333 L85.71428571428574 106.66666666666664 L88.57142857142858 106.66666666666664 L88.57142857142858 103.3333333333333 L91.42857142857146 103.3333333333333 L91.42857142857146 106.66666666666664 L94.28571428571432 106.66666666666664 L94.28571428571432 103.3333333333333 L97.1428571428572 103.3333333333333 L97.1428571428572 106.66666666666664 L97.1428571428572 109.99999999999997 L94.28571428571432 109.99999999999997 L94.28571428571432 113.33333333333333 L94.28571428571432 116.66666666666666 L97.1428571428572 116.66666666666666" stroke="black" fill="none"/><path d="M40.0 80.0 L40.0 100.0" stroke="black" fill="none"/><path d="M60.0 80.0 L60.0 100.0" stroke="black" fill="none"/><path d="M40.0 80.0 L60.0 80.0" stroke="black" fill="none"/><path d="M40.0 100.0 L60.0 100.0" stroke="black" fill="none"/></svg>
