<?xml version='1.0' encoding='ASCII'?>
<svg xmlns="http://www.w3.org/2000/svg" xmlns:xlink="http://www.w3.org/1999/xlink" width="100" height="120" viewBox="0 0 100 120">
                        <defs>
                        </defs>
                        <rect x="0" y="20" width="100" height="100" stroke="black" fill="white"/><path d="M0.0 20.0 L16.666666666666668 20.0 L16.666666666666668 36.66666666666667 L0.0 36.66666666666667" stroke="lightgray" fill="lightgrey"/><path d="M0.0 36.66666666666667 L16.666666666666668 36.66666666666667 L16.666666666666668 53.333333333333336 L0.0 53.333333333333336" stroke="lightgray" fill="lightgrey"/><path d="M0.0 53.333333333333336 L16.666666666666668 53.333333333333336 L16.666666666666668 70.0 L0.0 70.0" stroke="lightgray" fill="lightgrey"/><path d="M0.0 70.0 L16.666666666666668 70.0 L16.666666666666668 86.66666666666667 L0.0 86.66666666666667" stroke="lightgray" fill="lightgrey"/><path d="M0.0 86.66666666666667 L16.666666666666668 86.66666666666667 L16.666666666666668 103.33333333333333 L0.0 103.33333333333333" stroke="lightgray" fill="lightgrey"/><path d="M0.0 103.33333333333333 L16.666666666666668 103.33333333333333 L16.666666666666668 120.0 L0.0 120.0" stroke="lightgray" fill="lightgrey"/><path d="M16.666666666666668 20.0 L33.333333333333336 20.0 L33.333333333333336 36.66666666666667 L16.666666666666668 36.66666666666667" stroke="lightgray" fill="lightgrey"/><path d="M16.666666666666668 36.66666666666667 L33.333333333333336 36.66666666666667 L33.333333333333336 53.333333333333336 L16.666666666666668 53.333333333333336" stroke="lightgray" fill="lightgrey"/><path d="M16.666666666666668 53.333333333333336 L33.333333333333336 53.333333333333336 L33.333333333333336 70.0 L16.666666666666668 70.0" stroke="lightgray" fill="lightgrey"/><path d="M16.666666666666668 70.0 L33.333333333333336 70.0 L33.333333333333336 86.66666666666667 L16.666666666666668 86.66666666666667" stroke="lightgray" fill="lightgrey"/><path d="M16.666666666666668 86.66666666666667 L33.333333333333336 86.66666666666667 L33.333333333333336 103.33333333333333 L16.666666666666668 103.33333333333333" stroke="lightgray" fill="lightgrey"/><path d="M16.666666666666668 103.33333333333333 L33.333333333333336 103.33333333333333 L33.333333333333336 120.0 L16.666666666666668 120.0" stroke="lightgray" fill="lightgrey"/><path d="M33.333333333333336 20.0 L50.0 20.0 L50.0 36.66666666666667 L33.333333333333336 36.66666666666667" stroke="lightgray" fill="lightgrey"/><path d="M33.333333333333336 36.66666666666667 L50.0 36.66666666666667 L50.0 53.333333333333336 L33.333333333333336 53.333333333333336" stroke="lightgray" fill="lightgrey"/><path d="M33.333333333333336 53.333333333333336 L50.0 53.333333333333336 L50.0 70.0 L33.333333333333336 70.0" stroke="lightgray" fill="lightgrey"/><path d="M33.333333333333336 70.0 L50.0 70.0 L50.0 86.66666666666667 L33.333333333333336 86.66666666666667" stroke="lightgray" fill="lightgrey"/><path d="M33.333333333333336 86.66666666666667 L50.0 86.66666666666667 L50.0 103.33333333333333 L33.333333333333336 103.33333333333333" stroke="lightgray" fill="lightgrey"/><path d="M33.333333333333336 103.33333333333333 L50.0 103.33333333333333 L50.0 120.0 L33.333333333333336 120.0" stroke="lightgray" fill="lightgrey"/><path d="M50.0 20.0 L66.66666666666667 20.0 L66.66666666666667 36.66666666666667 L50.0 36.66666666666667" stroke="lightgray" fill="lightgrey"/><path d="M50.0 36.66666666666667 L66.66666666666667 36.66666666666667 L66.66666666666667 53.333333333333336 L50.0 53.333333333333336" stroke="lightgray" fill="lightgrey"/><path d="M50.0 53.333333333333336 L66.66666666666667 53.333333333333336 L66.66666666666667 70.0 L50.0 70.0" stroke="lightgray" fill="lightgrey"/><path d="M50.0 70.0 L66.66666666666667 70.0 L66.66666666666667 86.66666666666667 L50.0 86.66666666666667" stroke="lightgray" fill="lightgrey"/><path d="M50.0 86.66666666666667 L66.66666666666667 86.66666666666667 L66.66666666666667 103.33333333333333 L50.0 103.33333333333333" stroke="lightgray" fill="lightgrey"/><path d="M50.0 103.33333333333333 L66.66666666666667 103.33333333333333 L66.66666666666667 120.0 L50.0 120.0" stroke="lightgray" fill="lightgrey"/><path d="M66.66666666666667 20.0 L83.33333333333333 20.0 L83.33333333333333 36.66666666666667 L66.66666666666667 36.66666666666667" stroke="lightgray" fill="lightgrey"/><path d="M66.66666666666667 36.66666666666667 L83.33333333333333 36.66666666666667 L83.33333333333333 53.333333333333336 L66.66666666666667 53.333333333333336" stroke="lightgray" fill="lightgrey"/><path d="M66.66666666666667 53.333333333333336 L83.33333333333333 53.333333333333336 L83.33333333333333 70.0 L66.66666666666667 70.0" stroke="lightgray" fill="lightgrey"/><path d="M66.66666666666667 70.0 L83.33333333333333 70.0 L83.33333333333333 86.66666666666667 L66.66666666666667 86.66666666666667" stroke="lightgray" fill="lightgrey"/><path d="M66.66666666666667 86.66666666666667 L83.33333333333333 86.66666666666667 L83.33333333333333 103.33333333333333 L66.66666666666667 103.33333333333333" stroke="lightgray" fill="lightgrey"/><path d="M66.66666666666667 103.33333333333333 L83.33333333333333 103.33333333333333 L83.33333333333333 120.0 L66.66666666666667 120.0" stroke="lightgray" fill="lightgrey"/><path d="M83.33333333333333 20.0 L100.0 20.0 L100.0 36.66666666666667 L83.33333333333333 36.66666666666667" stroke="lightgray" fill="lightgrey"/><path d="M83.33333333333333 36.66666666666667 L100.0 36.66666666666667 L100.0 53.333333333333336 L83.33333333333333 53.333333333333336" stroke="lightgray" fill="lightgrey"/><path d="M83.33333333333333 53.333333333333336 L100.0 53.333333333333336 L100.0 70.0 L83.33333333333333 70.0" stroke="lightgray" fill="lightgrey"/><path d="M83.33333333333333 70.0 L100.0 70.0 L100.0 86.66666666666667 L83.33333333333333 86.66666666666667" stroke="lightgray" fill="lightgrey"/><path d="M83.33333333333333 86.66666666666667 L100.0 86.66666666666667 L100.0 103.33333333333333 L83.33333333333333 103.33333333333333" stroke="lightgray" fill="lightgrey"/><path d="M83.33333333333333 103.33333333333333 L100.0 103.33333333333333 L100.0 120.0 L83.33333333333333 120.0" stroke="lightgray" fill="lightgrey"/><path d="M0.0 20.0 L100.0 20.0 L100.0 120.0 L0.0 120.0 L0.0 20.0" stroke="black" fill="none"/><rect x="0" y="0" width="50" height="20" stroke="black" fill="white"/><rect x="0" y="0" width="20" height="20" stroke="black" fill="white"/><text font-size="20" text-anchor="middle" dy="-.2em" x="35" y="20" fill="black">0</text><rect x="50" y="0" width="50" height="20" stroke="black" fill="white"/><text font-size="20" text-anchor="middle" dy="-.2em" x="85" y="20" fill="black">0</text><path d="M55.0 16.0 L58.0 16.0 L58.0 13.0 L58.0 10.0 L55.0 10.0 L55.0 7.0 L55.0 4.0 L58.0 4.0 L58.0 7.0 L61.0 7.0 L61.0 4.0 L64.0 4.0 L64.0 7.0 L67.0 7.0 L67.0 4.0 L70.0 4.0 L70.0 7.0 L70.0 10.0 L67.0 10.0 L67.0 13.0 L67.0 16.0 L70.0 16.0" stroke="black" fill="none"/><path d="M2.380952380952381 33.88888888888889 L4.761904761904762 33.88888888888889 L4.761904761904762 31.111111111111114 L4.761904761904762 28.333333333333336 L2.380952380952381 28.333333333333336 L2.380952380952381 25.555555555555557 L2.380952380952381 22.77777777777778 L4.761904761904762 22.77777777777778 L4.761904761904762 25.555555555555557 L7.142857142857142 25.555555555555557 L7.142857142857142 22.77777777777778 L9.523809523809524 22.77777777777778 L9.523809523809524 25.555555555555557 L11.904761904761903 25.555555555555557 L11.904761904761903 22.77777777777778 L14.285714285714283 22.77777777777778 L14.285714285714283 25.555555555555557 L14.285714285714283 28.333333333333336 L11.904761904761903 28.333333333333336 L11.904761904761903 31.111111111111114 L11.904761904761903 33.88888888888889 L14.285714285714283 33.88888888888889" stroke="black" fill="none"/><path d="M2.380952380952381 117.22222222222221 L4.761904761904762 117.22222222222221 L4.761904761904762 114.44444444444444 L4.761904761904762 111.66666666666664 L2.380952380952381 111.66666666666664 L2.380952380952381 108.88888888888887 L2.380952380952381 106.11111111111109 L4.761904761904762 106.11111111111109 L4.761904761904762 108.88888888888887 L7.142857142857142 108.88888888888887 L7.142857142857142 106.11111111111109 L9.523809523809524 106.11111111111109 L9.523809523809524 108.88888888888887 L11.904761904761903 108.88888888888887 L11.904761904761903 106.11111111111109 L14.285714285714283 106.11111111111109 L14.285714285714283 108.88888888888887 L14.285714285714283 111.66666666666664 L11.904761904761903 111.66666666666664 L11.904761904761903 114.44444444444444 L11.904761904761903 117.22222222222221 L14.285714285714283 117.22222222222221" stroke="black" fill="none"/><path d="M19.047619047619047 67.22222222222223 L21.428571428571427 67.22222222222223 L21.428571428571427 64.44444444444446 L21.428571428571427 61.66666666666668 L19.047619047619047 61.66666666666668 L19.047619047619047 58.8888888888889 L19.047619047619047 56.11111111111112 L21.428571428571427 56.11111111111112 L21.428571428571427 58.8888888888889 L23.809523809523807 58.8888888888889 L23.809523809523807 56.11111111111112 L26.190476190476186 56.11111111111112 L26.190476190476186 58.8888888888889 L28.571428571428566 58.8888888888889 L28.571428571428566 56.11111111111112 L30.952380952380945 56.11111111111112 L30.952380952380945 58.8888888888889 L30.952380952380945 61.66666666666668 L28.571428571428566 61.66666666666668 L28.571428571428566 64.44444444444446 L28.571428571428566 67.22222222222223 L30.952380952380945 67.22222222222223" stroke="black" fill="none"/><path d="M35.714285714285715 100.55555555555556 L38.095238095238095 100.55555555555556 L38.095238095238095 97.77777777777777 L38.095238095238095 94.99999999999999 L35.714285714285715 94.99999999999999 L35.714285714285715 92.2222222222222 L35.714285714285715 89.44444444444441 L38.095238095238095 89.44444444444441 L38.095238095238095 92.2222222222222 L40.476190476190474 92.2222222222222 L40.476190476190474 89.44444444444441 L42.857142857142854 89.44444444444441 L42.857142857142854 92.2222222222222 L45.238095238095234 92.2222222222222 L45.238095238095234 89.44444444444441 L47.61904761904761 89.44444444444441 L47.61904761904761 92.2222222222222 L47.61904761904761 94.99999999999999 L45.238095238095234 94.99999999999999 L45.238095238095234 97.77777777777777 L45.238095238095234 100.55555555555556 L47.61904761904761 100.55555555555556" stroke="red" fill="none"/><path d="M52.38095238095238 33.88888888888889 L54.76190476190476 33.88888888888889 L54.76190476190476 31.111111111111114 L54.76190476190476 28.333333333333336 L52.38095238095238 28.333333333333336 L52.38095238095238 25.555555555555557 L52.38095238095238 22.77777777777778 L54.76190476190476 22.77777777777778 L54.76190476190476 25.555555555555557 L57.14285714285714 25.555555555555557 L57.14285714285714 22.77777777777778 L59.52380952380952 22.77777777777778 L59.52380952380952 25.555555555555557 L61.9047619047619 25.555555555555557 L61.9047619047619 22.77777777777778 L64.28571428571428 22.77777777777778 L64.28571428571428 25.555555555555557 L64.28571428571428 28.333333333333336 L61.9047619047619 28.333333333333336 L61.9047619047619 31.111111111111114 L61.9047619047619 33.88888888888889 L64.28571428571428 33.88888888888889" stroke="black" fill="none"/><path d="M69.04761904761905 83.88888888888889 L71.42857142857144 83.88888888888889 L71.42857142857144 81.11111111111111 L71.42857142857144 78.33333333333334 L69.04761904761905 78.33333333333334 L69.04761904761905 75.55555555555557 L69.04761904761905 72.7777777777778 L71.42857142857144 72.7777777777778 L71.42857142857144 75.55555555555557 L73.80952380952382 75.55555555555557 L73.80952380952382 72.7777777777778 L76.19047619047622 72.7777777777778 L76.19047619047622 75.55555555555557 L78.5714285714286 75.55555555555557 L78.5714285714286 72.7777777777778 L80.95238095238099 72.7777777777778 L80.95238095238099 75.55555555555557 L80.95238095238099 78.33333333333334 L78.5714285714286 78.33333333333334 L78.5714285714286 81.11111111111111 L78.5714285714286 83.88888888888889 L80.95238095238099 83.88888888888889" stroke="black" fill="none"/><path d="M85.71428571428572 50.55555555555556 L88.09523809523812 50.55555555555556 L88.09523809523812 47.777777777777786 L88.09523809523812 45.0 L85.71428571428572 45.0 L85.71428571428572 42.222222222222214 L85.71428571428572 39.44444444444444 L88.09523809523812 39.44444444444444 L88.09523809523812 42.222222222222214 L90.4761904761905 42.222222222222214 L90.4761904761905 39.44444444444444 L92.85714285714289 39.44444444444444 L92.85714285714289 42.222222222222214 L95.23809523809528 42.222222222222214 L95.23809523809528 39.44444444444444 L97.61904761904765 39.44444444444444 L97.61904761904765 42.222222222222214 L97.61904761904765 45.0 L95.23809523809528 45.0 L95.23809523809528 47.777777777777786 L95.23809523809528 50.55555555555556 L97.61904761904765 50.55555555555556" stroke="black" fill="none"/><path d="M85.71428571428572 117.22222222222221 L88.09523809523812 117.22222222222221 L88.09523809523812 114.44444444444444 L88.09523809523812 111.66666666666664 L85.71428571428572 111.66666666666664 L85.71428571428572 108.88888888888887 L85.71428571428572 106.11111111111109 L88.09523809523812 106.11111111111109 L88.09523809523812 108.88888888888887 L90.4761904761905 108.88888888888887 L90.4761904761905 106.11111111111109 L92.85714285714289 106.11111111111109 L92.85714285714289 108.88888888888887 L95.23809523809528 108.88888888888887 L95.23809523809528 106.11111111111109 L97.61904761904765 106.11111111111109 L97.61904761904765 108.88888888888887 L97.61904761904765 111.66666666666664 L95.23809523809528 111.66666666666664 L95.23809523809528 114.44444444444444 L95.23809523809528 117.22222222222221 L97.61904761904765 117.22222222222221" stroke="black" fill="none"/></svg>
