<?xml version='1.0' encoding='ASCII'?>
<svg xmlns="http://www.w3.org/2000/svg" xmlns:xlink="http://www.w3.org/1999/xlink" width="100" height="120" viewBox="0 0 100 120">
                        <defs>
                        </defs>
                        <rect x="0" y="20" width="100" height="100" stroke="black" fill="white"/><path d="M0.0 20.0 L20.0 20.0 L20.0 40.0 L0.0 40.0" stroke="lightgray" fill="lightgrey"/><path d="M0.0 40.0 L20.0 40.0 L20.0 60.0 L0.0 60.0" stroke="lightgray" fill="lightgrey"/><path d="M0.0 60.0 L20.0 60.0 L20.0 80.0 L0.0 80.0" stroke="lightgray" fill="lightgrey"/><path d="M0.0 80.0 L20.0 80.0 L20.0 100.0 L0.0 100.0" stroke="lightgray" fill="lightgrey"/><path d="M0.0 100.0 L20.0 100.0 L20.0 120.0 L0.0 120.0" stroke="lightgray" fill="lightgrey"/><path d="M20.0 20.0 L40.0 20.0 L40.0 40.0 L20.0 40.0" stroke="lightgray" fill="lightgrey"/><path d="M20.0 40.0 L40.0 40.0 L40.0 60.0 L20.0 60.0" stroke="lightgray" fill="lightgrey"/><path d="M20.0 60.0 L40.0 60.0 L40.0 80.0 L20.0 80.0" stroke="lightgray" fill="lightgrey"/><path d="M20.0 80.0 L40.0 80.0 L40.0 100.0 L20.0 100.0" stroke="lightgray" fill="lightgrey"/><path d="M20.0 100.0 L40.0 100.0 L40.0 120.0 L20.0 120.0" stroke="lightgray" fill="lightgrey"/><path d="M40.0 20.0 L60.0 20.0 L60.0 40.0 L40.0 40.0" stroke="lightgray" fill="lightgrey"/><path d="M40.0 40.0 L60.0 40.0 L60.0 60.0 L40.0 60.0" stroke="lightgray" fill="lightgrey"/><path d="M40.0 60.0 L60.0 60.0 L60.0 80.0 L40.0 80.0" stroke="lightgray" fill="lightgrey"/><path d="M40.0 80.0 L60.0 80.0 L60.0 100.0 L40.0 100.0" stroke="lightgray" fill="lightgrey"/><path d="M40.0 100.0 L60.0 100.0 L60.0 120.0 L40.0 120.0" stroke="lightgray" fill="lightgrey"/><path d="M60.0 20.0 L80.0 20.0 L80.0 40.0 L60.0 40.0" stroke="lightgray" fill="lightgrey"/><path d="M60.0 40.0 L80.0 40.0 L80.0 60.0 L60.0 60.0" stroke="lightgray" fill="lightgrey"/><path d="M60.0 60.0 L80.0 60.0 L80.0 80.0 L60.0 80.0" stroke="lightgray" fill="lightgrey"/><path d="M60.0 80.0 L80.0 80.0 L80.0 100.0 L60.0 100.0" stroke="lightgray" fill="lightgrey"/><path d="M60.0 100.0 L80.0 100.0 L80.0 120.0 L60.0 120.0" stroke="lightgray" fill="lightgrey"/><path d="M80.0 20.0 L100.0 20.0 L100.0 40.0 L80.0 40.0" stroke="lightgray" fill="lightgrey"/><path d="M80.0 40.0 L100.0 40.0 L100.0 60.0 L80.0 60.0" stroke="lightgray" fill="lightgrey"/><path d="M80.0 60.0 L100.0 60.0 L100.0 80.0 L80.0 80.0" stroke="lightgray" fill="lightgrey"/><path d="M80.0 80.0 L100.0 80.0 L100.0 100.0 L80.0 100.0" stroke="lightgray" fill="lightgrey"/><path d="M80.0 100.0 L100.0 100.0 L100.0 120.0 L80.0 120.0" stroke="lightgray" fill="lightgrey"/><path d="M0.0 20.0 L100.0 20.0 L100.0 120.0 L0.0 120.0 L0.0 20.0" stroke="black" fill="none"/><rect x="0" y="0" width="50" height="20" stroke="black" fill="white"/><rect x="0" y="0" width="20" height="20" stroke="black" fill="white"/><text font-size="20" text-anchor="middle" dy="-.2em" x="35" y="20" fill="black">0</text><rect x="50" y="0" width="50" height="20" stroke="black" fill="white"/><text font-size="20" text-anchor="middle" dy="-.2em" x="85" y="20" fill="black">0</text><path d="M55.0 16.0 L58.0 16.0 L58.0 13.0 L58.0 10.0 L55.0 10.0 L55.0 7.0 L55.0 4.0 L58.0 4.0 L58.0 7.0 L61.0 7.0 L61.0 4.0 L64.0 4.0 L64.0 7.0 L67.0 7.0 L67.0 4.0 L70.0 4.0 L70.0 7.0 L70.0 10.0 L67.0 10.0 L67.0 13.0 L67.0 16.0 L70.0 16.0" stroke="black" fill="none"/><path d="M22.857142857142854 36.66666666666667 L25.71428571428571 36.66666666666667 L25.71428571428571 33.333333333333336 L25.71428571428571 30.000000000000004 L22.857142857142854 30.000000000000004 L22.857142857142854 26.66666666666667 L22.857142857142854 23.333333333333336 L25.71428571428571 23.333333333333336 L25.71428571428571 26.66666666666667 L28.571428571428566 26.66666666666667 L28.571428571428566 23.333333333333336 L31.428571428571423 23.333333333333336 L31.428571428571423 26.66666666666667 L34.28571428571428 26.66666666666667 L34.28571428571428 23.333333333333336 L37.14285714285713 23.333333333333336 L37.14285714285713 26.66666666666667 L37.14285714285713 30.000000000000004 L34.28571428571428 30.000000000000004 L34.28571428571428 33.333333333333336 L34.28571428571428 36.66666666666667 L37.14285714285713 36.66666666666667" stroke="black" fill="none"/><path d="M22.857142857142854 96.66666666666667 L25.71428571428571 96.66666666666667 L25.71428571428571 93.33333333333334 L25.71428571428571 90.00000000000001 L22.857142857142854 90.00000000000001 L22.857142857142854 86.66666666666667 L22.857142857142854 83.33333333333334 L25.71428571428571 83.33333333333334 L25.71428571428571 86.66666666666667 L28.571428571428566 86.66666666666667 L28.571428571428566 83.33333333333334 L31.428571428571423 83.33333333333334 L31.428571428571423 86.66666666666667 L34.28571428571428 86.66666666666667 L34.28571428571428 83.33333333333334 L37.14285714285713 83.33333333333334 L37.14285714285713 86.66666666666667 L37.14285714285713 90.00000000000001 L34.28571428571428 90.00000000000001 L34.28571428571428 93.33333333333334 L34.28571428571428 96.66666666666667 L37.14285714285713 96.66666666666667" stroke="black" fill="none"/><path d="M82.85714285714286 36.66666666666667 L85.71428571428574 36.66666666666667 L85.71428571428574 33.333333333333336 L85.71428571428574 30.000000000000004 L82.85714285714286 30.000000000000004 L82.85714285714286 26.66666666666667 L82.85714285714286 23.333333333333336 L85.71428571428574 23.333333333333336 L85.71428571428574 26.66666666666667 L88.57142857142858 26.66666666666667 L88.57142857142858 23.333333333333336 L91.42857142857146 23.333333333333336 L91.42857142857146 26.66666666666667 L94.28571428571432 26.66666666666667 L94.28571428571432 23.333333333333336 L97.1428571428572 23.333333333333336 L97.1428571428572 26.66666666666667 L97.1428571428572 30.000000000000004 L94.28571428571432 30.000000000000004 L94.28571428571432 33.333333333333336 L94.28571428571432 36.66666666666667 L97.1428571428572 36.66666666666667" stroke="black" fill="none"/><path d="M82.85714285714286 116.66666666666666 L85.71428571428574 116.66666666666666 L85.71428571428574 113.33333333333333 L85.71428571428574 109.99999999999997 L82.85714285714286 109.99999999999997 L82.85714285714286 106.66666666666664 L82.85714285714286 103.3333333333333 L85.71428571428574 103.3333333333333 L85.71428571428574 106.66666666666664 L88.57142857142858 106.66666666666664 L88.57142857142858 103.3333333333333 L91.42857142857146 103.3333333333333 L91.42857142857146 106.66666666666664 L94.28571428571432 106.66666666666664 L94.28571428571432 103.3333333333333 L97.1428571428572 103.3333333333333 L97.1428571428572 106.66666666666664 L97.1428571428572 109.99999999999997 L94.28571428571432 109.99999999999997 L94.28571428571432 113.33333333333333 L94.28571428571432 116.66666666666666 L97.1428571428572 116.66666666666666" stroke="red" fill="none"/></svg>
