<?xml version='1.0' encoding='ASCII'?>
<svg xmlns="http://www.w3.org/2000/svg" xmlns:xlink="http://www.w3.org/1999/xlink" width="100" height="120" viewBox="0 0 100 120">
                        <defs>
                        </defs>
                        <rect x="0" y="20" width="100" height="100" stroke="black" fill="white"/><path d="M0.0 20.0 L16.666666666666668 20.0 L16.666666666666668 36.66666666666667 L0.0 36.66666666666667" stroke="lightgray" fill="lightgrey"/><path d="M0.0 36.66666666666667 L16.666666666666668 36.66666666666667 L16.666666666666668 53.333333333333336 L0.0 53.333333333333336" stroke="lightgray" fill="lightgrey"/><path d="M0.0 53.333333333333336 L16.666666666666668 53.333333333333336 L16.666666666666668 70.0 L0.0 70.0" stroke="lightgray" fill="lightgrey"/><path d="M0.0 70.0 L16.666666666666668 70.0 L16.666666666666668 86.66666666666667 L0.0 86.66666666666667" stroke="lightgray" fill="lightgrey"/><path d="M0.0 86.66666666666667 L16.666666666666668 86.66666666666667 L16.666666666666668 103.33333333333333 L0.0 103.33333333333333" stroke="lightgray" fill="lightgrey"/><path d="M0.0 103.33333333333333 L16.666666666666668 103.33333333333333 L16.666666666666668 120.0 L0.0 120.0" stroke="lightgray" fill="lightgrey"/><path d="M16.666666666666668 20.0 L33.333333333333336 20.0 L33.333333333333336 36.66666666666667 L16.666666666666668 36.66666666666667" stroke="lightgray" fill="lightgrey"/><path d="M16.666666666666668 36.66666666666667 L33.333333333333336 36.66666666666667 L33.333333333333336 53.333333333333336 L16.666666666666668 53.333333333333336" stroke="lightgray" fill="lightgrey"/><path d="M16.666666666666668 53.333333333333336 L33.333333333333336 53.333333333333336 L33.333333333333336 70.0 L16.666666666666668 70.0" stroke="lightgray" fill="lightgrey"/><path d="M16.666666666666668 70.0 L33.333333333333336 70.0 L33.333333333333336 86.66666666666667 L16.666666666666668 86.66666666666667" stroke="lightgray" fill="lightgrey"/><path d="M16.666666666666668 86.66666666666667 L33.333333333333336 86.66666666666667 L33.333333333333336 103.33333333333333 L16.666666666666668 103.33333333333333" stroke="lightgray" fill="lightgrey"/><path d="M16.666666666666668 103.33333333333333 L33.333333333333336 103.33333333333333 L33.333333333333336 120.0 L16.666666666666668 120.0" stroke="lightgray" fill="lightgrey"/><path d="M33.333333333333336 20.0 L50.0 20.0 L50.0 36.66666666666667 L33.333333333333336 36.66666666666667" stroke="lightgray" fill="lightgrey"/><path d="M33.333333333333336 36.66666666666667 L50.0 36.66666666666667 L50.0 53.333333333333336 L33.333333333333336 53.333333333333336" stroke="lightgray" fill="lightgrey"/><path d="M33.333333333333336 53.333333333333336 L50.0 53.333333333333336 L50.0 70.0 L33.333333333333336 70.0" stroke="lightgray" fill="lightgrey"/><path d="M33.333333333333336 70.0 L50.0 70.0 L50.0 86.66666666666667 L33.333333333333336 86.66666666666667" stroke="lightgray" fill="lightgrey"/><path d="M33.333333333333336 86.66666666666667 L50.0 86.66666666666667 L50.0 103.33333333333333 L33.333333333333336 103.33333333333333" stroke="lightgray" fill="lightgrey"/><path d="M33.333333333333336 103.33333333333333 L50.0 103.33333333333333 L50.0 120.0 L33.333333333333336 120.0" stroke="lightgray" fill="lightgrey"/><path d="M50.0 20.0 L66.66666666666667 20.0 L66.66666666666667 36.66666666666667 L50.0 36.66666666666667" stroke="lightgray" fill="lightgrey"/><path d="M50.0 36.66666666666667 L66.66666666666667 36.66666666666667 L66.66666666666667 53.333333333333336 L50.0 53.333333333333336" stroke="lightgray" fill="lightgrey"/><path d="M50.0 53.333333333333336 L66.66666666666667 53.333333333333336 L66.66666666666667 70.0 L50.0 70.0" stroke="lightgray" fill="lightgrey"/><path d="M50.0 70.0 L66.66666666666667 70.0 L66.66666666666667 86.66666666666667 L50.0 86.66666666666667" stroke="lightgray" fill="lightgrey"/><path d="M50.0 86.66666666666667 L66.66666666666667 86.66666666666667 L66.66666666666667 103.33333333333333 L50.0 103.33333333333333" stroke="lightgray" fill="lightgrey"/><path d="M50.0 103.33333333333333 L66.66666666666667 103.33333333333333 L66.66666666666667 120.0 L50.0 120.0" stroke="lightgray" fill="lightgrey"/><path d="M66.66666666666667 20.0 L83.33333333333333 20.0 L83.33333333333333 36.66666666666667 L66.66666666666667 36.66666666666667" stroke="lightgray" fill="lightgrey"/><path d="M66.66666666666667 36.66666666666667 L83.33333333333333 36.66666666666667 L83.33333333333333 53.333333333333336 L66.66666666666667 53.333333333333336" stroke="lightgray" fill="lightgrey"/><path d="M66.66666666666667 53.333333333333336 L83.33333333333333 53.333333333333336 L83.33333333333333 70.0 L66.66666666666667 70.0" stroke="lightgray" fill="lightgrey"/><path d="M66.66666666666667 70.0 L83.33333333333333 70.0 L83.33333333333333 86.66666666666667 L66.66666666666667 86.66666666666667" stroke="lightgray" fill="lightgrey"/><path d="M66.66666666666667 86.66666666666667 L83.33333333333333 86.66666666666667 L83.33333333333333 103.33333333333333 L66.66666666666667 103.33333333333333" stroke="lightgray" fill="lightgrey"/><path d="M66.66666666666667 103.33333333333333 L83.33333333333333 103.33333333333333 L83.33333333333333 120.0 L66.66666666666667 120.0" stroke="lightgray" fill="lightgrey"/><path d="M83.33333333333333 20.0 L100.0 20.0 L100.0 36.66666666666667 L83.33333333333333 36.66666666666667" stroke="lightgray" fill="lightgrey"/><path d="M83.33333333333333 36.66666666666667 L100.0 36.66666666666667 L100.0 53.333333333333336 L83.33333333333333 53.333333333333336" stroke="lightgray" fill="lightgrey"/><path d="M83.33333333333333 53.333333333333336 L100.0 53.333333333333336 L100.0 70.0 L83.33333333333333 70.0" stroke="lightgray" fill="lightgrey"/><path d="M83.33333333333333 70.0 L100.0 70.0 L100.0 86.66666666666667 L83.33333333333333 86.66666666666667" stroke="lightgray" fill="lightgrey"/><path d="M83.33333333333333 86.66666666666667 L100.0 86.66666666666667 L100.0 103.33333333333333 L83.33333333333333 103.33333333333333" stroke="lightgray" fill="lightgrey"/><path d="M83.33333333333333 103.33333333333333 L100.0 103.33333333333333 L100.0 120.0 L83.33333333333333 120.0" stroke="lightgray" fill="lightgrey"/><path d="M0.0 20.0 L100.0 20.0 L100.0 120.0 L0.0 120.0 L0.0 20.0" stroke="black" fill="none"/><rect x="0" y="0" width="50" height="20" stroke="black" fill="white"/><rect x="0" y="0" width="20" height="20" stroke="black" fill="white"/><text font-size="20" text-anchor="middle" dy="-.2em" x="35" y="20" fill="black">0</text><rect x="50" y="0" width="50" height="20" stroke="black" fill="white"/><text font-size="20" text-anchor="middle" dy="-.2em" x="85" y="20" fill="black">0</text><path d="M55.0 16.0 L58.0 16.0 L58.0 13.0 L58.0 10.0 L55.0 10.0 L55.0 7.0 L55.0 4.0 L58.0 4.0 L58.0 7.0 L61.0 7.0 L61.0 4.0 L64.0 4.0 L64.0 7.0 L67.0 7.0 L67.0 4.0 L70.0 4.0 L70.0 7.0 L70.0 10.0 L67.0 10.0 L67.0 13.0 L67.0 16.0 L70.0 16.0" stroke="black" fill="none"/><path d="M2.380952380952381 50.55555555555556 L4.761904761904762 50.55555555555556 L4.761904761904762 47.777777777777786 L4.761904761904762 45.0 L2.380952380952381 45.0 L2.380952380952381 42.222222222222214 L2.380952380952381 39.44444444444444 L4.761904761904762 39.44444444444444 L4.761904761904762 42.222222222222214 L7.142857142857142 42.222222222222214 L7.142857142857142 39.44444444444444 L9.523809523809524 39.44444444444444 L9.523809523809524 42.222222222222214 L11.904761904761903 42.222222222222214 L11.904761904761903 39.44444444444444 L14.285714285714283 39.44444444444444 L14.285714285714283 42.222222222222214 L14.285714285714283 45.0 L11.904761904761903 45.0 L11.904761904761903 47.777777777777786 L11.904761904761903 50.55555555555556 L14.285714285714283 50.55555555555556" stroke="black" fill="none"/><path d="M19.047619047619047 100.55555555555556 L21.428571428571427 100.55555555555556 L21.428571428571427 97.77777777777777 L21.428571428571427 94.99999999999999 L19.047619047619047 94.99999999999999 L19.047619047619047 92.2222222222222 L19.047619047619047 89.44444444444441 L21.428571428571427 89.44444444444441 L21.428571428571427 92.2222222222222 L23.809523809523807 92.2222222222222 L23.809523809523807 89.44444444444441 L26.190476190476186 89.44444444444441 L26.190476190476186 92.2222222222222 L28.571428571428566 92.2222222222222 L28.571428571428566 89.44444444444441 L30.952380952380945 89.44444444444441 L30.952380952380945 92.2222222222222 L30.952380952380945 94.99999999999999 L28.571428571428566 94.99999999999999 L28.571428571428566 97.77777777777777 L28.571428571428566 100.55555555555556 L30.952380952380945 100.55555555555556" stroke="black" fill="none"/><path d="M85.71428571428572 33.88888888888889 L88.09523809523812 33.88888888888889 L88.09523809523812 31.111111111111114 L88.09523809523812 28.333333333333336 L85.71428571428572 28.333333333333336 L85.71428571428572 25.555555555555557 L85.71428571428572 22.77777777777778 L88.09523809523812 22.77777777777778 L88.09523809523812 25.555555555555557 L90.4761904761905 25.555555555555557 L90.4761904761905 22.77777777777778 L92.85714285714289 22.77777777777778 L92.85714285714289 25.555555555555557 L95.23809523809528 25.555555555555557 L95.23809523809528 22.77777777777778 L97.61904761904765 22.77777777777778 L97.61904761904765 25.555555555555557 L97.61904761904765 28.333333333333336 L95.23809523809528 28.333333333333336 L95.23809523809528 31.111111111111114 L95.23809523809528 33.88888888888889 L97.61904761904765 33.88888888888889" stroke="red" fill="none"/><path d="M85.71428571428572 83.88888888888889 L88.09523809523812 83.88888888888889 L88.09523809523812 81.11111111111111 L88.09523809523812 78.33333333333334 L85.71428571428572 78.33333333333334 L85.71428571428572 75.55555555555557 L85.71428571428572 72.7777777777778 L88.09523809523812 72.7777777777778 L88.09523809523812 75.55555555555557 L90.4761904761905 75.55555555555557 L90.4761904761905 72.7777777777778 L92.85714285714289 72.7777777777778 L92.85714285714289 75.55555555555557 L95.23809523809528 75.55555555555557 L95.23809523809528 72.7777777777778 L97.61904761904765 72.7777777777778 L97.61904761904765 75.55555555555557 L97.61904761904765 78.33333333333334 L95.23809523809528 78.33333333333334 L95.23809523809528 81.11111111111111 L95.23809523809528 83.88888888888889 L97.61904761904765 83.88888888888889" stroke="black" fill="none"/></svg>
