<?xml version='1.0' encoding='ASCII'?>
<svg xmlns="http://www.w3.org/2000/svg" xmlns:xlink="http://www.w3.org/1999/xlink" width="100" height="120" viewBox="0 0 100 120">
                        <defs>
                        </defs>
                        <rect x="0" y="20" width="100" height="100" stroke="black" fill="white"/><path d="M0.0 20.0 L16.666666666666668 20.0 L16.666666666666668 36.66666666666667 L0.0 36.66666666666667" stroke="lightgray" fill="lightgrey"/><path d="M0.0 36.66666666666667 L16.666666666666668 36.66666666666667 L16.666666666666668 53.333333333333336 L0.0 53.333333333333336" stroke="lightgray" fill="lightgrey"/><path d="M0.0 53.333333333333336 L16.666666666666668 53.333333333333336 L16.666666666666668 70.0 L0.0 70.0" stroke="lightgray" fill="lightgrey"/><path d="M0.0 70.0 L16.666666666666668 70.0 L16.666666666666668 86.66666666666667 L0.0 86.66666666666667" stroke="lightgray" fill="lightgrey"/><path d="M0.0 86.66666666666667 L16.666666666666668 86.66666666666667 L16.666666666666668 103.33333333333333 L0.0 103.33333333333333" stroke="lightgray" fill="lightgrey"/><path d="M0.0 103.33333333333333 L16.666666666666668 103.33333333333333 L16.666666666666668 120.0 L0.0 120.0" stroke="lightgray" fill="lightgrey"/><path d="M16.666666666666668 20.0 L33.333333333333336 20.0 L33.333333333333336 36.66666666666667 L16.666666666666668 36.66666666666667" stroke="lightgray" fill="lightgrey"/><path d="M16.666666666666668 36.66666666666667 L33.333333333333336 36.66666666666667 L33.333333333333336 53.333333333333336 L16.666666666666668 53.333333333333336" stroke="lightgray" fill="lightgrey"/><path d="M16.666666666666668 53.333333333333336 L33.333333333333336 53.333333333333336 L33.333333333333336 70.0 L16.666666666666668 70.0" stroke="lightgray" fill="lightgrey"/><path d="M16.666666666666668 70.0 L33.333333333333336 70.0 L33.333333333333336 86.66666666666667 L16.666666666666668 86.66666666666667" stroke="lightgray" fill="lightgrey"/><path d="M16.666666666666668 86.66666666666667 L33.333333333333336 86.66666666666667 L33.333333333333336 103.33333333333333 L16.666666666666668 103.33333333333333" stroke="lightgray" fill="lightgrey"/><path d="M16.666666666666668 103.33333333333333 L33.333333333333336 103.33333333333333 L33.333333333333336 120.0 L16.666666666666668 120.0" stroke="lightgray" fill="lightgrey"/><path d="M33.333333333333336 20.0 L50.0 20.0 L50.0 36.66666666666667 L33.333333333333336 36.66666666666667" stroke="lightgray" fill="lightgrey"/><path d="M33.333333333333336 36.66666666666667 L50.0 36.66666666666667 L50.0 53.333333333333336 L33.333333333333336 53.333333333333336" stroke="lightgray" fill="lightgrey"/><path d="M33.333333333333336 53.333333333333336 L50.0 53.333333333333336 L50.0 70.0 L33.333333333333336 70.0" stroke="lightgray" fill="lightgrey"/><path d="M33.333333333333336 70.0 L50.0 70.0 L50.0 86.66666666666667 L33.333333333333336 86.66666666666667" stroke="lightgray" fill="lightgrey"/><path d="M33.333333333333336 86.66666666666667 L50.0 86.66666666666667 L50.0 103.33333333333333 L33.333333333333336 103.33333333333333" stroke="lightgray" fill="lightgrey"/><path d="M33.333333333333336 103.33333333333333 L50.0 103.33333333333333 L50.0 120.0 L33.333333333333336 120.0" stroke="lightgray" fill="lightgrey"/><path d="M50.0 20.0 L66.66666666666667 20.0 L66.66666666666667 36.66666666666667 L50.0 36.66666666666667" stroke="lightgray" fill="lightgreen"/><path d="M50.0 36.66666666666667 L66.66666666666667 36.66666666666667 L66.66666666666667 53.333333333333336 L50.0 53.333333333333336" stroke="lightgray" fill="lightgrey"/><path d="M50.0 53.333333333333336 L66.66666666666667 53.333333333333336 L66.66666666666667 70.0 L50.0 70.0" stroke="lightgray" fill="lightgrey"/><path d="M50.0 70.0 L66.66666666666667 70.0 L66.66666666666667 86.66666666666667 L50.0 86.66666666666667" stroke="lightgray" fill="lightgrey"/><path d="M50.0 86.66666666666667 L66.66666666666667 86.66666666666667 L66.66666666666667 103.33333333333333 L50.0 103.33333333333333" stroke="lightgray" fill="lightgrey"/><path d="M50.0 103.33333333333333 L66.66666666666667 103.33333333333333 L66.66666666666667 120.0 L50.0 120.0" stroke="lightgray" fill="lightgrey"/><path d="M66.66666666666667 20.0 L83.33333333333333 20.0 L83.33333333333333 36.66666666666667 L66.66666666666667 36.66666666666667" stroke="lightgray" fill="lightgreen"/><path d="M66.66666666666667 36.66666666666667 L83.33333333333333 36.66666666666667 L83.33333333333333 53.333333333333336 L66.66666666666667 53.333333333333336" stroke="lightgray" fill="lightgreen"/><path d="M66.66666666666667 53.333333333333336 L83.33333333333333 53.333333333333336 L83.33333333333333 70.0 L66.66666666666667 70.0" stroke="lightgray" fill="lightgreen"/><path d="M66.66666666666667 70.0 L83.33333333333333 70.0 L83.33333333333333 86.66666666666667 L66.66666666666667 86.66666666666667" stroke="lightgray" fill="lightgrey"/><path d="M66.66666666666667 86.66666666666667 L83.33333333333333 86.66666666666667 L83.33333333333333 103.33333333333333 L66.66666666666667 103.33333333333333" stroke="lightgray" fill="lightgrey"/><path d="M66.66666666666667 103.33333333333333 L83.33333333333333 103.33333333333333 L83.33333333333333 120.0 L66.66666666666667 120.0" stroke="lightgray" fill="lightgrey"/><path d="M83.33333333333333 20.0 L100.0 20.0 L100.0 36.66666666666667 L83.33333333333333 36.66666666666667" stroke="lightgray" fill="lightgreen"/><path d="M83.33333333333333 36.66666666666667 L100.0 36.66666666666667 L100.0 53.333333333333336 L83.33333333333333 53.333333333333336" stroke="lightgray" fill="lightgreen"/><path d="M83.33333333333333 53.333333333333336 L100.0 53.333333333333336 L100.0 70.0 L83.33333333333333 70.0" stroke="lightgray" fill="lightgreen"/><path d="M83.33333333333333 70.0 L100.0 70.0 L100.0 86.66666666666667 L83.33333333333333 86.66666666666667" stroke="lightgray" fill="lightgrey"/><path d="M83.33333333333333 86.66666666666667 L100.0 86.66666666666667 L100.0 103.33333333333333 L83.33333333333333 103.33333333333333" stroke="lightgray" fill="lightgrey"/><path d="M83.33333333333333 103.33333333333333 L100.0 103.33333333333333 L100.0 120.0 L83.33333333333333 120.0" stroke="lightgray" fill="lightgrey"/><path d="M0.0 20.0 L100.0 20.0 L100.0 120.0 L0.0 120.0 L0.0 20.0" stroke="black" fill="none"/><text font-size="16.666666666666668" text-anchor="middle" dy="-.2em" x="8.333333333333334" y="36.66666666666667" fill="grey"></text><text font-size="16.666666666666668" text-anchor="middle" dy="-.2em" x="8.333333333333334" y="53.333333333333336" fill="grey"></text><text font-size="16.666666666666668" text-anchor="middle" dy="-.2em" x="8.333333333333334" y="70.0" fill="grey"></text><text font-size="16.666666666666668" text-anchor="middle" dy="-.2em" x="8.333333333333334" y="86.66666666666667" fill="grey"></text><text font-size="16.666666666666668" text-anchor="middle" dy="-.2em" x="8.333333333333334" y="103.33333333333333" fill="grey"></text><text font-size="16.666666666666668" text-anchor="middle" dy="-.2em" x="8.333333333333334" y="120.0" fill="grey"></text><text font-size="16.666666666666668" text-anchor="middle" dy="-.2em" x="25.0" y="36.66666666666667" fill="grey"></text><text font-size="16.666666666666668" text-anchor="middle" dy="-.2em" x="25.0" y="53.333333333333336" fill="grey"></text><text font-size="16.666666666666668" text-anchor="middle" dy="-.2em" x="25.0" y="70.0" fill="grey"></text><text font-size="16.666666666666668" text-anchor="middle" dy="-.2em" x="25.0" y="86.66666666666667" fill="grey"></text><text font-size="16.666666666666668" text-anchor="middle" dy="-.2em" x="25.0" y="103.33333333333333" fill="grey"></text><text font-size="16.666666666666668" text-anchor="middle" dy="-.2em" x="25.0" y="120.0" fill="grey"></text><text font-size="16.666666666666668" text-anchor="middle" dy="-.2em" x="41.666666666666664" y="36.66666666666667" fill="grey"></text><text font-size="16.666666666666668" text-anchor="middle" dy="-.2em" x="41.666666666666664" y="53.333333333333336" fill="grey"></text><text font-size="16.666666666666668" text-anchor="middle" dy="-.2em" x="41.666666666666664" y="70.0" fill="grey"></text><text font-size="16.666666666666668" text-anchor="middle" dy="-.2em" x="41.666666666666664" y="86.66666666666667" fill="grey"></text><text font-size="16.666666666666668" text-anchor="middle" dy="-.2em" x="41.666666666666664" y="103.33333333333333" fill="grey"></text><text font-size="16.666666666666668" text-anchor="middle" dy="-.2em" x="41.666666666666664" y="120.0" fill="grey"></text><text font-size="16.666666666666668" text-anchor="middle" dy="-.2em" x="58.333333333333336" y="36.66666666666667" fill="grey">1</text><text font-size="16.666666666666668" text-anchor="middle" dy="-.2em" x="58.333333333333336" y="53.333333333333336" fill="grey"></text><text font-size="16.666666666666668" text-anchor="middle" dy="-.2em" x="58.333333333333336" y="70.0" fill="grey"></text><text font-size="16.666666666666668" text-anchor="middle" dy="-.2em" x="58.333333333333336" y="86.66666666666667" fill="grey"></text><text font-size="16.666666666666668" text-anchor="middle" dy="-.2em" x="58.333333333333336" y="103.33333333333333" fill="grey"></text><text font-size="16.666666666666668" text-anchor="middle" dy="-.2em" x="58.333333333333336" y="120.0" fill="grey"></text><text font-size="16.666666666666668" text-anchor="middle" dy="-.2em" x="75.0" y="36.66666666666667" fill="grey">1</text><text font-size="16.666666666666668" text-anchor="middle" dy="-.2em" x="75.0" y="53.333333333333336" fill="grey">1</text><text font-size="16.666666666666668" text-anchor="middle" dy="-.2em" x="75.0" y="70.0" fill="grey">1</text><text font-size="16.666666666666668" text-anchor="middle" dy="-.2em" x="75.0" y="86.66666666666667" fill="grey"></text><text font-size="16.666666666666668" text-anchor="middle" dy="-.2em" x="75.0" y="103.33333333333333" fill="grey"></text><text font-size="16.666666666666668" text-anchor="middle" dy="-.2em" x="75.0" y="120.0" fill="grey"></text><text font-size="16.666666666666668" text-anchor="middle" dy="-.2em" x="91.66666666666667" y="36.66666666666667" fill="grey">1</text><text font-size="16.666666666666668" text-anchor="middle" dy="-.2em" x="91.66666666666667" y="53.333333333333336" fill="grey">1</text><text font-size="16.666666666666668" text-anchor="middle" dy="-.2em" x="91.66666666666667" y="70.0" fill="grey">1</text><text font-size="16.666666666666668" text-anchor="middle" dy="-.2em" x="91.66666666666667" y="86.66666666666667" fill="grey"></text><text font-size="16.666666666666668" text-anchor="middle" dy="-.2em" x="91.66666666666667" y="103.33333333333333" fill="grey"></text><text font-size="16.666666666666668" text-anchor="middle" dy="-.2em" x="91.66666666666667" y="120.0" fill="grey"></text><rect x="0" y="0" width="50" height="20" stroke="black" fill="white"/><rect x="0" y="0" width="20" height="20" stroke="black" fill="white"/><text font-size="20" text-anchor="middle" dy="-.2em" x="35" y="20" fill="black">1</text><text font-size="20" text-anchor="middle" dy="-.2em" x="10" y="20" fill="black">S</text><rect x="50" y="0" width="50" height="20" stroke="black" fill="white"/><text font-size="20" text-anchor="middle" dy="-.2em" x="85" y="20" fill="black">1</text><path d="M55.0 16.0 L58.0 16.0 L58.0 13.0 L58.0 10.0 L55.0 10.0 L55.0 7.0 L55.0 4.0 L58.0 4.0 L58.0 7.0 L61.0 7.0 L61.0 4.0 L64.0 4.0 L64.0 7.0 L67.0 7.0 L67.0 4.0 L70.0 4.0 L70.0 7.0 L70.0 10.0 L67.0 10.0 L67.0 13.0 L67.0 16.0 L70.0 16.0" stroke="black" fill="none"/><path d="M2.380952380952381 33.88888888888889 L4.761904761904762 33.88888888888889 L4.761904761904762 31.111111111111114 L4.761904761904762 28.333333333333336 L2.380952380952381 28.333333333333336 L2.380952380952381 25.555555555555557 L2.380952380952381 22.77777777777778 L4.761904761904762 22.77777777777778 L4.761904761904762 25.555555555555557 L7.142857142857142 25.555555555555557 L7.142857142857142 22.77777777777778 L9.523809523809524 22.77777777777778 L9.523809523809524 25.555555555555557 L11.904761904761903 25.555555555555557 L11.904761904761903 22.77777777777778 L14.285714285714283 22.77777777777778 L14.285714285714283 25.555555555555557 L14.285714285714283 28.333333333333336 L11.904761904761903 28.333333333333336 L11.904761904761903 31.111111111111114 L11.904761904761903 33.88888888888889 L14.285714285714283 33.88888888888889" stroke="black" fill="none"/><path d="M19.047619047619047 83.88888888888889 L21.428571428571427 83.88888888888889 L21.428571428571427 81.11111111111111 L21.428571428571427 78.33333333333334 L19.047619047619047 78.33333333333334 L19.047619047619047 75.55555555555557 L19.047619047619047 72.7777777777778 L21.428571428571427 72.7777777777778 L21.428571428571427 75.55555555555557 L23.809523809523807 75.55555555555557 L23.809523809523807 72.7777777777778 L26.190476190476186 72.7777777777778 L26.190476190476186 75.55555555555557 L28.571428571428566 75.55555555555557 L28.571428571428566 72.7777777777778 L30.952380952380945 72.7777777777778 L30.952380952380945 75.55555555555557 L30.952380952380945 78.33333333333334 L28.571428571428566 78.33333333333334 L28.571428571428566 81.11111111111111 L28.571428571428566 83.88888888888889 L30.952380952380945 83.88888888888889" stroke="black" fill="none"/><path d="M85.71428571428572 117.22222222222221 L88.09523809523812 117.22222222222221 L88.09523809523812 114.44444444444444 L88.09523809523812 111.66666666666664 L85.71428571428572 111.66666666666664 L85.71428571428572 108.88888888888887 L85.71428571428572 106.11111111111109 L88.09523809523812 106.11111111111109 L88.09523809523812 108.88888888888887 L90.4761904761905 108.88888888888887 L90.4761904761905 106.11111111111109 L92.85714285714289 106.11111111111109 L92.85714285714289 108.88888888888887 L95.23809523809528 108.88888888888887 L95.23809523809528 106.11111111111109 L97.61904761904765 106.11111111111109 L97.61904761904765 108.88888888888887 L97.61904761904765 111.66666666666664 L95.23809523809528 111.66666666666664 L95.23809523809528 114.44444444444444 L95.23809523809528 117.22222222222221 L97.61904761904765 117.22222222222221" stroke="red" fill="none"/><path d="M50.0 20.0 L50.0 36.66666666666667" stroke="black" fill="none"/><path d="M66.66666666666667 36.66666666666667 L66.66666666666667 53.333333333333336" stroke="black" fill="none"/><path d="M66.66666666666667 53.333333333333336 L66.66666666666667 70.0" stroke="black" fill="none"/><path d="M50.0 36.66666666666667 L66.66666666666667 36.66666666666667" stroke="black" fill="none"/><path d="M66.66666666666667 70.0 L83.33333333333333 70.0" stroke="black" fill="none"/><path d="M83.33333333333333 70.0 L100.0 70.0" stroke="black" fill="none"/></svg>
