<?xml version='1.0' encoding='ASCII'?>
<svg xmlns="http://www.w3.org/2000/svg" xmlns:xlink="http://www.w3.org/1999/xlink" width="100" height="120" viewBox="0 0 100 120">
                        <defs>
                        </defs>
                        <rect x="0" y="20" width="100" height="100" stroke="black" fill="white"/><path d="M0.0 20.0 L20.0 20.0 L20.0 40.0 L0.0 40.0" stroke="lightgray" fill="lightgrey"/><path d="M0.0 40.0 L20.0 40.0 L20.0 60.0 L0.0 60.0" stroke="lightgray" fill="lightgrey"/><path d="M0.0 60.0 L20.0 60.0 L20.0 80.0 L0.0 80.0" stroke="lightgray" fill="lightgrey"/><path d="M0.0 80.0 L20.0 80.0 L20.0 100.0 L0.0 100.0" stroke="lightgray" fill="lightgrey"/><path d="M0.0 100.0 L20.0 100.0 L20.0 120.0 L0.0 120.0" stroke="lightgray" fill="lightgrey"/><path d="M20.0 20.0 L40.0 20.0 L40.0 40.0 L20.0 40.0" stroke="lightgray" fill="lightgrey"/><path d="M20.0 40.0 L40.0 40.0 L40.0 60.0 L20.0 60.0" stroke="lightgray" fill="lightgrey"/><path d="M20.0 60.0 L40.0 60.0 L40.0 80.0 L20.0 80.0" stroke="lightgray" fill="lightgrey"/><path d="M20.0 80.0 L40.0 80.0 L40.0 100.0 L20.0 100.0" stroke="lightgray" fill="lightgrey"/><path d="M20.0 100.0 L40.0 100.0 L40.0 120.0 L20.0 120.0" stroke="lightgray" fill="lightgrey"/><path d="M40.0 20.0 L60.0 20.0 L60.0 40.0 L40.0 40.0" stroke="lightgray" fill="lightgrey"/><path d="M40.0 40.0 L60.0 40.0 L60.0 60.0 L40.0 60.0" stroke="lightgray" fill="lightgrey"/><path d="M40.0 60.0 L60.0 60.0 L60.0 80.0 L40.0 80.0" stroke="lightgray" fill="lightgrey"/><path d="M40.0 80.0 L60.0 80.0 L60.0 100.0 L40.0 100.0" stroke="lightgray" fill="lightgrey"/><path d="M40.0 100.0 L60.0 100.0 L60.0 120.0 L40.0 120.0" stroke="lightgray" fill="lightgrey"/><path d="M60.0 20.0 L80.0 20.0 L80.0 40.0 L60.0 40.0" stroke="lightgray" fill="lightgrey"/><path d="M60.0 40.0 L80.0 40.0 L80.0 60.0 L60.0 60.0" stroke="lightgray" fill="lightgrey"/><path d="M60.0 60.0 L80.0 60.0 L80.0 80.0 L60.0 80.0" stroke="lightgray" fill="lightgrey"/><path d="M60.0 80.0 L80.0 80.0 L80.0 100.0 L60.0 100.0" stroke="lightgray" fill="lightgrey"/><path d="M60.0 100.0 L80.0 100.0 L80.0 120.0 L60.0 120.0" stroke="lightgray" fill="lightgrey"/><path d="M80.0 20.0 L100.0 20.0 L100.0 40.0 L80.0 40.0" stroke="lightgray" fill="white"/><path d="M80.0 40.0 L100.0 40.0 L100.0 60.0 L80.0 60.0" stroke="lightgray" fill="white"/><path d="M80.0 60.0 L100.0 60.0 L100.0 80.0 L80.0 80.0" stroke="lightgray" fill="white"/><path d="M80.0 80.0 L100.0 80.0 L100.0 100.0 L80.0 100.0" stroke="lightgray" fill="white"/><path d="M80.0 100.0 L100.0 100.0 L100.0 120.0 L80.0 120.0" stroke="lightgray" fill="lightgreen"/><path d="M0.0 20.0 L100.0 20.0 L100.0 120.0 L0.0 120.0 L0.0 20.0" stroke="black" fill="none"/><text font-size="20.0" text-anchor="middle" dy="-.2em" x="10.0" y="40.0" fill="grey"></text><text font-size="20.0" text-anchor="middle" dy="-.2em" x="10.0" y="60.0" fill="grey"></text><text font-size="20.0" text-anchor="middle" dy="-.2em" x="10.0" y="80.0" fill="grey"></text><text font-size="20.0" text-anchor="middle" dy="-.2em" x="10.0" y="100.0" fill="grey"></text><text font-size="20.0" text-anchor="middle" dy="-.2em" x="10.0" y="120.0" fill="grey"></text><text font-size="20.0" text-anchor="middle" dy="-.2em" x="30.0" y="40.0" fill="grey"></text><text font-size="20.0" text-anchor="middle" dy="-.2em" x="30.0" y="60.0" fill="grey"></text><text font-size="20.0" text-anchor="middle" dy="-.2em" x="30.0" y="80.0" fill="grey"></text><text font-size="20.0" text-anchor="middle" dy="-.2em" x="30.0" y="100.0" fill="grey"></text><text font-size="20.0" text-anchor="middle" dy="-.2em" x="30.0" y="120.0" fill="grey"></text><text font-size="20.0" text-anchor="middle" dy="-.2em" x="50.0" y="40.0" fill="grey"></text><text font-size="20.0" text-anchor="middle" dy="-.2em" x="50.0" y="60.0" fill="grey"></text><text font-size="20.0" text-anchor="middle" dy="-.2em" x="50.0" y="80.0" fill="grey"></text><text font-size="20.0" text-anchor="middle" dy="-.2em" x="50.0" y="100.0" fill="grey"></text><text font-size="20.0" text-anchor="middle" dy="-.2em" x="50.0" y="120.0" fill="grey"></text><text font-size="20.0" text-anchor="middle" dy="-.2em" x="70.0" y="40.0" fill="grey"></text><text font-size="20.0" text-anchor="middle" dy="-.2em" x="70.0" y="60.0" fill="grey"></text><text font-size="20.0" text-anchor="middle" dy="-.2em" x="70.0" y="80.0" fill="grey"></text><text font-size="20.0" text-anchor="middle" dy="-.2em" x="70.0" y="100.0" fill="grey"></text><text font-size="20.0" text-anchor="middle" dy="-.2em" x="70.0" y="120.0" fill="grey"></text><text font-size="20.0" text-anchor="middle" dy="-.2em" x="90.0" y="40.0" fill="grey">1</text><text font-size="20.0" text-anchor="middle" dy="-.2em" x="90.0" y="60.0" fill="grey">1</text><text font-size="20.0" text-anchor="middle" dy="-.2em" x="90.0" y="80.0" fill="grey">1</text><text font-size="20.0" text-anchor="middle" dy="-.2em" x="90.0" y="100.0" fill="grey">1</text><text font-size="20.0" text-anchor="middle" dy="-.2em" x="90.0" y="120.0" fill="grey">2</text><rect x="0" y="0" width="50" height="20" stroke="black" fill="white"/><rect x="0" y="0" width="20" height="20" stroke="black" fill="white"/><text font-size="20" text-anchor="middle" dy="-.2em" x="35" y="20" fill="black">2</text><text font-size="20" text-anchor="middle" dy="-.2em" x="10" y="20" fill="black">S</text><rect x="50" y="0" width="50" height="20" stroke="black" fill="white"/><text font-size="20" text-anchor="middle" dy="-.2em" x="85" y="20" fill="black">2</text><path d="M55.0 16.0 L58.0 16.0 L58.0 13.0 L58.0 10.0 L55.0 10.0 L55.0 7.0 L55.0 4.0 L58.0 4.0 L58.0 7.0 L61.0 7.0 L61.0 4.0 L64.0 4.0 L64.0 7.0 L67.0 7.0 L67.0 4.0 L70.0 4.0 L70.0 7.0 L70.0 10.0 L67.0 10.0 L67.0 13.0 L67.0 16.0 L70.0 16.0" stroke="black" fill="none"/><path d="M2.8571428571428568 36.66666666666667 L5.7142857142857135 36.66666666666667 L5.7142857142857135 33.333333333333336 L5.7142857142857135 30.000000000000004 L2.8571428571428568 30.000000000000004 L2.8571428571428568 26.66666666666667 L2.8571428571428568 23.333333333333336 L5.7142857142857135 23.333333333333336 L5.7142857142857135 26.66666666666667 L8.571428571428571 26.66666666666667 L8.571428571428571 23.333333333333336 L11.428571428571427 23.333333333333336 L11.428571428571427 26.66666666666667 L14.285714285714283 26.66666666666667 L14.285714285714283 23.333333333333336 L17.14285714285714 23.333333333333336 L17.14285714285714 26.66666666666667 L17.14285714285714 30.000000000000004 L14.285714285714283 30.000000000000004 L14.285714285714283 33.333333333333336 L14.285714285714283 36.66666666666667 L17.14285714285714 36.66666666666667" stroke="black" fill="none"/><path d="M2.8571428571428568 116.66666666666666 L5.7142857142857135 116.66666666666666 L5.7142857142857135 113.33333333333333 L5.7142857142857135 109.99999999999997 L2.8571428571428568 109.99999999999997 L2.8571428571428568 106.66666666666664 L2.8571428571428568 103.3333333333333 L5.7142857142857135 103.3333333333333 L5.7142857142857135 106.66666666666664 L8.571428571428571 106.66666666666664 L8.571428571428571 103.3333333333333 L11.428571428571427 103.3333333333333 L11.428571428571427 106.66666666666664 L14.285714285714283 106.66666666666664 L14.285714285714283 103.3333333333333 L17.14285714285714 103.3333333333333 L17.14285714285714 106.66666666666664 L17.14285714285714 109.99999999999997 L14.285714285714283 109.99999999999997 L14.285714285714283 113.33333333333333 L14.285714285714283 116.66666666666666 L17.14285714285714 116.66666666666666" stroke="red" fill="none"/><path d="M80.0 20.0 L80.0 40.0" stroke="black" fill="none"/><path d="M80.0 40.0 L80.0 60.0" stroke="black" fill="none"/><path d="M80.0 60.0 L80.0 80.0" stroke="black" fill="none"/><path d="M80.0 80.0 L80.0 100.0" stroke="black" fill="none"/><path d="M80.0 100.0 L80.0 120.0" stroke="black" fill="none"/><path d="M80.0 100.0 L100.0 100.0" stroke="black" fill="none"/></svg>
