<?xml version='1.0' encoding='ASCII'?>
<svg xmlns="http://www.w3.org/2000/svg" xmlns:xlink="http://www.w3.org/1999/xlink" width="100" height="120" viewBox="0 0 100 120">
                        <defs>
                        </defs>
                        <rect x="0" y="20" width="100" height="100" stroke="black" fill="white"/><path d="M0.0 20.0 L25.0 20.0 L25.0 45.0 L0.0 45.0" stroke="lightgray" fill="lightgrey"/><path d="M0.0 45.0 L25.0 45.0 L25.0 70.0 L0.0 70.0" stroke="lightgray" fill="lightgrey"/><path d="M0.0 70.0 L25.0 70.0 L25.0 95.0 L0.0 95.0" stroke="lightgray" fill="lightgrey"/><path d="M0.0 95.0 L25.0 95.0 L25.0 120.0 L0.0 120.0" stroke="lightgray" fill="lightgrey"/><path d="M25.0 20.0 L50.0 20.0 L50.0 45.0 L25.0 45.0" stroke="lightgray" fill="lightgrey"/><path d="M25.0 45.0 L50.0 45.0 L50.0 70.0 L25.0 70.0" stroke="lightgray" fill="lightgrey"/><path d="M25.0 70.0 L50.0 70.0 L50.0 95.0 L25.0 95.0" stroke="lightgray" fill="lightgrey"/><path d="M25.0 95.0 L50.0 95.0 L50.0 120.0 L25.0 120.0" stroke="lightgray" fill="lightgrey"/><path d="M50.0 20.0 L75.0 20.0 L75.0 45.0 L50.0 45.0" stroke="lightgray" fill="lightgrey"/><path d="M50.0 45.0 L75.0 45.0 L75.0 70.0 L50.0 70.0" stroke="lightgray" fill="lightgrey"/><path d="M50.0 70.0 L75.0 70.0 L75.0 95.0 L50.0 95.0" stroke="lightgray" fill="lightgrey"/><path d="M50.0 95.0 L75.0 95.0 L75.0 120.0 L50.0 120.0" stroke="lightgray" fill="lightgrey"/><path d="M75.0 20.0 L100.0 20.0 L100.0 45.0 L75.0 45.0" stroke="lightgray" fill="lightgrey"/><path d="M75.0 45.0 L100.0 45.0 L100.0 70.0 L75.0 70.0" stroke="lightgray" fill="lightgrey"/><path d="M75.0 70.0 L100.0 70.0 L100.0 95.0 L75.0 95.0" stroke="lightgray" fill="lightgrey"/><path d="M75.0 95.0 L100.0 95.0 L100.0 120.0 L75.0 120.0" stroke="lightgray" fill="lightgrey"/><path d="M0.0 20.0 L100.0 20.0 L100.0 120.0 L0.0 120.0 L0.0 20.0" stroke="black" fill="none"/><text font-size="25.0" text-anchor="middle" dy="-.2em" x="12.5" y="45.0" fill="grey"></text><text font-size="25.0" text-anchor="middle" dy="-.2em" x="12.5" y="70.0" fill="grey"></text><text font-size="25.0" text-anchor="middle" dy="-.2em" x="12.5" y="95.0" fill="grey"></text><text font-size="25.0" text-anchor="middle" dy="-.2em" x="12.5" y="120.0" fill="grey"></text><text font-size="25.0" text-anchor="middle" dy="-.2em" x="37.5" y="45.0" fill="grey"></text><text font-size="25.0" text-anchor="middle" dy="-.2em" x="37.5" y="70.0" fill="grey"></text><text font-size="25.0" text-anchor="middle" dy="-.2em" x="37.5" y="95.0" fill="grey"></text><text font-size="25.0" text-anchor="middle" dy="-.2em" x="37.5" y="120.0" fill="grey"></text><text font-size="25.0" text-anchor="middle" dy="-.2em" x="62.5" y="45.0" fill="grey"></text><text font-size="25.0" text-anchor="middle" dy="-.2em" x="62.5" y="70.0" fill="grey"></text><text font-size="25.0" text-anchor="middle" dy="-.2em" x="62.5" y="95.0" fill="grey"></text><text font-size="25.0" text-anchor="middle" dy="-.2em" x="62.5" y="120.0" fill="grey"></text><text font-size="25.0" text-anchor="middle" dy="-.2em" x="87.5" y="45.0" fill="grey"></text><text font-size="25.0" text-anchor="middle" dy="-.2em" x="87.5" y="70.0" fill="grey"></text><text font-size="25.0" text-anchor="middle" dy="-.2em" x="87.5" y="95.0" fill="grey"></text><text font-size="25.0" text-anchor="middle" dy="-.2em" x="87.5" y="120.0" fill="grey"></text><rect x="0" y="0" width="50" height="20" stroke="black" fill="white"/><rect x="0" y="0" width="20" height="20" stroke="black" fill="white"/><text font-size="20" text-anchor="middle" dy="-.2em" x="35" y="20" fill="black">0</text><rect x="50" y="0" width="50" height="20" stroke="black" fill="white"/><text font-size="20" text-anchor="middle" dy="-.2em" x="85" y="20" fill="black">0</text><path d="M55.0 16.0 L58.0 16.0 L58.0 13.0 L58.0 10.0 L55.0 10.0 L55.0 7.0 L55.0 4.0 L58.0 4.0 L58.0 7.0 L61.0 7.0 L61.0 4.0 L64.0 4.0 L64.0 7.0 L67.0 7.0 L67.0 4.0 L70.0 4.0 L70.0 7.0 L70.0 10.0 L67.0 10.0 L67.0 13.0 L67.0 16.0 L70.0 16.0" stroke="black" fill="none"/><path d="M3.571428571428571 40.833333333333336 L7.142857142857142 40.833333333333336 L7.142857142857142 36.66666666666667 L7.142857142857142 32.5 L3.571428571428571 32.5 L3.571428571428571 28.333333333333336 L3.571428571428571 24.16666666666667 L7.142857142857142 24.16666666666667 L7.142857142857142 28.333333333333336 L10.714285714285714 28.333333333333336 L10.714285714285714 24.16666666666667 L14.285714285714285 24.16666666666667 L14.285714285714285 28.333333333333336 L17.857142857142854 28.333333333333336 L17.857142857142854 24.16666666666667 L21.428571428571423 24.16666666666667 L21.428571428571423 28.333333333333336 L21.428571428571423 32.5 L17.857142857142854 32.5 L17.857142857142854 36.66666666666667 L17.857142857142854 40.833333333333336 L21.428571428571423 40.833333333333336" stroke="black" fill="none"/><path d="M3.571428571428571 115.83333333333334 L7.142857142857142 115.83333333333334 L7.142857142857142 111.66666666666667 L7.142857142857142 107.50000000000001 L3.571428571428571 107.50000000000001 L3.571428571428571 103.33333333333334 L3.571428571428571 99.16666666666669 L7.142857142857142 99.16666666666669 L7.142857142857142 103.33333333333334 L10.714285714285714 103.33333333333334 L10.714285714285714 99.16666666666669 L14.285714285714285 99.16666666666669 L14.285714285714285 103.33333333333334 L17.857142857142854 103.33333333333334 L17.857142857142854 99.16666666666669 L21.428571428571423 99.16666666666669 L21.428571428571423 103.33333333333334 L21.428571428571423 107.50000000000001 L17.857142857142854 107.50000000000001 L17.857142857142854 111.66666666666667 L17.857142857142854 115.83333333333334 L21.428571428571423 115.83333333333334" stroke="black" fill="none"/><path d="M78.57142857142857 40.833333333333336 L82.14285714285714 40.833333333333336 L82.14285714285714 36.66666666666667 L82.14285714285714 32.5 L78.57142857142857 32.5 L78.57142857142857 28.333333333333336 L78.57142857142857 24.16666666666667 L82.14285714285714 24.16666666666667 L82.14285714285714 28.333333333333336 L85.71428571428571 28.333333333333336 L85.71428571428571 24.16666666666667 L89.28571428571428 24.16666666666667 L89.28571428571428 28.333333333333336 L92.85714285714285 28.333333333333336 L92.85714285714285 24.16666666666667 L96.42857142857142 24.16666666666667 L96.42857142857142 28.333333333333336 L96.42857142857142 32.5 L92.85714285714285 32.5 L92.85714285714285 36.66666666666667 L92.85714285714285 40.833333333333336 L96.42857142857142 40.833333333333336" stroke="red" fill="none"/><path d="M78.57142857142857 115.83333333333334 L82.14285714285714 115.83333333333334 L82.14285714285714 111.66666666666667 L82.14285714285714 107.50000000000001 L78.57142857142857 107.50000000000001 L78.57142857142857 103.33333333333334 L78.57142857142857 99.16666666666669 L82.14285714285714 99.16666666666669 L82.14285714285714 103.33333333333334 L85.71428571428571 103.33333333333334 L85.71428571428571 99.16666666666669 L89.28571428571428 99.16666666666669 L89.28571428571428 103.33333333333334 L92.85714285714285 103.33333333333334 L92.85714285714285 99.16666666666669 L96.42857142857142 99.16666666666669 L96.42857142857142 103.33333333333334 L96.42857142857142 107.50000000000001 L92.85714285714285 107.50000000000001 L92.85714285714285 111.66666666666667 L92.85714285714285 115.83333333333334 L96.42857142857142 115.83333333333334" stroke="black" fill="none"/></svg>
