<?xml version='1.0' encoding='ASCII'?>
<svg xmlns="http://www.w3.org/2000/svg" xmlns:xlink="http://www.w3.org/1999/xlink" width="100" height="120" viewBox="0 0 100 120">
                        <defs>
                        </defs>
                        <rect x="0" y="20" width="100" height="100" stroke="black" fill="white"/><path d="M0.0 20.0 L33.333333333333336 20.0 L33.333333333333336 53.333333333333336 L0.0 53.333333333333336" stroke="lightgray" fill="white"/><path d="M0.0 53.333333333333336 L33.333333333333336 53.333333333333336 L33.333333333333336 86.66666666666667 L0.0 86.66666666666667" stroke="lightgray" fill="white"/><path d="M0.0 86.66666666666667 L33.333333333333336 86.66666666666667 L33.333333333333336 120.0 L0.0 120.0" stroke="lightgray" fill="lightgreen"/><path d="M33.333333333333336 20.0 L66.66666666666667 20.0 L66.66666666666667 53.333333333333336 L33.333333333333336 53.333333333333336" stroke="lightgray" fill="white"/><path d="M33.333333333333336 53.333333333333336 L66.66666666666667 53.333333333333336 L66.66666666666667 86.66666666666667 L33.333333333333336 86.66666666666667" stroke="lightgray" fill="lightgrey"/><path d="M33.333333333333336 86.66666666666667 L66.66666666666667 86.66666666666667 L66.66666666666667 120.0 L33.333333333333336 120.0" stroke="lightgray" fill="white"/><path d="M66.66666666666667 20.0 L100.0 20.0 L100.0 53.333333333333336 L66.66666666666667 53.333333333333336" stroke="lightgray" fill="lightgrey"/><path d="M66.66666666666667 53.333333333333336 L100.0 53.333333333333336 L100.0 86.66666666666667 L66.66666666666667 86.66666666666667" stroke="lightgray" fill="lightgrey"/><path d="M66.66666666666667 86.66666666666667 L100.0 86.66666666666667 L100.0 120.0 L66.66666666666667 120.0" stroke="lightgray" fill="lightgrey"/><path d="M0.0 20.0 L100.0 20.0 L100.0 120.0 L0.0 120.0 L0.0 20.0" stroke="black" fill="none"/><text font-size="33.333333333333336" text-anchor="middle" dy="-.2em" x="16.666666666666668" y="53.333333333333336" fill="grey"></text><text font-size="33.333333333333336" text-anchor="middle" dy="-.2em" x="16.666666666666668" y="86.66666666666667" fill="grey"></text><text font-size="33.333333333333336" text-anchor="middle" dy="-.2em" x="16.666666666666668" y="120.0" fill="grey"></text><text font-size="33.333333333333336" text-anchor="middle" dy="-.2em" x="50.0" y="53.333333333333336" fill="grey"></text><text font-size="33.333333333333336" text-anchor="middle" dy="-.2em" x="50.0" y="86.66666666666667" fill="grey"></text><text font-size="33.333333333333336" text-anchor="middle" dy="-.2em" x="50.0" y="120.0" fill="grey"></text><text font-size="33.333333333333336" text-anchor="middle" dy="-.2em" x="83.33333333333333" y="53.333333333333336" fill="grey"></text><text font-size="33.333333333333336" text-anchor="middle" dy="-.2em" x="83.33333333333333" y="86.66666666666667" fill="grey"></text><text font-size="33.333333333333336" text-anchor="middle" dy="-.2em" x="83.33333333333333" y="120.0" fill="grey"></text><rect x="0" y="0" width="50" height="20" stroke="black" fill="white"/><rect x="0" y="0" width="20" height="20" stroke="black" fill="white"/><text font-size="20" text-anchor="middle" dy="-.2em" x="35" y="20" fill="black">3</text><rect x="50" y="0" width="50" height="20" stroke="black" fill="white"/><text font-size="20" text-anchor="middle" dy="-.2em" x="85" y="20" fill="black">0</text><path d="M55.0 16.0 L58.0 16.0 L58.0 13.0 L58.0 10.0 L55.0 10.0 L55.0 7.0 L55.0 4.0 L58.0 4.0 L58.0 7.0 L61.0 7.0 L61.0 4.0 L64.0 4.0 L64.0 7.0 L67.0 7.0 L67.0 4.0 L70.0 4.0 L70.0 7.0 L70.0 10.0 L67.0 10.0 L67.0 13.0 L67.0 16.0 L70.0 16.0" stroke="black" fill="none"/><path d="M71.42857142857143 81.11111111111111 L76.19047619047619 81.11111111111111 L76.19047619047619 75.55555555555557 L76.19047619047619 70.0 L71.42857142857143 70.0 L71.42857142857143 64.44444444444443 L71.42857142857143 58.888888888888886 L76.19047619047619 58.888888888888886 L76.19047619047619 64.44444444444443 L80.95238095238095 64.44444444444443 L80.95238095238095 58.888888888888886 L85.71428571428571 58.888888888888886 L85.71428571428571 64.44444444444443 L90.47619047619047 64.44444444444443 L90.47619047619047 58.888888888888886 L95.23809523809523 58.888888888888886 L95.23809523809523 64.44444444444443 L95.23809523809523 70.0 L90.47619047619047 70.0 L90.47619047619047 75.55555555555557 L90.47619047619047 81.11111111111111 L95.23809523809523 81.11111111111111" stroke="red" fill="none"/><path d="M33.333333333333336 53.333333333333336 L33.333333333333336 86.66666666666667" stroke="black" fill="none"/><path d="M33.333333333333336 86.66666666666667 L33.333333333333336 120.0" stroke="black" fill="none"/><path d="M66.66666666666667 20.0 L66.66666666666667 53.333333333333336" stroke="black" fill="none"/><path d="M66.66666666666667 86.66666666666667 L66.66666666666667 120.0" stroke="black" fill="none"/><path d="M0.0 86.66666666666667 L33.333333333333336 86.66666666666667" stroke="black" fill="none"/><path d="M33.333333333333336 53.333333333333336 L66.66666666666667 53.333333333333336" stroke="black" fill="none"/><path d="M33.333333333333336 86.66666666666667 L66.66666666666667 86.66666666666667" stroke="black" fill="none"/></svg>
