<?xml version='1.0' encoding='ASCII'?>
<svg xmlns="http://www.w3.org/2000/svg" xmlns:xlink="http://www.w3.org/1999/xlink" width="100" height="120" viewBox="0 0 100 120">
                        <defs>
                        </defs>
                        <rect x="0" y="20" width="100" height="100" stroke="black" fill="white"/><path d="M0.0 20.0 L20.0 20.0 L20.0 40.0 L0.0 40.0" stroke="lightgray" fill="lightgreen"/><path d="M0.0 40.0 L20.0 40.0 L20.0 60.0 L0.0 60.0" stroke="lightgray" fill="lightgrey"/><path d="M0.0 60.0 L20.0 60.0 L20.0 80.0 L0.0 80.0" stroke="lightgray" fill="lightgrey"/><path d="M0.0 80.0 L20.0 80.0 L20.0 100.0 L0.0 100.0" stroke="lightgray" fill="lightgrey"/><path d="M0.0 100.0 L20.0 100.0 L20.0 120.0 L0.0 120.0" stroke="lightgray" fill="lightgrey"/><path d="M20.0 20.0 L40.0 20.0 L40.0 40.0 L20.0 40.0" stroke="lightgray" fill="lightgrey"/><path d="M20.0 40.0 L40.0 40.0 L40.0 60.0 L20.0 60.0" stroke="lightgray" fill="lightgrey"/><path d="M20.0 60.0 L40.0 60.0 L40.0 80.0 L20.0 80.0" stroke="lightgray" fill="lightgrey"/><path d="M20.0 80.0 L40.0 80.0 L40.0 100.0 L20.0 100.0" stroke="lightgray" fill="lightgrey"/><path d="M20.0 100.0 L40.0 100.0 L40.0 120.0 L20.0 120.0" stroke="lightgray" fill="lightgrey"/><path d="M40.0 20.0 L60.0 20.0 L60.0 40.0 L40.0 40.0" stroke="lightgray" fill="lightgrey"/><path d="M40.0 40.0 L60.0 40.0 L60.0 60.0 L40.0 60.0" stroke="lightgray" fill="lightgrey"/><path d="M40.0 60.0 L60.0 60.0 L60.0 80.0 L40.0 80.0" stroke="lightgray" fill="lightgrey"/><path d="M40.0 80.0 L60.0 80.0 L60.0 100.0 L40.0 100.0" stroke="lightgray" fill="lightgrey"/><path d="M40.0 100.0 L60.0 100.0 L60.0 120.0 L40.0 120.0" stroke="lightgray" fill="lightgrey"/><path d="M60.0 20.0 L80.0 20.0 L80.0 40.0 L60.0 40.0" stroke="lightgray" fill="lightgrey"/><path d="M60.0 40.0 L80.0 40.0 L80.0 60.0 L60.0 60.0" stroke="lightgray" fill="lightgrey"/><path d="M60.0 60.0 L80.0 60.0 L80.0 80.0 L60.0 80.0" stroke="lightgray" fill="lightgrey"/><path d="M60.0 80.0 L80.0 80.0 L80.0 100.0 L60.0 100.0" stroke="lightgray" fill="lightgrey"/><path d="M60.0 100.0 L80.0 100.0 L80.0 120.0 L60.0 120.0" stroke="lightgray" fill="lightgrey"/><path d="M80.0 20.0 L100.0 20.0 L100.0 40.0 L80.0 40.0" stroke="lightgray" fill="lightgrey"/><path d="M80.0 40.0 L100.0 40.0 L100.0 60.0 L80.0 60.0" stroke="lightgray" fill="lightgrey"/><path d="M80.0 60.0 L100.0 60.0 L100.0 80.0 L80.0 80.0" stroke="lightgray" fill="lightgrey"/><path d="M80.0 80.0 L100.0 80.0 L100.0 100.0 L80.0 100.0" stroke="lightgray" fill="lightgrey"/><path d="M80.0 100.0 L100.0 100.0 L100.0 120.0 L80.0 120.0" stroke="lightgray" fill="lightgrey"/><path d="M0.0 20.0 L100.0 20.0 L100.0 120.0 L0.0 120.0 L0.0 20.0" stroke="black" fill="none"/><text font-size="20.0" text-anchor="middle" dy="-.2em" x="10.0" y="40.0" fill="grey">1</text><text font-size="20.0" text-anchor="middle" dy="-.2em" x="10.0" y="60.0" fill="grey"></text><text font-size="20.0" text-anchor="middle" dy="-.2em" x="10.0" y="80.0" fill="grey"></text><text font-size="20.0" text-anchor="middle" dy="-.2em" x="10.0" y="100.0" fill="grey"></text><text font-size="20.0" text-anchor="middle" dy="-.2em" x="10.0" y="120.0" fill="grey"></text><text font-size="20.0" text-anchor="middle" dy="-.2em" x="30.0" y="40.0" fill="grey"></text><text font-size="20.0" text-anchor="middle" dy="-.2em" x="30.0" y="60.0" fill="grey"></text><text font-size="20.0" text-anchor="middle" dy="-.2em" x="30.0" y="80.0" fill="grey"></text><text font-size="20.0" text-anchor="middle" dy="-.2em" x="30.0" y="100.0" fill="grey"></text><text font-size="20.0" text-anchor="middle" dy="-.2em" x="30.0" y="120.0" fill="grey"></text><text font-size="20.0" text-anchor="middle" dy="-.2em" x="50.0" y="40.0" fill="grey"></text><text font-size="20.0" text-anchor="middle" dy="-.2em" x="50.0" y="60.0" fill="grey"></text><text font-size="20.0" text-anchor="middle" dy="-.2em" x="50.0" y="80.0" fill="grey"></text><text font-size="20.0" text-anchor="middle" dy="-.2em" x="50.0" y="100.0" fill="grey"></text><text font-size="20.0" text-anchor="middle" dy="-.2em" x="50.0" y="120.0" fill="grey"></text><text font-size="20.0" text-anchor="middle" dy="-.2em" x="70.0" y="40.0" fill="grey"></text><text font-size="20.0" text-anchor="middle" dy="-.2em" x="70.0" y="60.0" fill="grey"></text><text font-size="20.0" text-anchor="middle" dy="-.2em" x="70.0" y="80.0" fill="grey"></text><text font-size="20.0" text-anchor="middle" dy="-.2em" x="70.0" y="100.0" fill="grey"></text><text font-size="20.0" text-anchor="middle" dy="-.2em" x="70.0" y="120.0" fill="grey"></text><text font-size="20.0" text-anchor="middle" dy="-.2em" x="90.0" y="40.0" fill="grey"></text><text font-size="20.0" text-anchor="middle" dy="-.2em" x="90.0" y="60.0" fill="grey"></text><text font-size="20.0" text-anchor="middle" dy="-.2em" x="90.0" y="80.0" fill="grey"></text><text font-size="20.0" text-anchor="middle" dy="-.2em" x="90.0" y="100.0" fill="grey"></text><text font-size="20.0" text-anchor="middle" dy="-.2em" x="90.0" y="120.0" fill="grey"></text><rect x="0" y="0" width="50" height="20" stroke="black" fill="white"/><rect x="0" y="0" width="20" height="20" stroke="black" fill="white"/><text font-size="20" text-anchor="middle" dy="-.2em" x="35" y="20" fill="black">1</text><text font-size="20" text-anchor="middle" dy="-.2em" x="10" y="20" fill="black">S</text><rect x="50" y="0" width="50" height="20" stroke="black" fill="white"/><text font-size="20" text-anchor="middle" dy="-.2em" x="85" y="20" fill="black">1</text><path d="M55.0 16.0 L58.0 16.0 L58.0 13.0 L58.0 10.0 L55.0 10.0 L55.0 7.0 L55.0 4.0 L58.0 4.0 L58.0 7.0 L61.0 7.0 L61.0 4.0 L64.0 4.0 L64.0 7.0 L67.0 7.0 L67.0 4.0 L70.0 4.0 L70.0 7.0 L70.0 10.0 L67.0 10.0 L67.0 13.0 L67.0 16.0 L70.0 16.0" stroke="black" fill="none"/><path d="M2.8571428571428568 96.66666666666667 L5.7142857142857135 96.66666666666667 L5.7142857142857135 93.33333333333334 L5.7142857142857135 90.00000000000001 L2.8571428571428568 90.00000000000001 L2.8571428571428568 86.66666666666667 L2.8571428571428568 83.33333333333334 L5.7142857142857135 83.33333333333334 L5.7142857142857135 86.66666666666667 L8.571428571428571 86.66666666666667 L8.571428571428571 83.33333333333334 L11.428571428571427 83.33333333333334 L11.428571428571427 86.66666666666667 L14.285714285714283 86.66666666666667 L14.285714285714283 83.33333333333334 L17.14285714285714 83.33333333333334 L17.14285714285714 86.66666666666667 L17.14285714285714 90.00000000000001 L14.285714285714283 90.00000000000001 L14.285714285714283 93.33333333333334 L14.285714285714283 96.66666666666667 L17.14285714285714 96.66666666666667" stroke="black" fill="none"/><path d="M42.857142857142854 56.66666666666667 L45.71428571428571 56.66666666666667 L45.71428571428571 53.333333333333336 L45.71428571428571 50.0 L42.857142857142854 50.0 L42.857142857142854 46.666666666666664 L42.857142857142854 43.33333333333333 L45.71428571428571 43.33333333333333 L45.71428571428571 46.666666666666664 L48.57142857142857 46.666666666666664 L48.57142857142857 43.33333333333333 L51.42857142857142 43.33333333333333 L51.42857142857142 46.666666666666664 L54.28571428571428 46.666666666666664 L54.28571428571428 43.33333333333333 L57.14285714285713 43.33333333333333 L57.14285714285713 46.666666666666664 L57.14285714285713 50.0 L54.28571428571428 50.0 L54.28571428571428 53.333333333333336 L54.28571428571428 56.66666666666667 L57.14285714285713 56.66666666666667" stroke="red" fill="none"/><path d="M42.857142857142854 116.66666666666666 L45.71428571428571 116.66666666666666 L45.71428571428571 113.33333333333333 L45.71428571428571 109.99999999999997 L42.857142857142854 109.99999999999997 L42.857142857142854 106.66666666666664 L42.857142857142854 103.3333333333333 L45.71428571428571 103.3333333333333 L45.71428571428571 106.66666666666664 L48.57142857142857 106.66666666666664 L48.57142857142857 103.3333333333333 L51.42857142857142 103.3333333333333 L51.42857142857142 106.66666666666664 L54.28571428571428 106.66666666666664 L54.28571428571428 103.3333333333333 L57.14285714285713 103.3333333333333 L57.14285714285713 106.66666666666664 L57.14285714285713 109.99999999999997 L54.28571428571428 109.99999999999997 L54.28571428571428 113.33333333333333 L54.28571428571428 116.66666666666666 L57.14285714285713 116.66666666666666" stroke="black" fill="none"/><path d="M82.85714285714286 36.66666666666667 L85.71428571428574 36.66666666666667 L85.71428571428574 33.333333333333336 L85.71428571428574 30.000000000000004 L82.85714285714286 30.000000000000004 L82.85714285714286 26.66666666666667 L82.85714285714286 23.333333333333336 L85.71428571428574 23.333333333333336 L85.71428571428574 26.66666666666667 L88.57142857142858 26.66666666666667 L88.57142857142858 23.333333333333336 L91.42857142857146 23.333333333333336 L91.42857142857146 26.66666666666667 L94.28571428571432 26.66666666666667 L94.28571428571432 23.333333333333336 L97.1428571428572 23.333333333333336 L97.1428571428572 26.66666666666667 L97.1428571428572 30.000000000000004 L94.28571428571432 30.000000000000004 L94.28571428571432 33.333333333333336 L94.28571428571432 36.66666666666667 L97.1428571428572 36.66666666666667" stroke="black" fill="none"/><path d="M82.85714285714286 96.66666666666667 L85.71428571428574 96.66666666666667 L85.71428571428574 93.33333333333334 L85.71428571428574 90.00000000000001 L82.85714285714286 90.00000000000001 L82.85714285714286 86.66666666666667 L82.85714285714286 83.33333333333334 L85.71428571428574 83.33333333333334 L85.71428571428574 86.66666666666667 L88.57142857142858 86.66666666666667 L88.57142857142858 83.33333333333334 L91.42857142857146 83.33333333333334 L91.42857142857146 86.66666666666667 L94.28571428571432 86.66666666666667 L94.28571428571432 83.33333333333334 L97.1428571428572 83.33333333333334 L97.1428571428572 86.66666666666667 L97.1428571428572 90.00000000000001 L94.28571428571432 90.00000000000001 L94.28571428571432 93.33333333333334 L94.28571428571432 96.66666666666667 L97.1428571428572 96.66666666666667" stroke="black" fill="none"/><path d="M20.0 20.0 L20.0 40.0" stroke="black" fill="none"/><path d="M0.0 40.0 L20.0 40.0" stroke="black" fill="none"/></svg>
