<?xml version='1.0' encoding='ASCII'?>
<svg xmlns="http://www.w3.org/2000/svg" xmlns:xlink="http://www.w3.org/1999/xlink" width="100" height="120" viewBox="0 0 100 120">
                        <defs>
                        </defs>
                        <rect x="0" y="20" width="100" height="100" stroke="black" fill="white"/><path d="M0.0 20.0 L16.666666666666668 20.0 L16.666666666666668 36.66666666666667 L0.0 36.66666666666667" stroke="lightgray" fill="lightgrey"/><path d="M0.0 36.66666666666667 L16.666666666666668 36.66666666666667 L16.666666666666668 53.333333333333336 L0.0 53.333333333333336" stroke="lightgray" fill="lightgrey"/><path d="M0.0 53.333333333333336 L16.666666666666668 53.333333333333336 L16.666666666666668 70.0 L0.0 70.0" stroke="lightgray" fill="lightgrey"/><path d="M0.0 70.0 L16.666666666666668 70.0 L16.666666666666668 86.66666666666667 L0.0 86.66666666666667" stroke="lightgray" fill="lightgrey"/><path d="M0.0 86.66666666666667 L16.666666666666668 86.66666666666667 L16.666666666666668 103.33333333333333 L0.0 103.33333333333333" stroke="lightgray" fill="lightgrey"/><path d="M0.0 103.33333333333333 L16.666666666666668 103.33333333333333 L16.666666666666668 120.0 L0.0 120.0" stroke="lightgray" fill="lightgrey"/><path d="M16.666666666666668 20.0 L33.333333333333336 20.0 L33.333333333333336 36.66666666666667 L16.666666666666668 36.66666666666667" stroke="lightgray" fill="lightgrey"/><path d="M16.666666666666668 36.66666666666667 L33.333333333333336 36.66666666666667 L33.333333333333336 53.333333333333336 L16.666666666666668 53.333333333333336" stroke="lightgray" fill="lightgrey"/><path d="M16.666666666666668 53.333333333333336 L33.333333333333336 53.333333333333336 L33.333333333333336 70.0 L16.666666666666668 70.0" stroke="lightgray" fill="lightgrey"/><path d="M16.666666666666668 70.0 L33.333333333333336 70.0 L33.333333333333336 86.66666666666667 L16.666666666666668 86.66666666666667" stroke="lightgray" fill="lightgrey"/><path d="M16.666666666666668 86.66666666666667 L33.333333333333336 86.66666666666667 L33.333333333333336 103.33333333333333 L16.666666666666668 103.33333333333333" stroke="lightgray" fill="lightgrey"/><path d="M16.666666666666668 103.33333333333333 L33.333333333333336 103.33333333333333 L33.333333333333336 120.0 L16.666666666666668 120.0" stroke="lightgray" fill="lightgrey"/><path d="M33.333333333333336 20.0 L50.0 20.0 L50.0 36.66666666666667 L33.333333333333336 36.66666666666667" stroke="lightgray" fill="lightgrey"/><path d="M33.333333333333336 36.66666666666667 L50.0 36.66666666666667 L50.0 53.333333333333336 L33.333333333333336 53.333333333333336" stroke="lightgray" fill="lightgrey"/><path d="M33.333333333333336 53.333333333333336 L50.0 53.333333333333336 L50.0 70.0 L33.333333333333336 70.0" stroke="lightgray" fill="lightgrey"/><path d="M33.333333333333336 70.0 L50.0 70.0 L50.0 86.66666666666667 L33.333333333333336 86.66666666666667" stroke="lightgray" fill="lightgrey"/><path d="M33.333333333333336 86.66666666666667 L50.0 86.66666666666667 L50.0 103.33333333333333 L33.333333333333336 103.33333333333333" stroke="lightgray" fill="lightgrey"/><path d="M33.333333333333336 103.33333333333333 L50.0 103.33333333333333 L50.0 120.0 L33.333333333333336 120.0" stroke="lightgray" fill="lightgrey"/><path d="M50.0 20.0 L66.66666666666667 20.0 L66.66666666666667 36.66666666666667 L50.0 36.66666666666667" stroke="lightgray" fill="lightgrey"/><path d="M50.0 36.66666666666667 L66.66666666666667 36.66666666666667 L66.66666666666667 53.333333333333336 L50.0 53.333333333333336" stroke="lightgray" fill="lightgrey"/><path d="M50.0 53.333333333333336 L66.66666666666667 53.333333333333336 L66.66666666666667 70.0 L50.0 70.0" stroke="lightgray" fill="lightgrey"/><path d="M50.0 70.0 L66.66666666666667 70.0 L66.66666666666667 86.66666666666667 L50.0 86.66666666666667" stroke="lightgray" fill="lightgrey"/><path d="M50.0 86.66666666666667 L66.66666666666667 86.66666666666667 L66.66666666666667 103.33333333333333 L50.0 103.33333333333333" stroke="lightgray" fill="lightgrey"/><path d="M50.0 103.33333333333333 L66.66666666666667 103.33333333333333 L66.66666666666667 120.0 L50.0 120.0" stroke="lightgray" fill="lightgrey"/><path d="M66.66666666666667 20.0 L83.33333333333333 20.0 L83.33333333333333 36.66666666666667 L66.66666666666667 36.66666666666667" stroke="lightgray" fill="lightgrey"/><path d="M66.66666666666667 36.66666666666667 L83.33333333333333 36.66666666666667 L83.33333333333333 53.333333333333336 L66.66666666666667 53.333333333333336" stroke="lightgray" fill="lightgrey"/><path d="M66.66666666666667 53.333333333333336 L83.33333333333333 53.333333333333336 L83.33333333333333 70.0 L66.66666666666667 70.0" stroke="lightgray" fill="lightgrey"/><path d="M66.66666666666667 70.0 L83.33333333333333 70.0 L83.33333333333333 86.66666666666667 L66.66666666666667 86.66666666666667" stroke="lightgray" fill="lightgrey"/><path d="M66.66666666666667 86.66666666666667 L83.33333333333333 86.66666666666667 L83.33333333333333 103.33333333333333 L66.66666666666667 103.33333333333333" stroke="lightgray" fill="lightgrey"/><path d="M66.66666666666667 103.33333333333333 L83.33333333333333 103.33333333333333 L83.33333333333333 120.0 L66.66666666666667 120.0" stroke="lightgray" fill="lightgrey"/><path d="M83.33333333333333 20.0 L100.0 20.0 L100.0 36.66666666666667 L83.33333333333333 36.66666666666667" stroke="lightgray" fill="lightgrey"/><path d="M83.33333333333333 36.66666666666667 L100.0 36.66666666666667 L100.0 53.333333333333336 L83.33333333333333 53.333333333333336" stroke="lightgray" fill="lightgrey"/><path d="M83.33333333333333 53.333333333333336 L100.0 53.333333333333336 L100.0 70.0 L83.33333333333333 70.0" stroke="lightgray" fill="lightgrey"/><path d="M83.33333333333333 70.0 L100.0 70.0 L100.0 86.66666666666667 L83.33333333333333 86.66666666666667" stroke="lightgray" fill="lightgrey"/><path d="M83.33333333333333 86.66666666666667 L100.0 86.66666666666667 L100.0 103.33333333333333 L83.33333333333333 103.33333333333333" stroke="lightgray" fill="lightgrey"/><path d="M83.33333333333333 103.33333333333333 L100.0 103.33333333333333 L100.0 120.0 L83.33333333333333 120.0" stroke="lightgray" fill="lightgrey"/><path d="M0.0 20.0 L100.0 20.0 L100.0 120.0 L0.0 120.0 L0.0 20.0" stroke="black" fill="none"/><rect x="0" y="0" width="50" height="20" stroke="black" fill="white"/><rect x="0" y="0" width="20" height="20" stroke="black" fill="white"/><text font-size="20" text-anchor="middle" dy="-.2em" x="35" y="20" fill="black">0</text><rect x="50" y="0" width="50" height="20" stroke="black" fill="white"/><text font-size="20" text-anchor="middle" dy="-.2em" x="85" y="20" fill="black">0</text><path d="M55.0 16.0 L58.0 16.0 L58.0 13.0 L58.0 10.0 L55.0 10.0 L55.0 7.0 L55.0 4.0 L58.0 4.0 L58.0 7.0 L61.0 7.0 L61.0 4.0 L64.0 4.0 L64.0 7.0 L67.0 7.0 L67.0 4.0 L70.0 4.0 L70.0 7.0 L70.0 10.0 L67.0 10.0 L67.0 13.0 L67.0 16.0 L70.0 16.0" stroke="black" fill="none"/><path d="M2.380952380952381 33.88888888888889 L4.761904761904762 33.88888888888889 L4.761904761904762 31.111111111111114 L4.761904761904762 28.333333333333336 L2.380952380952381 28.333333333333336 L2.380952380952381 25.555555555555557 L2.380952380952381 22.77777777777778 L4.761904761904762 22.77777777777778 L4.761904761904762 25.555555555555557 L7.142857142857142 25.555555555555557 L7.142857142857142 22.77777777777778 L9.523809523809524 22.77777777777778 L9.523809523809524 25.555555555555557 L11.904761904761903 25.555555555555557 L11.904761904761903 22.77777777777778 L14.285714285714283 22.77777777777778 L14.285714285714283 25.555555555555557 L14.285714285714283 28.333333333333336 L11.904761904761903 28.333333333333336 L11.904761904761903 31.111111111111114 L11.904761904761903 33.88888888888889 L14.285714285714283 33.88888888888889" stroke="black" fill="none"/><path d="M19.047619047619047 83.88888888888889 L21.428571428571427 83.88888888888889 L21.428571428571427 81.11111111111111 L21.428571428571427 78.33333333333334 L19.047619047619047 78.33333333333334 L19.047619047619047 75.55555555555557 L19.047619047619047 72.7777777777778 L21.428571428571427 72.7777777777778 L21.428571428571427 75.55555555555557 L23.809523809523807 75.55555555555557 L23.809523809523807 72.7777777777778 L26.190476190476186 72.7777777777778 L26.190476190476186 75.55555555555557 L28.571428571428566 75.55555555555557 L28.571428571428566 72.7777777777778 L30.952380952380945 72.7777777777778 L30.952380952380945 75.55555555555557 L30.952380952380945 78.33333333333334 L28.571428571428566 78.33333333333334 L28.571428571428566 81.11111111111111 L28.571428571428566 83.88888888888889 L30.952380952380945 83.88888888888889" stroke="black" fill="none"/><path d="M69.04761904761905 83.88888888888889 L71.42857142857144 83.88888888888889 L71.42857142857144 81.11111111111111 L71.42857142857144 78.33333333333334 L69.04761904761905 78.33333333333334 L69.04761904761905 75.55555555555557 L69.04761904761905 72.7777777777778 L71.42857142857144 72.7777777777778 L71.42857142857144 75.55555555555557 L73.80952380952382 75.55555555555557 L73.80952380952382 72.7777777777778 L76.19047619047622 72.7777777777778 L76.19047619047622 75.55555555555557 L78.5714285714286 75.55555555555557 L78.5714285714286 72.7777777777778 L80.95238095238099 72.7777777777778 L80.95238095238099 75.55555555555557 L80.95238095238099 78.33333333333334 L78.5714285714286 78.33333333333334 L78.5714285714286 81.11111111111111 L78.5714285714286 83.88888888888889 L80.95238095238099 83.88888888888889" stroke="black" fill="none"/><path d="M85.71428571428572 33.88888888888889 L88.09523809523812 33.88888888888889 L88.09523809523812 31.111111111111114 L88.09523809523812 28.333333333333336 L85.71428571428572 28.333333333333336 L85.71428571428572 25.555555555555557 L85.71428571428572 22.77777777777778 L88.09523809523812 22.77777777777778 L88.09523809523812 25.555555555555557 L90.4761904761905 25.555555555555557 L90.4761904761905 22.77777777777778 L92.85714285714289 22.77777777777778 L92.85714285714289 25.555555555555557 L95.23809523809528 25.555555555555557 L95.23809523809528 22.77777777777778 L97.61904761904765 22.77777777777778 L97.61904761904765 25.555555555555557 L97.61904761904765 28.333333333333336 L95.23809523809528 28.333333333333336 L95.23809523809528 31.111111111111114 L95.23809523809528 33.88888888888889 L97.61904761904765 33.88888888888889" stroke="red" fill="none"/></svg>
