<?xml version='1.0' encoding='ASCII'?>
<svg xmlns="http://www.w3.org/2000/svg" xmlns:xlink="http://www.w3.org/1999/xlink" width="100" height="120" viewBox="0 0 100 120">
                        <defs>
                        </defs>
                        <rect x="0" y="20" width="100" height="100" stroke="black" fill="white"/><path d="M0.0 20.0 L16.666666666666668 20.0 L16.666666666666668 36.66666666666667 L0.0 36.66666666666667" stroke="lightgray" fill="lightgrey"/><path d="M0.0 36.66666666666667 L16.666666666666668 36.66666666666667 L16.666666666666668 53.333333333333336 L0.0 53.333333333333336" stroke="lightgray" fill="lightgrey"/><path d="M0.0 53.333333333333336 L16.666666666666668 53.333333333333336 L16.666666666666668 70.0 L0.0 70.0" stroke="lightgray" fill="lightgrey"/><path d="M0.0 70.0 L16.666666666666668 70.0 L16.666666666666668 86.66666666666667 L0.0 86.66666666666667" stroke="lightgray" fill="lightgrey"/><path d="M0.0 86.66666666666667 L16.666666666666668 86.66666666666667 L16.666666666666668 103.33333333333333 L0.0 103.33333333333333" stroke="lightgray" fill="lightgrey"/><path d="M0.0 103.33333333333333 L16.666666666666668 103.33333333333333 L16.666666666666668 120.0 L0.0 120.0" stroke="lightgray" fill="lightgrey"/><path d="M16.666666666666668 20.0 L33.333333333333336 20.0 L33.333333333333336 36.66666666666667 L16.666666666666668 36.66666666666667" stroke="lightgray" fill="lightgrey"/><path d="M16.666666666666668 36.66666666666667 L33.333333333333336 36.66666666666667 L33.333333333333336 53.333333333333336 L16.666666666666668 53.333333333333336" stroke="lightgray" fill="lightgrey"/><path d="M16.666666666666668 53.333333333333336 L33.333333333333336 53.333333333333336 L33.333333333333336 70.0 L16.666666666666668 70.0" stroke="lightgray" fill="lightgrey"/><path d="M16.666666666666668 70.0 L33.333333333333336 70.0 L33.333333333333336 86.66666666666667 L16.666666666666668 86.66666666666667" stroke="lightgray" fill="lightgrey"/><path d="M16.666666666666668 86.66666666666667 L33.333333333333336 86.66666666666667 L33.333333333333336 103.33333333333333 L16.666666666666668 103.33333333333333" stroke="lightgray" fill="lightgrey"/><path d="M16.666666666666668 103.33333333333333 L33.333333333333336 103.33333333333333 L33.333333333333336 120.0 L16.666666666666668 120.0" stroke="lightgray" fill="lightgrey"/><path d="M33.333333333333336 20.0 L50.0 20.0 L50.0 36.66666666666667 L33.333333333333336 36.66666666666667" stroke="lightgray" fill="lightgrey"/><path d="M33.333333333333336 36.66666666666667 L50.0 36.66666666666667 L50.0 53.333333333333336 L33.333333333333336 53.333333333333336" stroke="lightgray" fill="lightgrey"/><path d="M33.333333333333336 53.333333333333336 L50.0 53.333333333333336 L50.0 70.0 L33.333333333333336 70.0" stroke="lightgray" fill="lightgrey"/><path d="M33.333333333333336 70.0 L50.0 70.0 L50.0 86.66666666666667 L33.333333333333336 86.66666666666667" stroke="lightgray" fill="lightgrey"/><path d="M33.333333333333336 86.66666666666667 L50.0 86.66666666666667 L50.0 103.33333333333333 L33.333333333333336 103.33333333333333" stroke="lightgray" fill="lightgrey"/><path d="M33.333333333333336 103.33333333333333 L50.0 103.33333333333333 L50.0 120.0 L33.333333333333336 120.0" stroke="lightgray" fill="lightgrey"/><path d="M50.0 20.0 L66.66666666666667 20.0 L66.66666666666667 36.66666666666667 L50.0 36.66666666666667" stroke="lightgray" fill="lightgrey"/><path d="M50.0 36.66666666666667 L66.66666666666667 36.66666666666667 L66.66666666666667 53.333333333333336 L50.0 53.333333333333336" stroke="lightgray" fill="lightgrey"/><path d="M50.0 53.333333333333336 L66.66666666666667 53.333333333333336 L66.66666666666667 70.0 L50.0 70.0" stroke="lightgray" fill="lightgrey"/><path d="M50.0 70.0 L66.66666666666667 70.0 L66.66666666666667 86.66666666666667 L50.0 86.66666666666667" stroke="lightgray" fill="lightgrey"/><path d="M50.0 86.66666666666667 L66.66666666666667 86.66666666666667 L66.66666666666667 103.33333333333333 L50.0 103.33333333333333" stroke="lightgray" fill="lightgrey"/><path d="M50.0 103.33333333333333 L66.66666666666667 103.33333333333333 L66.66666666666667 120.0 L50.0 120.0" stroke="lightgray" fill="lightgrey"/><path d="M66.66666666666667 20.0 L83.33333333333333 20.0 L83.33333333333333 36.66666666666667 L66.66666666666667 36.66666666666667" stroke="lightgray" fill="lightgrey"/><path d="M66.66666666666667 36.66666666666667 L83.33333333333333 36.66666666666667 L83.33333333333333 53.333333333333336 L66.66666666666667 53.333333333333336" stroke="lightgray" fill="lightgrey"/><path d="M66.66666666666667 53.333333333333336 L83.33333333333333 53.333333333333336 L83.33333333333333 70.0 L66.66666666666667 70.0" stroke="lightgray" fill="lightgrey"/><path d="M66.66666666666667 70.0 L83.33333333333333 70.0 L83.33333333333333 86.66666666666667 L66.66666666666667 86.66666666666667" stroke="lightgray" fill="lightgrey"/><path d="M66.66666666666667 86.66666666666667 L83.33333333333333 86.66666666666667 L83.33333333333333 103.33333333333333 L66.66666666666667 103.33333333333333" stroke="lightgray" fill="lightgrey"/><path d="M66.66666666666667 103.33333333333333 L83.33333333333333 103.33333333333333 L83.33333333333333 120.0 L66.66666666666667 120.0" stroke="lightgray" fill="lightgrey"/><path d="M83.33333333333333 20.0 L100.0 20.0 L100.0 36.66666666666667 L83.33333333333333 36.66666666666667" stroke="lightgray" fill="lightgrey"/><path d="M83.33333333333333 36.66666666666667 L100.0 36.66666666666667 L100.0 53.333333333333336 L83.33333333333333 53.333333333333336" stroke="lightgray" fill="lightgrey"/><path d="M83.33333333333333 53.333333333333336 L100.0 53.333333333333336 L100.0 70.0 L83.33333333333333 70.0" stroke="lightgray" fill="lightgrey"/><path d="M83.33333333333333 70.0 L100.0 70.0 L100.0 86.66666666666667 L83.33333333333333 86.66666666666667" stroke="lightgray" fill="lightgrey"/><path d="M83.33333333333333 86.66666666666667 L100.0 86.66666666666667 L100.0 103.33333333333333 L83.33333333333333 103.33333333333333" stroke="lightgray" fill="lightgrey"/><path d="M83.33333333333333 103.33333333333333 L100.0 103.33333333333333 L100.0 120.0 L83.33333333333333 120.0" stroke="lightgray" fill="lightgrey"/><path d="M0.0 20.0 L100.0 20.0 L100.0 120.0 L0.0 120.0 L0.0 20.0" stroke="black" fill="none"/><rect x="0" y="0" width="50" height="20" stroke="black" fill="white"/><rect x="0" y="0" width="20" height="20" stroke="black" fill="white"/><text font-size="20" text-anchor="middle" dy="-.2em" x="35" y="20" fill="black">0</text><rect x="50" y="0" width="50" height="20" stroke="black" fill="white"/><text font-size="20" text-anchor="middle" dy="-.2em" x="85" y="20" fill="black">0</text><path d="M55.0 16.0 L58.0 16.0 L58.0 13.0 L58.0 10.0 L55.0 10.0 L55.0 7.0 L55.0 4.0 L58.0 4.0 L58.0 7.0 L61.0 7.0 L61.0 4.0 L64.0 4.0 L64.0 7.0 L67.0 7.0 L67.0 4.0 L70.0 4.0 L70.0 7.0 L70.0 10.0 L67.0 10.0 L67.0 13.0 L67.0 16.0 L70.0 16.0" stroke="black" fill="none"/><path d="M19.047619047619047 67.22222222222223 L21.428571428571427 67.22222222222223 L21.428571428571427 64.44444444444446 L21.428571428571427 61.66666666666668 L19.047619047619047 61.66666666666668 L19.047619047619047 58.8888888888889 L19.047619047619047 56.11111111111112 L21.428571428571427 56.11111111111112 L21.428571428571427 58.8888888888889 L23.809523809523807 58.8888888888889 L23.809523809523807 56.11111111111112 L26.190476190476186 56.11111111111112 L26.190476190476186 58.8888888888889 L28.571428571428566 58.8888888888889 L28.571428571428566 56.11111111111112 L30.952380952380945 56.11111111111112 L30.952380952380945 58.8888888888889 L30.952380952380945 61.66666666666668 L28.571428571428566 61.66666666666668 L28.571428571428566 64.44444444444446 L28.571428571428566 67.22222222222223 L30.952380952380945 67.22222222222223" stroke="black" fill="none"/><path d="M35.714285714285715 117.22222222222221 L38.095238095238095 117.22222222222221 L38.095238095238095 114.44444444444444 L38.095238095238095 111.66666666666664 L35.714285714285715 111.66666666666664 L35.714285714285715 108.88888888888887 L35.714285714285715 106.11111111111109 L38.095238095238095 106.11111111111109 L38.095238095238095 108.88888888888887 L40.476190476190474 108.88888888888887 L40.476190476190474 106.11111111111109 L42.857142857142854 106.11111111111109 L42.857142857142854 108.88888888888887 L45.238095238095234 108.88888888888887 L45.238095238095234 106.11111111111109 L47.61904761904761 106.11111111111109 L47.61904761904761 108.88888888888887 L47.61904761904761 111.66666666666664 L45.238095238095234 111.66666666666664 L45.238095238095234 114.44444444444444 L45.238095238095234 117.22222222222221 L47.61904761904761 117.22222222222221" stroke="black" fill="none"/><path d="M85.71428571428572 50.55555555555556 L88.09523809523812 50.55555555555556 L88.09523809523812 47.777777777777786 L88.09523809523812 45.0 L85.71428571428572 45.0 L85.71428571428572 42.222222222222214 L85.71428571428572 39.44444444444444 L88.09523809523812 39.44444444444444 L88.09523809523812 42.222222222222214 L90.4761904761905 42.222222222222214 L90.4761904761905 39.44444444444444 L92.85714285714289 39.44444444444444 L92.85714285714289 42.222222222222214 L95.23809523809528 42.222222222222214 L95.23809523809528 39.44444444444444 L97.61904761904765 39.44444444444444 L97.61904761904765 42.222222222222214 L97.61904761904765 45.0 L95.23809523809528 45.0 L95.23809523809528 47.777777777777786 L95.23809523809528 50.55555555555556 L97.61904761904765 50.55555555555556" stroke="red" fill="none"/><path d="M85.71428571428572 100.55555555555556 L88.09523809523812 100.55555555555556 L88.09523809523812 97.77777777777777 L88.09523809523812 94.99999999999999 L85.71428571428572 94.99999999999999 L85.71428571428572 92.2222222222222 L85.71428571428572 89.44444444444441 L88.09523809523812 89.44444444444441 L88.09523809523812 92.2222222222222 L90.4761904761905 92.2222222222222 L90.4761904761905 89.44444444444441 L92.85714285714289 89.44444444444441 L92.85714285714289 92.2222222222222 L95.23809523809528 92.2222222222222 L95.23809523809528 89.44444444444441 L97.61904761904765 89.44444444444441 L97.61904761904765 92.2222222222222 L97.61904761904765 94.99999999999999 L95.23809523809528 94.99999999999999 L95.23809523809528 97.77777777777777 L95.23809523809528 100.55555555555556 L97.61904761904765 100.55555555555556" stroke="black" fill="none"/></svg>
