<?xml version='1.0' encoding='ASCII'?>
<svg xmlns="http://www.w3.org/2000/svg" xmlns:xlink="http://www.w3.org/1999/xlink" width="100" height="120" viewBox="0 0 100 120">
                        <defs>
                        </defs>
                        <rect x="0" y="20" width="100" height="100" stroke="black" fill="white"/><path d="M0.0 20.0 L50.0 20.0 L50.0 70.0 L0.0 70.0" stroke="lightgray" fill="lightgrey"/><path d="M0.0 70.0 L50.0 70.0 L50.0 120.0 L0.0 120.0" stroke="lightgray" fill="white"/><path d="M50.0 20.0 L100.0 20.0 L100.0 70.0 L50.0 70.0" stroke="lightgray" fill="lightgrey"/><path d="M50.0 70.0 L100.0 70.0 L100.0 120.0 L50.0 120.0" stroke="lightgray" fill="lightgrey"/><path d="M0.0 20.0 L100.0 20.0 L100.0 120.0 L0.0 120.0 L0.0 20.0" stroke="black" fill="none"/><rect x="0" y="0" width="50" height="20" stroke="black" fill="white"/><rect x="0" y="0" width="20" height="20" stroke="black" fill="white"/><text font-size="20" text-anchor="middle" dy="-.2em" x="35" y="20" fill="black">1</text><text font-size="20" text-anchor="middle" dy="-.2em" x="10" y="20" fill="black">S</text><rect x="50" y="0" width="50" height="20" stroke="black" fill="white"/><text font-size="20" text-anchor="middle" dy="-.2em" x="85" y="20" fill="black">1</text><path d="M55.0 16.0 L58.0 16.0 L58.0 13.0 L58.0 10.0 L55.0 10.0 L55.0 7.0 L55.0 4.0 L58.0 4.0 L58.0 7.0 L61.0 7.0 L61.0 4.0 L64.0 4.0 L64.0 7.0 L67.0 7.0 L67.0 4.0 L70.0 4.0 L70.0 7.0 L70.0 10.0 L67.0 10.0 L67.0 13.0 L67.0 16.0 L70.0 16.0" stroke="black" fill="none"/><path d="M57.14285714285714 61.66666666666667 L64.28571428571428 61.66666666666667 L64.28571428571428 53.333333333333336 L64.28571428571428 45.00000000000001 L57.14285714285714 45.00000000000001 L57.14285714285714 36.66666666666667 L57.14285714285714 28.333333333333343 L64.28571428571428 28.333333333333343 L64.28571428571428 36.66666666666667 L71.42857142857142 36.66666666666667 L71.42857142857142 28.333333333333343 L78.57142857142856 28.333333333333343 L78.57142857142856 36.66666666666667 L85.7142857142857 36.66666666666667 L85.7142857142857 28.333333333333343 L92.85714285714283 28.333333333333343 L92.85714285714283 36.66666666666667 L92.85714285714283 45.00000000000001 L85.7142857142857 45.00000000000001 L85.7142857142857 53.333333333333336 L85.7142857142857 61.66666666666667 L92.85714285714283 61.66666666666667" stroke="red" fill="none"/><path d="M50.0 70.0 L50.0 120.0" stroke="black" fill="none"/><path d="M0.0 70.0 L50.0 70.0" stroke="black" fill="none"/></svg>
