<?xml version='1.0' encoding='ASCII'?>
<svg xmlns="http://www.w3.org/2000/svg" xmlns:xlink="http://www.w3.org/1999/xlink" width="100" height="120" viewBox="0 0 100 120">
                        <defs>
                        </defs>
                        <rect x="0" y="20" width="100" height="100" stroke="black" fill="white"/><path d="M0.0 20.0 L20.0 20.0 L20.0 40.0 L0.0 40.0" stroke="lightgray" fill="lightgrey"/><path d="M0.0 40.0 L20.0 40.0 L20.0 60.0 L0.0 60.0" stroke="lightgray" fill="lightgrey"/><path d="M0.0 60.0 L20.0 60.0 L20.0 80.0 L0.0 80.0" stroke="lightgray" fill="lightgrey"/><path d="M0.0 80.0 L20.0 80.0 L20.0 100.0 L0.0 100.0" stroke="lightgray" fill="lightgrey"/><path d="M0.0 100.0 L20.0 100.0 L20.0 120.0 L0.0 120.0" stroke="lightgray" fill="lightgrey"/><path d="M20.0 20.0 L40.0 20.0 L40.0 40.0 L20.0 40.0" stroke="lightgray" fill="lightgrey"/><path d="M20.0 40.0 L40.0 40.0 L40.0 60.0 L20.0 60.0" stroke="lightgray" fill="lightgrey"/><path d="M20.0 60.0 L40.0 60.0 L40.0 80.0 L20.0 80.0" stroke="lightgray" fill="lightgrey"/><path d="M20.0 80.0 L40.0 80.0 L40.0 100.0 L20.0 100.0" stroke="lightgray" fill="lightgrey"/><path d="M20.0 100.0 L40.0 100.0 L40.0 120.0 L20.0 120.0" stroke="lightgray" fill="lightgrey"/><path d="M40.0 20.0 L60.0 20.0 L60.0 40.0 L40.0 40.0" stroke="lightgray" fill="lightgrey"/><path d="M40.0 40.0 L60.0 40.0 L60.0 60.0 L40.0 60.0" stroke="lightgray" fill="lightgrey"/><path d="M40.0 60.0 L60.0 60.0 L60.0 80.0 L40.0 80.0" stroke="lightgray" fill="lightgrey"/><path d="M40.0 80.0 L60.0 80.0 L60.0 100.0 L40.0 100.0" stroke="lightgray" fill="lightgrey"/><path d="M40.0 100.0 L60.0 100.0 L60.0 120.0 L40.0 120.0" stroke="lightgray" fill="lightgrey"/><path d="M60.0 20.0 L80.0 20.0 L80.0 40.0 L60.0 40.0" stroke="lightgray" fill="lightgrey"/><path d="M60.0 40.0 L80.0 40.0 L80.0 60.0 L60.0 60.0" stroke="lightgray" fill="lightgrey"/><path d="M60.0 60.0 L80.0 60.0 L80.0 80.0 L60.0 80.0" stroke="lightgray" fill="lightgrey"/><path d="M60.0 80.0 L80.0 80.0 L80.0 100.0 L60.0 100.0" stroke="lightgray" fill="lightgrey"/><path d="M60.0 100.0 L80.0 100.0 L80.0 120.0 L60.0 120.0" stroke="lightgray" fill="lightgrey"/><path d="M80.0 20.0 L100.0 20.0 L100.0 40.0 L80.0 40.0" stroke="lightgray" fill="lightgrey"/><path d="M80.0 40.0 L100.0 40.0 L100.0 60.0 L80.0 60.0" stroke="lightgray" fill="lightgrey"/><path d="M80.0 60.0 L100.0 60.0 L100.0 80.0 L80.0 80.0" stroke="lightgray" fill="lightgrey"/><path d="M80.0 80.0 L100.0 80.0 L100.0 100.0 L80.0 100.0" stroke="lightgray" fill="lightgrey"/><path d="M80.0 100.0 L100.0 100.0 L100.0 120.0 L80.0 120.0" stroke="lightgray" fill="lightgrey"/><path d="M0.0 20.0 L100.0 20.0 L100.0 120.0 L0.0 120.0 L0.0 20.0" stroke="black" fill="none"/><rect x="0" y="0" width="50" height="20" stroke="black" fill="white"/><rect x="0" y="0" width="20" height="20" stroke="black" fill="white"/><text font-size="20" text-anchor="middle" dy="-.2em" x="35" y="20" fill="black">0</text><rect x="50" y="0" width="50" height="20" stroke="black" fill="white"/><text font-size="20" text-anchor="middle" dy="-.2em" x="85" y="20" fill="black">0</text><path d="M55.0 16.0 L58.0 16.0 L58.0 13.0 L58.0 10.0 L55.0 10.0 L55.0 7.0 L55.0 4.0 L58.0 4.0 L58.0 7.0 L61.0 7.0 L61.0 4.0 L64.0 4.0 L64.0 7.0 L67.0 7.0 L67.0 4.0 L70.0 4.0 L70.0 7.0 L70.0 10.0 L67.0 10.0 L67.0 13.0 L67.0 16.0 L70.0 16.0" stroke="black" fill="none"/><path d="M2.8571428571428568 56.66666666666667 L5.7142857142857135 56.66666666666667 L5.7142857142857135 53.333333333333336 L5.7142857142857135 50.0 L2.8571428571428568 50.0 L2.8571428571428568 46.666666666666664 L2.8571428571428568 43.33333333333333 L5.7142857142857135 43.33333333333333 L5.7142857142857135 46.666666666666664 L8.571428571428571 46.666666666666664 L8.571428571428571 43.33333333333333 L11.428571428571427 43.33333333333333 L11.428571428571427 46.666666666666664 L14.285714285714283 46.666666666666664 L14.285714285714283 43.33333333333333 L17.14285714285714 43.33333333333333 L17.14285714285714 46.666666666666664 L17.14285714285714 50.0 L14.285714285714283 50.0 L14.285714285714283 53.333333333333336 L14.285714285714283 56.66666666666667 L17.14285714285714 56.66666666666667" stroke="black" fill="none"/><path d="M22.857142857142854 116.66666666666666 L25.71428571428571 116.66666666666666 L25.71428571428571 113.33333333333333 L25.71428571428571 109.99999999999997 L22.857142857142854 109.99999999999997 L22.857142857142854 106.66666666666664 L22.857142857142854 103.3333333333333 L25.71428571428571 103.3333333333333 L25.71428571428571 106.66666666666664 L28.571428571428566 106.66666666666664 L28.571428571428566 103.3333333333333 L31.428571428571423 103.3333333333333 L31.428571428571423 106.66666666666664 L34.28571428571428 106.66666666666664 L34.28571428571428 103.3333333333333 L37.14285714285713 103.3333333333333 L37.14285714285713 106.66666666666664 L37.14285714285713 109.99999999999997 L34.28571428571428 109.99999999999997 L34.28571428571428 113.33333333333333 L34.28571428571428 116.66666666666666 L37.14285714285713 116.66666666666666" stroke="black" fill="none"/><path d="M62.857142857142854 36.66666666666667 L65.71428571428571 36.66666666666667 L65.71428571428571 33.333333333333336 L65.71428571428571 30.000000000000004 L62.857142857142854 30.000000000000004 L62.857142857142854 26.66666666666667 L62.857142857142854 23.333333333333336 L65.71428571428571 23.333333333333336 L65.71428571428571 26.66666666666667 L68.57142857142857 26.66666666666667 L68.57142857142857 23.333333333333336 L71.42857142857142 23.333333333333336 L71.42857142857142 26.66666666666667 L74.28571428571428 26.66666666666667 L74.28571428571428 23.333333333333336 L77.14285714285714 23.333333333333336 L77.14285714285714 26.66666666666667 L77.14285714285714 30.000000000000004 L74.28571428571428 30.000000000000004 L74.28571428571428 33.333333333333336 L74.28571428571428 36.66666666666667 L77.14285714285714 36.66666666666667" stroke="black" fill="none"/><path d="M82.85714285714286 116.66666666666666 L85.71428571428574 116.66666666666666 L85.71428571428574 113.33333333333333 L85.71428571428574 109.99999999999997 L82.85714285714286 109.99999999999997 L82.85714285714286 106.66666666666664 L82.85714285714286 103.3333333333333 L85.71428571428574 103.3333333333333 L85.71428571428574 106.66666666666664 L88.57142857142858 106.66666666666664 L88.57142857142858 103.3333333333333 L91.42857142857146 103.3333333333333 L91.42857142857146 106.66666666666664 L94.28571428571432 106.66666666666664 L94.28571428571432 103.3333333333333 L97.1428571428572 103.3333333333333 L97.1428571428572 106.66666666666664 L97.1428571428572 109.99999999999997 L94.28571428571432 109.99999999999997 L94.28571428571432 113.33333333333333 L94.28571428571432 116.66666666666666 L97.1428571428572 116.66666666666666" stroke="red" fill="none"/></svg>
