<?xml version='1.0' encoding='ASCII'?>
<svg xmlns="http://www.w3.org/2000/svg" xmlns:xlink="http://www.w3.org/1999/xlink" width="100" height="120" viewBox="0 0 100 120">
                        <defs>
                        </defs>
                        <rect x="0" y="20" width="100" height="100" stroke="black" fill="white"/><path d="M0.0 20.0 L11.11111111111111 20.0 L11.11111111111111 31.11111111111111 L0.0 31.11111111111111" stroke="lightgray" fill="lightgrey"/><path d="M0.0 31.11111111111111 L11.11111111111111 31.11111111111111 L11.11111111111111 42.22222222222222 L0.0 42.22222222222222" stroke="lightgray" fill="lightgrey"/><path d="M0.0 42.22222222222222 L11.11111111111111 42.22222222222222 L11.11111111111111 53.333333333333336 L0.0 53.333333333333336" stroke="lightgray" fill="lightgrey"/><path d="M0.0 53.333333333333336 L11.11111111111111 53.333333333333336 L11.11111111111111 64.44444444444444 L0.0 64.44444444444444" stroke="lightgray" fill="lightgrey"/><path d="M0.0 64.44444444444444 L11.11111111111111 64.44444444444444 L11.11111111111111 75.55555555555556 L0.0 75.55555555555556" stroke="lightgray" fill="lightgrey"/><path d="M0.0 75.55555555555556 L11.11111111111111 75.55555555555556 L11.11111111111111 86.66666666666667 L0.0 86.66666666666667" stroke="lightgray" fill="lightgrey"/><path d="M0.0 86.66666666666667 L11.11111111111111 86.66666666666667 L11.11111111111111 97.77777777777777 L0.0 97.77777777777777" stroke="lightgray" fill="lightgrey"/><path d="M0.0 97.77777777777777 L11.11111111111111 97.77777777777777 L11.11111111111111 108.88888888888889 L0.0 108.88888888888889" stroke="lightgray" fill="lightgrey"/><path d="M0.0 108.88888888888889 L11.11111111111111 108.88888888888889 L11.11111111111111 120.0 L0.0 120.0" stroke="lightgray" fill="lightgrey"/><path d="M11.11111111111111 20.0 L22.22222222222222 20.0 L22.22222222222222 31.11111111111111 L11.11111111111111 31.11111111111111" stroke="lightgray" fill="lightgrey"/><path d="M11.11111111111111 31.11111111111111 L22.22222222222222 31.11111111111111 L22.22222222222222 42.22222222222222 L11.11111111111111 42.22222222222222" stroke="lightgray" fill="lightgrey"/><path d="M11.11111111111111 42.22222222222222 L22.22222222222222 42.22222222222222 L22.22222222222222 53.333333333333336 L11.11111111111111 53.333333333333336" stroke="lightgray" fill="lightgrey"/><path d="M11.11111111111111 53.333333333333336 L22.22222222222222 53.333333333333336 L22.22222222222222 64.44444444444444 L11.11111111111111 64.44444444444444" stroke="lightgray" fill="lightgrey"/><path d="M11.11111111111111 64.44444444444444 L22.22222222222222 64.44444444444444 L22.22222222222222 75.55555555555556 L11.11111111111111 75.55555555555556" stroke="lightgray" fill="lightgrey"/><path d="M11.11111111111111 75.55555555555556 L22.22222222222222 75.55555555555556 L22.22222222222222 86.66666666666667 L11.11111111111111 86.66666666666667" stroke="lightgray" fill="lightgrey"/><path d="M11.11111111111111 86.66666666666667 L22.22222222222222 86.66666666666667 L22.22222222222222 97.77777777777777 L11.11111111111111 97.77777777777777" stroke="lightgray" fill="lightgrey"/><path d="M11.11111111111111 97.77777777777777 L22.22222222222222 97.77777777777777 L22.22222222222222 108.88888888888889 L11.11111111111111 108.88888888888889" stroke="lightgray" fill="lightgrey"/><path d="M11.11111111111111 108.88888888888889 L22.22222222222222 108.88888888888889 L22.22222222222222 120.0 L11.11111111111111 120.0" stroke="lightgray" fill="lightgrey"/><path d="M22.22222222222222 20.0 L33.333333333333336 20.0 L33.333333333333336 31.11111111111111 L22.22222222222222 31.11111111111111" stroke="lightgray" fill="lightgrey"/><path d="M22.22222222222222 31.11111111111111 L33.333333333333336 31.11111111111111 L33.333333333333336 42.22222222222222 L22.22222222222222 42.22222222222222" stroke="lightgray" fill="lightgrey"/><path d="M22.22222222222222 42.22222222222222 L33.333333333333336 42.22222222222222 L33.333333333333336 53.333333333333336 L22.22222222222222 53.333333333333336" stroke="lightgray" fill="lightgrey"/><path d="M22.22222222222222 53.333333333333336 L33.333333333333336 53.333333333333336 L33.333333333333336 64.44444444444444 L22.22222222222222 64.44444444444444" stroke="lightgray" fill="lightgrey"/><path d="M22.22222222222222 64.44444444444444 L33.333333333333336 64.44444444444444 L33.333333333333336 75.55555555555556 L22.22222222222222 75.55555555555556" stroke="lightgray" fill="lightgrey"/><path d="M22.22222222222222 75.55555555555556 L33.333333333333336 75.55555555555556 L33.333333333333336 86.66666666666667 L22.22222222222222 86.66666666666667" stroke="lightgray" fill="lightgrey"/><path d="M22.22222222222222 86.66666666666667 L33.333333333333336 86.66666666666667 L33.333333333333336 97.77777777777777 L22.22222222222222 97.77777777777777" stroke="lightgray" fill="lightgrey"/><path d="M22.22222222222222 97.77777777777777 L33.333333333333336 97.77777777777777 L33.333333333333336 108.88888888888889 L22.22222222222222 108.88888888888889" stroke="lightgray" fill="lightgrey"/><path d="M22.22222222222222 108.88888888888889 L33.333333333333336 108.88888888888889 L33.333333333333336 120.0 L22.22222222222222 120.0" stroke="lightgray" fill="lightgrey"/><path d="M33.333333333333336 20.0 L44.44444444444444 20.0 L44.44444444444444 31.11111111111111 L33.333333333333336 31.11111111111111" stroke="lightgray" fill="lightgrey"/><path d="M33.333333333333336 31.11111111111111 L44.44444444444444 31.11111111111111 L44.44444444444444 42.22222222222222 L33.333333333333336 42.22222222222222" stroke="lightgray" fill="lightgrey"/><path d="M33.333333333333336 42.22222222222222 L44.44444444444444 42.22222222222222 L44.44444444444444 53.333333333333336 L33.333333333333336 53.333333333333336" stroke="lightgray" fill="lightgrey"/><path d="M33.333333333333336 53.333333333333336 L44.44444444444444 53.333333333333336 L44.44444444444444 64.44444444444444 L33.333333333333336 64.44444444444444" stroke="lightgray" fill="lightgrey"/><path d="M33.333333333333336 64.44444444444444 L44.44444444444444 64.44444444444444 L44.44444444444444 75.55555555555556 L33.333333333333336 75.55555555555556" stroke="lightgray" fill="lightgrey"/><path d="M33.333333333333336 75.55555555555556 L44.44444444444444 75.55555555555556 L44.44444444444444 86.66666666666667 L33.333333333333336 86.66666666666667" stroke="lightgray" fill="lightgrey"/><path d="M33.333333333333336 86.66666666666667 L44.44444444444444 86.66666666666667 L44.44444444444444 97.77777777777777 L33.333333333333336 97.77777777777777" stroke="lightgray" fill="lightgrey"/><path d="M33.333333333333336 97.77777777777777 L44.44444444444444 97.77777777777777 L44.44444444444444 108.88888888888889 L33.333333333333336 108.88888888888889" stroke="lightgray" fill="lightgrey"/><path d="M33.333333333333336 108.88888888888889 L44.44444444444444 108.88888888888889 L44.44444444444444 120.0 L33.333333333333336 120.0" stroke="lightgray" fill="lightgrey"/><path d="M44.44444444444444 20.0 L55.55555555555556 20.0 L55.55555555555556 31.11111111111111 L44.44444444444444 31.11111111111111" stroke="lightgray" fill="lightgrey"/><path d="M44.44444444444444 31.11111111111111 L55.55555555555556 31.11111111111111 L55.55555555555556 42.22222222222222 L44.44444444444444 42.22222222222222" stroke="lightgray" fill="lightgrey"/><path d="M44.44444444444444 42.22222222222222 L55.55555555555556 42.22222222222222 L55.55555555555556 53.333333333333336 L44.44444444444444 53.333333333333336" stroke="lightgray" fill="lightgrey"/><path d="M44.44444444444444 53.333333333333336 L55.55555555555556 53.333333333333336 L55.55555555555556 64.44444444444444 L44.44444444444444 64.44444444444444" stroke="lightgray" fill="lightgrey"/><path d="M44.44444444444444 64.44444444444444 L55.55555555555556 64.44444444444444 L55.55555555555556 75.55555555555556 L44.44444444444444 75.55555555555556" stroke="lightgray" fill="lightgrey"/><path d="M44.44444444444444 75.55555555555556 L55.55555555555556 75.55555555555556 L55.55555555555556 86.66666666666667 L44.44444444444444 86.66666666666667" stroke="lightgray" fill="lightgrey"/><path d="M44.44444444444444 86.66666666666667 L55.55555555555556 86.66666666666667 L55.55555555555556 97.77777777777777 L44.44444444444444 97.77777777777777" stroke="lightgray" fill="lightgrey"/><path d="M44.44444444444444 97.77777777777777 L55.55555555555556 97.77777777777777 L55.55555555555556 108.88888888888889 L44.44444444444444 108.88888888888889" stroke="lightgray" fill="lightgrey"/><path d="M44.44444444444444 108.88888888888889 L55.55555555555556 108.88888888888889 L55.55555555555556 120.0 L44.44444444444444 120.0" stroke="lightgray" fill="lightgrey"/><path d="M55.55555555555556 20.0 L66.66666666666667 20.0 L66.66666666666667 31.11111111111111 L55.55555555555556 31.11111111111111" stroke="lightgray" fill="lightgrey"/><path d="M55.55555555555556 31.11111111111111 L66.66666666666667 31.11111111111111 L66.66666666666667 42.22222222222222 L55.55555555555556 42.22222222222222" stroke="lightgray" fill="lightgrey"/><path d="M55.55555555555556 42.22222222222222 L66.66666666666667 42.22222222222222 L66.66666666666667 53.333333333333336 L55.55555555555556 53.333333333333336" stroke="lightgray" fill="lightgrey"/><path d="M55.55555555555556 53.333333333333336 L66.66666666666667 53.333333333333336 L66.66666666666667 64.44444444444444 L55.55555555555556 64.44444444444444" stroke="lightgray" fill="lightgrey"/><path d="M55.55555555555556 64.44444444444444 L66.66666666666667 64.44444444444444 L66.66666666666667 75.55555555555556 L55.55555555555556 75.55555555555556" stroke="lightgray" fill="lightgrey"/><path d="M55.55555555555556 75.55555555555556 L66.66666666666667 75.55555555555556 L66.66666666666667 86.66666666666667 L55.55555555555556 86.66666666666667" stroke="lightgray" fill="white"/><path d="M55.55555555555556 86.66666666666667 L66.66666666666667 86.66666666666667 L66.66666666666667 97.77777777777777 L55.55555555555556 97.77777777777777" stroke="lightgray" fill="lightgrey"/><path d="M55.55555555555556 97.77777777777777 L66.66666666666667 97.77777777777777 L66.66666666666667 108.88888888888889 L55.55555555555556 108.88888888888889" stroke="lightgray" fill="lightgrey"/><path d="M55.55555555555556 108.88888888888889 L66.66666666666667 108.88888888888889 L66.66666666666667 120.0 L55.55555555555556 120.0" stroke="lightgray" fill="lightgrey"/><path d="M66.66666666666667 20.0 L77.77777777777777 20.0 L77.77777777777777 31.11111111111111 L66.66666666666667 31.11111111111111" stroke="lightgray" fill="lightgrey"/><path d="M66.66666666666667 31.11111111111111 L77.77777777777777 31.11111111111111 L77.77777777777777 42.22222222222222 L66.66666666666667 42.22222222222222" stroke="lightgray" fill="lightgrey"/><path d="M66.66666666666667 42.22222222222222 L77.77777777777777 42.22222222222222 L77.77777777777777 53.333333333333336 L66.66666666666667 53.333333333333336" stroke="lightgray" fill="lightgreen"/><path d="M66.66666666666667 53.333333333333336 L77.77777777777777 53.333333333333336 L77.77777777777777 64.44444444444444 L66.66666666666667 64.44444444444444" stroke="lightgray" fill="lightgrey"/><path d="M66.66666666666667 64.44444444444444 L77.77777777777777 64.44444444444444 L77.77777777777777 75.55555555555556 L66.66666666666667 75.55555555555556" stroke="lightgray" fill="lightgrey"/><path d="M66.66666666666667 75.55555555555556 L77.77777777777777 75.55555555555556 L77.77777777777777 86.66666666666667 L66.66666666666667 86.66666666666667" stroke="lightgray" fill="lightgrey"/><path d="M66.66666666666667 86.66666666666667 L77.77777777777777 86.66666666666667 L77.77777777777777 97.77777777777777 L66.66666666666667 97.77777777777777" stroke="lightgray" fill="white"/><path d="M66.66666666666667 97.77777777777777 L77.77777777777777 97.77777777777777 L77.77777777777777 108.88888888888889 L66.66666666666667 108.88888888888889" stroke="lightgray" fill="lightgrey"/><path d="M66.66666666666667 108.88888888888889 L77.77777777777777 108.88888888888889 L77.77777777777777 120.0 L66.66666666666667 120.0" stroke="lightgray" fill="lightgrey"/><path d="M77.77777777777777 20.0 L88.88888888888889 20.0 L88.88888888888889 31.11111111111111 L77.77777777777777 31.11111111111111" stroke="lightgray" fill="lightgrey"/><path d="M77.77777777777777 31.11111111111111 L88.88888888888889 31.11111111111111 L88.88888888888889 42.22222222222222 L77.77777777777777 42.22222222222222" stroke="lightgray" fill="white"/><path d="M77.77777777777777 42.22222222222222 L88.88888888888889 42.22222222222222 L88.88888888888889 53.333333333333336 L77.77777777777777 53.333333333333336" stroke="lightgray" fill="lightgrey"/><path d="M77.77777777777777 53.333333333333336 L88.88888888888889 53.333333333333336 L88.88888888888889 64.44444444444444 L77.77777777777777 64.44444444444444" stroke="lightgray" fill="lightgrey"/><path d="M77.77777777777777 64.44444444444444 L88.88888888888889 64.44444444444444 L88.88888888888889 75.55555555555556 L77.77777777777777 75.55555555555556" stroke="lightgray" fill="lightgrey"/><path d="M77.77777777777777 75.55555555555556 L88.88888888888889 75.55555555555556 L88.88888888888889 86.66666666666667 L77.77777777777777 86.66666666666667" stroke="lightgray" fill="lightgrey"/><path d="M77.77777777777777 86.66666666666667 L88.88888888888889 86.66666666666667 L88.88888888888889 97.77777777777777 L77.77777777777777 97.77777777777777" stroke="lightgray" fill="lightgrey"/><path d="M77.77777777777777 97.77777777777777 L88.88888888888889 97.77777777777777 L88.88888888888889 108.88888888888889 L77.77777777777777 108.88888888888889" stroke="lightgray" fill="white"/><path d="M77.77777777777777 108.88888888888889 L88.88888888888889 108.88888888888889 L88.88888888888889 120.0 L77.77777777777777 120.0" stroke="lightgray" fill="lightgrey"/><path d="M88.88888888888889 20.0 L100.0 20.0 L100.0 31.11111111111111 L88.88888888888889 31.11111111111111" stroke="lightgray" fill="white"/><path d="M88.88888888888889 31.11111111111111 L100.0 31.11111111111111 L100.0 42.22222222222222 L88.88888888888889 42.22222222222222" stroke="lightgray" fill="lightgrey"/><path d="M88.88888888888889 42.22222222222222 L100.0 42.22222222222222 L100.0 53.333333333333336 L88.88888888888889 53.333333333333336" stroke="lightgray" fill="lightgrey"/><path d="M88.88888888888889 53.333333333333336 L100.0 53.333333333333336 L100.0 64.44444444444444 L88.88888888888889 64.44444444444444" stroke="lightgray" fill="lightgrey"/><path d="M88.88888888888889 64.44444444444444 L100.0 64.44444444444444 L100.0 75.55555555555556 L88.88888888888889 75.55555555555556" stroke="lightgray" fill="lightgrey"/><path d="M88.88888888888889 75.55555555555556 L100.0 75.55555555555556 L100.0 86.66666666666667 L88.88888888888889 86.66666666666667" stroke="lightgray" fill="lightgrey"/><path d="M88.88888888888889 86.66666666666667 L100.0 86.66666666666667 L100.0 97.77777777777777 L88.88888888888889 97.77777777777777" stroke="lightgray" fill="lightgrey"/><path d="M88.88888888888889 97.77777777777777 L100.0 97.77777777777777 L100.0 108.88888888888889 L88.88888888888889 108.88888888888889" stroke="lightgray" fill="lightgrey"/><path d="M88.88888888888889 108.88888888888889 L100.0 108.88888888888889 L100.0 120.0 L88.88888888888889 120.0" stroke="lightgray" fill="white"/><path d="M0.0 20.0 L100.0 20.0 L100.0 120.0 L0.0 120.0 L0.0 20.0" stroke="black" fill="none"/><text font-size="11.11111111111111" text-anchor="middle" dy="-.2em" x="5.555555555555555" y="31.11111111111111" fill="grey"></text><text font-size="11.11111111111111" text-anchor="middle" dy="-.2em" x="5.555555555555555" y="42.22222222222222" fill="grey"></text><text font-size="11.11111111111111" text-anchor="middle" dy="-.2em" x="5.555555555555555" y="53.333333333333336" fill="grey"></text><text font-size="11.11111111111111" text-anchor="middle" dy="-.2em" x="5.555555555555555" y="64.44444444444444" fill="grey"></text><text font-size="11.11111111111111" text-anchor="middle" dy="-.2em" x="5.555555555555555" y="75.55555555555556" fill="grey"></text><text font-size="11.11111111111111" text-anchor="middle" dy="-.2em" x="5.555555555555555" y="86.66666666666667" fill="grey"></text><text font-size="11.11111111111111" text-anchor="middle" dy="-.2em" x="5.555555555555555" y="97.77777777777777" fill="grey"></text><text font-size="11.11111111111111" text-anchor="middle" dy="-.2em" x="5.555555555555555" y="108.88888888888889" fill="grey"></text><text font-size="11.11111111111111" text-anchor="middle" dy="-.2em" x="5.555555555555555" y="120.0" fill="grey"></text><text font-size="11.11111111111111" text-anchor="middle" dy="-.2em" x="16.666666666666668" y="31.11111111111111" fill="grey"></text><text font-size="11.11111111111111" text-anchor="middle" dy="-.2em" x="16.666666666666668" y="42.22222222222222" fill="grey"></text><text font-size="11.11111111111111" text-anchor="middle" dy="-.2em" x="16.666666666666668" y="53.333333333333336" fill="grey"></text><text font-size="11.11111111111111" text-anchor="middle" dy="-.2em" x="16.666666666666668" y="64.44444444444444" fill="grey"></text><text font-size="11.11111111111111" text-anchor="middle" dy="-.2em" x="16.666666666666668" y="75.55555555555556" fill="grey"></text><text font-size="11.11111111111111" text-anchor="middle" dy="-.2em" x="16.666666666666668" y="86.66666666666667" fill="grey"></text><text font-size="11.11111111111111" text-anchor="middle" dy="-.2em" x="16.666666666666668" y="97.77777777777777" fill="grey"></text><text font-size="11.11111111111111" text-anchor="middle" dy="-.2em" x="16.666666666666668" y="108.88888888888889" fill="grey"></text><text font-size="11.11111111111111" text-anchor="middle" dy="-.2em" x="16.666666666666668" y="120.0" fill="grey"></text><text font-size="11.11111111111111" text-anchor="middle" dy="-.2em" x="27.77777777777778" y="31.11111111111111" fill="grey"></text><text font-size="11.11111111111111" text-anchor="middle" dy="-.2em" x="27.77777777777778" y="42.22222222222222" fill="grey"></text><text font-size="11.11111111111111" text-anchor="middle" dy="-.2em" x="27.77777777777778" y="53.333333333333336" fill="grey"></text><text font-size="11.11111111111111" text-anchor="middle" dy="-.2em" x="27.77777777777778" y="64.44444444444444" fill="grey"></text><text font-size="11.11111111111111" text-anchor="middle" dy="-.2em" x="27.77777777777778" y="75.55555555555556" fill="grey"></text><text font-size="11.11111111111111" text-anchor="middle" dy="-.2em" x="27.77777777777778" y="86.66666666666667" fill="grey"></text><text font-size="11.11111111111111" text-anchor="middle" dy="-.2em" x="27.77777777777778" y="97.77777777777777" fill="grey"></text><text font-size="11.11111111111111" text-anchor="middle" dy="-.2em" x="27.77777777777778" y="108.88888888888889" fill="grey"></text><text font-size="11.11111111111111" text-anchor="middle" dy="-.2em" x="27.77777777777778" y="120.0" fill="grey"></text><text font-size="11.11111111111111" text-anchor="middle" dy="-.2em" x="38.888888888888886" y="31.11111111111111" fill="grey"></text><text font-size="11.11111111111111" text-anchor="middle" dy="-.2em" x="38.888888888888886" y="42.22222222222222" fill="grey"></text><text font-size="11.11111111111111" text-anchor="middle" dy="-.2em" x="38.888888888888886" y="53.333333333333336" fill="grey"></text><text font-size="11.11111111111111" text-anchor="middle" dy="-.2em" x="38.888888888888886" y="64.44444444444444" fill="grey"></text><text font-size="11.11111111111111" text-anchor="middle" dy="-.2em" x="38.888888888888886" y="75.55555555555556" fill="grey"></text><text font-size="11.11111111111111" text-anchor="middle" dy="-.2em" x="38.888888888888886" y="86.66666666666667" fill="grey"></text><text font-size="11.11111111111111" text-anchor="middle" dy="-.2em" x="38.888888888888886" y="97.77777777777777" fill="grey"></text><text font-size="11.11111111111111" text-anchor="middle" dy="-.2em" x="38.888888888888886" y="108.88888888888889" fill="grey"></text><text font-size="11.11111111111111" text-anchor="middle" dy="-.2em" x="38.888888888888886" y="120.0" fill="grey"></text><text font-size="11.11111111111111" text-anchor="middle" dy="-.2em" x="50.0" y="31.11111111111111" fill="grey"></text><text font-size="11.11111111111111" text-anchor="middle" dy="-.2em" x="50.0" y="42.22222222222222" fill="grey"></text><text font-size="11.11111111111111" text-anchor="middle" dy="-.2em" x="50.0" y="53.333333333333336" fill="grey"></text><text font-size="11.11111111111111" text-anchor="middle" dy="-.2em" x="50.0" y="64.44444444444444" fill="grey"></text><text font-size="11.11111111111111" text-anchor="middle" dy="-.2em" x="50.0" y="75.55555555555556" fill="grey"></text><text font-size="11.11111111111111" text-anchor="middle" dy="-.2em" x="50.0" y="86.66666666666667" fill="grey"></text><text font-size="11.11111111111111" text-anchor="middle" dy="-.2em" x="50.0" y="97.77777777777777" fill="grey"></text><text font-size="11.11111111111111" text-anchor="middle" dy="-.2em" x="50.0" y="108.88888888888889" fill="grey"></text><text font-size="11.11111111111111" text-anchor="middle" dy="-.2em" x="50.0" y="120.0" fill="grey"></text><text font-size="11.11111111111111" text-anchor="middle" dy="-.2em" x="61.111111111111114" y="31.11111111111111" fill="grey"></text><text font-size="11.11111111111111" text-anchor="middle" dy="-.2em" x="61.111111111111114" y="42.22222222222222" fill="grey"></text><text font-size="11.11111111111111" text-anchor="middle" dy="-.2em" x="61.111111111111114" y="53.333333333333336" fill="grey"></text><text font-size="11.11111111111111" text-anchor="middle" dy="-.2em" x="61.111111111111114" y="64.44444444444444" fill="grey"></text><text font-size="11.11111111111111" text-anchor="middle" dy="-.2em" x="61.111111111111114" y="75.55555555555556" fill="grey"></text><text font-size="11.11111111111111" text-anchor="middle" dy="-.2em" x="61.111111111111114" y="86.66666666666667" fill="grey">1</text><text font-size="11.11111111111111" text-anchor="middle" dy="-.2em" x="61.111111111111114" y="97.77777777777777" fill="grey"></text><text font-size="11.11111111111111" text-anchor="middle" dy="-.2em" x="61.111111111111114" y="108.88888888888889" fill="grey"></text><text font-size="11.11111111111111" text-anchor="middle" dy="-.2em" x="61.111111111111114" y="120.0" fill="grey"></text><text font-size="11.11111111111111" text-anchor="middle" dy="-.2em" x="72.22222222222223" y="31.11111111111111" fill="grey"></text><text font-size="11.11111111111111" text-anchor="middle" dy="-.2em" x="72.22222222222223" y="42.22222222222222" fill="grey"></text><text font-size="11.11111111111111" text-anchor="middle" dy="-.2em" x="72.22222222222223" y="53.333333333333336" fill="grey">2</text><text font-size="11.11111111111111" text-anchor="middle" dy="-.2em" x="72.22222222222223" y="64.44444444444444" fill="grey"></text><text font-size="11.11111111111111" text-anchor="middle" dy="-.2em" x="72.22222222222223" y="75.55555555555556" fill="grey"></text><text font-size="11.11111111111111" text-anchor="middle" dy="-.2em" x="72.22222222222223" y="86.66666666666667" fill="grey"></text><text font-size="11.11111111111111" text-anchor="middle" dy="-.2em" x="72.22222222222223" y="97.77777777777777" fill="grey">1</text><text font-size="11.11111111111111" text-anchor="middle" dy="-.2em" x="72.22222222222223" y="108.88888888888889" fill="grey"></text><text font-size="11.11111111111111" text-anchor="middle" dy="-.2em" x="72.22222222222223" y="120.0" fill="grey"></text><text font-size="11.11111111111111" text-anchor="middle" dy="-.2em" x="83.33333333333333" y="31.11111111111111" fill="grey"></text><text font-size="11.11111111111111" text-anchor="middle" dy="-.2em" x="83.33333333333333" y="42.22222222222222" fill="grey">3</text><text font-size="11.11111111111111" text-anchor="middle" dy="-.2em" x="83.33333333333333" y="53.333333333333336" fill="grey"></text><text font-size="11.11111111111111" text-anchor="middle" dy="-.2em" x="83.33333333333333" y="64.44444444444444" fill="grey"></text><text font-size="11.11111111111111" text-anchor="middle" dy="-.2em" x="83.33333333333333" y="75.55555555555556" fill="grey"></text><text font-size="11.11111111111111" text-anchor="middle" dy="-.2em" x="83.33333333333333" y="86.66666666666667" fill="grey"></text><text font-size="11.11111111111111" text-anchor="middle" dy="-.2em" x="83.33333333333333" y="97.77777777777777" fill="grey"></text><text font-size="11.11111111111111" text-anchor="middle" dy="-.2em" x="83.33333333333333" y="108.88888888888889" fill="grey">4</text><text font-size="11.11111111111111" text-anchor="middle" dy="-.2em" x="83.33333333333333" y="120.0" fill="grey"></text><text font-size="11.11111111111111" text-anchor="middle" dy="-.2em" x="94.44444444444444" y="31.11111111111111" fill="grey">3</text><text font-size="11.11111111111111" text-anchor="middle" dy="-.2em" x="94.44444444444444" y="42.22222222222222" fill="grey"></text><text font-size="11.11111111111111" text-anchor="middle" dy="-.2em" x="94.44444444444444" y="53.333333333333336" fill="grey"></text><text font-size="11.11111111111111" text-anchor="middle" dy="-.2em" x="94.44444444444444" y="64.44444444444444" fill="grey"></text><text font-size="11.11111111111111" text-anchor="middle" dy="-.2em" x="94.44444444444444" y="75.55555555555556" fill="grey"></text><text font-size="11.11111111111111" text-anchor="middle" dy="-.2em" x="94.44444444444444" y="86.66666666666667" fill="grey"></text><text font-size="11.11111111111111" text-anchor="middle" dy="-.2em" x="94.44444444444444" y="97.77777777777777" fill="grey"></text><text font-size="11.11111111111111" text-anchor="middle" dy="-.2em" x="94.44444444444444" y="108.88888888888889" fill="grey"></text><text font-size="11.11111111111111" text-anchor="middle" dy="-.2em" x="94.44444444444444" y="120.0" fill="grey">4</text><rect x="0" y="0" width="50" height="20" stroke="black" fill="white"/><rect x="0" y="0" width="20" height="20" stroke="black" fill="white"/><text font-size="20" text-anchor="middle" dy="-.2em" x="35" y="20" fill="black">4</text><text font-size="20" text-anchor="middle" dy="-.2em" x="10" y="20" fill="black">S</text><rect x="50" y="0" width="50" height="20" stroke="black" fill="white"/><text font-size="20" text-anchor="middle" dy="-.2em" x="85" y="20" fill="black">4</text><path d="M55.0 16.0 L58.0 16.0 L58.0 13.0 L58.0 10.0 L55.0 10.0 L55.0 7.0 L55.0 4.0 L58.0 4.0 L58.0 7.0 L61.0 7.0 L61.0 4.0 L64.0 4.0 L64.0 7.0 L67.0 7.0 L67.0 4.0 L70.0 4.0 L70.0 7.0 L70.0 10.0 L67.0 10.0 L67.0 13.0 L67.0 16.0 L70.0 16.0" stroke="black" fill="none"/><path d="M1.5873015873015872 73.7037037037037 L3.1746031746031744 73.7037037037037 L3.1746031746031744 71.85185185185185 L3.1746031746031744 69.99999999999999 L1.5873015873015872 69.99999999999999 L1.5873015873015872 68.14814814814812 L1.5873015873015872 66.29629629629628 L3.1746031746031744 66.29629629629628 L3.1746031746031744 68.14814814814812 L4.761904761904762 68.14814814814812 L4.761904761904762 66.29629629629628 L6.349206349206349 66.29629629629628 L6.349206349206349 68.14814814814812 L7.936507936507935 68.14814814814812 L7.936507936507935 66.29629629629628 L9.523809523809522 66.29629629629628 L9.523809523809522 68.14814814814812 L9.523809523809522 69.99999999999999 L7.936507936507935 69.99999999999999 L7.936507936507935 71.85185185185185 L7.936507936507935 73.7037037037037 L9.523809523809522 73.7037037037037" stroke="black" fill="none"/><path d="M1.5873015873015872 118.14814814814815 L3.1746031746031744 118.14814814814815 L3.1746031746031744 116.2962962962963 L3.1746031746031744 114.44444444444447 L1.5873015873015872 114.44444444444447 L1.5873015873015872 112.59259259259262 L1.5873015873015872 110.74074074074078 L3.1746031746031744 110.74074074074078 L3.1746031746031744 112.59259259259262 L4.761904761904762 112.59259259259262 L4.761904761904762 110.74074074074078 L6.349206349206349 110.74074074074078 L6.349206349206349 112.59259259259262 L7.936507936507935 112.59259259259262 L7.936507936507935 110.74074074074078 L9.523809523809522 110.74074074074078 L9.523809523809522 112.59259259259262 L9.523809523809522 114.44444444444447 L7.936507936507935 114.44444444444447 L7.936507936507935 116.2962962962963 L7.936507936507935 118.14814814814815 L9.523809523809522 118.14814814814815" stroke="black" fill="none"/><path d="M12.698412698412698 40.37037037037037 L14.285714285714285 40.37037037037037 L14.285714285714285 38.51851851851852 L14.285714285714285 36.66666666666667 L12.698412698412698 36.66666666666667 L12.698412698412698 34.81481481481481 L12.698412698412698 32.96296296296296 L14.285714285714285 32.96296296296296 L14.285714285714285 34.81481481481481 L15.87301587301587 34.81481481481481 L15.87301587301587 32.96296296296296 L17.460317460317455 32.96296296296296 L17.460317460317455 34.81481481481481 L19.047619047619044 34.81481481481481 L19.047619047619044 32.96296296296296 L20.63492063492063 32.96296296296296 L20.63492063492063 34.81481481481481 L20.63492063492063 36.66666666666667 L19.047619047619044 36.66666666666667 L19.047619047619044 38.51851851851852 L19.047619047619044 40.37037037037037 L20.63492063492063 40.37037037037037" stroke="black" fill="none"/><path d="M23.80952380952381 95.92592592592592 L25.396825396825395 95.92592592592592 L25.396825396825395 94.07407407407408 L25.396825396825395 92.22222222222221 L23.80952380952381 92.22222222222221 L23.80952380952381 90.37037037037037 L23.80952380952381 88.5185185185185 L25.396825396825395 88.5185185185185 L25.396825396825395 90.37037037037037 L26.98412698412698 90.37037037037037 L26.98412698412698 88.5185185185185 L28.57142857142857 88.5185185185185 L28.57142857142857 90.37037037037037 L30.158730158730155 90.37037037037037 L30.158730158730155 88.5185185185185 L31.74603174603174 88.5185185185185 L31.74603174603174 90.37037037037037 L31.74603174603174 92.22222222222221 L30.158730158730155 92.22222222222221 L30.158730158730155 94.07407407407408 L30.158730158730155 95.92592592592592 L31.74603174603174 95.92592592592592" stroke="black" fill="none"/><path d="M34.92063492063492 62.592592592592595 L36.507936507936506 62.592592592592595 L36.507936507936506 60.74074074074074 L36.507936507936506 58.88888888888889 L34.92063492063492 58.88888888888889 L34.92063492063492 57.03703703703704 L34.92063492063492 55.18518518518519 L36.507936507936506 55.18518518518519 L36.507936507936506 57.03703703703704 L38.095238095238095 57.03703703703704 L38.095238095238095 55.18518518518519 L39.68253968253968 55.18518518518519 L39.68253968253968 57.03703703703704 L41.269841269841265 57.03703703703704 L41.269841269841265 55.18518518518519 L42.857142857142854 55.18518518518519 L42.857142857142854 57.03703703703704 L42.857142857142854 58.88888888888889 L41.269841269841265 58.88888888888889 L41.269841269841265 60.74074074074074 L41.269841269841265 62.592592592592595 L42.857142857142854 62.592592592592595" stroke="red" fill="none"/><path d="M46.03174603174604 29.25925925925926 L47.61904761904763 29.25925925925926 L47.61904761904763 27.40740740740741 L47.61904761904763 25.555555555555557 L46.03174603174604 25.555555555555557 L46.03174603174604 23.703703703703706 L46.03174603174604 21.851851851851855 L47.61904761904763 21.851851851851855 L47.61904761904763 23.703703703703706 L49.206349206349216 23.703703703703706 L49.206349206349216 21.851851851851855 L50.79365079365081 21.851851851851855 L50.79365079365081 23.703703703703706 L52.3809523809524 23.703703703703706 L52.3809523809524 21.851851851851855 L53.968253968254 21.851851851851855 L53.968253968254 23.703703703703706 L53.968253968254 25.555555555555557 L52.3809523809524 25.555555555555557 L52.3809523809524 27.40740740740741 L52.3809523809524 29.25925925925926 L53.968253968254 29.25925925925926" stroke="black" fill="none"/><path d="M46.03174603174604 118.14814814814815 L47.61904761904763 118.14814814814815 L47.61904761904763 116.2962962962963 L47.61904761904763 114.44444444444447 L46.03174603174604 114.44444444444447 L46.03174603174604 112.59259259259262 L46.03174603174604 110.74074074074078 L47.61904761904763 110.74074074074078 L47.61904761904763 112.59259259259262 L49.206349206349216 112.59259259259262 L49.206349206349216 110.74074074074078 L50.79365079365081 110.74074074074078 L50.79365079365081 112.59259259259262 L52.3809523809524 112.59259259259262 L52.3809523809524 110.74074074074078 L53.968253968254 110.74074074074078 L53.968253968254 112.59259259259262 L53.968253968254 114.44444444444447 L52.3809523809524 114.44444444444447 L52.3809523809524 116.2962962962963 L52.3809523809524 118.14814814814815 L53.968253968254 118.14814814814815" stroke="black" fill="none"/><path d="M90.47619047619047 73.7037037037037 L92.06349206349205 73.7037037037037 L92.06349206349205 71.85185185185185 L92.06349206349205 69.99999999999999 L90.47619047619047 69.99999999999999 L90.47619047619047 68.14814814814812 L90.47619047619047 66.29629629629628 L92.06349206349205 66.29629629629628 L92.06349206349205 68.14814814814812 L93.65079365079363 68.14814814814812 L93.65079365079363 66.29629629629628 L95.23809523809521 66.29629629629628 L95.23809523809521 68.14814814814812 L96.82539682539681 68.14814814814812 L96.82539682539681 66.29629629629628 L98.41269841269838 66.29629629629628 L98.41269841269838 68.14814814814812 L98.41269841269838 69.99999999999999 L96.82539682539681 69.99999999999999 L96.82539682539681 71.85185185185185 L96.82539682539681 73.7037037037037 L98.41269841269838 73.7037037037037" stroke="black" fill="none"/><path d="M55.55555555555556 75.55555555555556 L55.55555555555556 86.66666666666667" stroke="black" fill="none"/><path d="M66.66666666666667 42.22222222222222 L66.66666666666667 53.333333333333336" stroke="black" fill="none"/><path d="M66.66666666666667 75.55555555555556 L66.66666666666667 86.66666666666667" stroke="black" fill="none"/><path d="M66.66666666666667 86.66666666666667 L66.66666666666667 97.77777777777777" stroke="black" fill="none"/><path d="M77.77777777777777 31.11111111111111 L77.77777777777777 42.22222222222222" stroke="black" fill="none"/><path d="M77.77777777777777 42.22222222222222 L77.77777777777777 53.333333333333336" stroke="black" fill="none"/><path d="M77.77777777777777 86.66666666666667 L77.77777777777777 97.77777777777777" stroke="black" fill="none"/><path d="M77.77777777777777 97.77777777777777 L77.77777777777777 108.88888888888889" stroke="black" fill="none"/><path d="M88.88888888888889 20.0 L88.88888888888889 31.11111111111111" stroke="black" fill="none"/><path d="M88.88888888888889 31.11111111111111 L88.88888888888889 42.22222222222222" stroke="black" fill="none"/><path d="M88.88888888888889 97.77777777777777 L88.88888888888889 108.88888888888889" stroke="black" fill="none"/><path d="M88.88888888888889 108.88888888888889 L88.88888888888889 120.0" stroke="black" fill="none"/><path d="M55.55555555555556 75.55555555555556 L66.66666666666667 75.55555555555556" stroke="black" fill="none"/><path d="M55.55555555555556 86.66666666666667 L66.66666666666667 86.66666666666667" stroke="black" fill="none"/><path d="M66.66666666666667 42.22222222222222 L77.77777777777777 42.22222222222222" stroke="black" fill="none"/><path d="M66.66666666666667 53.333333333333336 L77.77777777777777 53.333333333333336" stroke="black" fill="none"/><path d="M66.66666666666667 86.66666666666667 L77.77777777777777 86.66666666666667" stroke="black" fill="none"/><path d="M66.66666666666667 97.77777777777777 L77.77777777777777 97.77777777777777" stroke="black" fill="none"/><path d="M77.77777777777777 31.11111111111111 L88.88888888888889 31.11111111111111" stroke="black" fill="none"/><path d="M77.77777777777777 42.22222222222222 L88.88888888888889 42.22222222222222" stroke="black" fill="none"/><path d="M77.77777777777777 97.77777777777777 L88.88888888888889 97.77777777777777" stroke="black" fill="none"/><path d="M77.77777777777777 108.88888888888889 L88.88888888888889 108.88888888888889" stroke="black" fill="none"/><path d="M88.88888888888889 31.11111111111111 L100.0 31.11111111111111" stroke="black" fill="none"/><path d="M88.88888888888889 108.88888888888889 L100.0 108.88888888888889" stroke="black" fill="none"/></svg>
